1 : Creee
2 : Creee
3 : Creee
4 : Creee
5 : Creee
6 : Creee
7 : Creee
8 : Creee
9 : Creee
10 : Creee
11 : Creee
12 : Creee
13 : Creee
14 : Creee
15 : Creee
16 : Creee
17 : Creee
18 : Creee
19 : Creee
20 : Creee
21 : Creee
22 : Creee
23 : Creee
24 : Creee
25 : Creee
26 : Creee
27 : Acceptee
28 : Acceptee
29 : Acceptee
30 : Acceptee
31 : Acceptee
32 : Acceptee
33 : Acceptee
34 : Acceptee
35 : Acceptee
36 : Acceptee
37 : Acceptee
38 : Acceptee
39 : Acceptee
40 : Acceptee
41 : Acceptee
42 : Acceptee
43 : Acceptee
44 : Acceptee
45 : Acceptee
46 : Acceptee
47 : Acceptee
48 : Acceptee
49 : NonDispo
50 : Acceptee
51 : Acceptee
52 : Acceptee
53 : Acceptee
54 : Acceptee
55 : Acceptee
56 : Acceptee
57 : Acceptee
58 : Acceptee
59 : Acceptee
60 : Acceptee
61 : Acceptee
62 : Acceptee
63 : Acceptee
64 : Acceptee
65 : Acceptee
66 : Acceptee
67 : Acceptee
68 : Acceptee
69 : Acceptee
70 : Acceptee
71 : Acceptee
72 : Acceptee
73 : Acceptee
74 : Acceptee
75 : NonDispo
76 : Acceptee
77 : NonDispo
78 : Acceptee
79 : Acceptee
80 : Acceptee
81 : NonDispo
82 : Acceptee
83 : Acceptee
84 : Acceptee
85 : Acceptee
86 : Acceptee
87 : Acceptee
88 : Acceptee
89 : Acceptee
90 : Acceptee
91 : Acceptee
92 : Acceptee
93 : Acceptee
94 : Acceptee
95 : Acceptee
96 : Acceptee
97 : Acceptee
98 : Acceptee
99 : NonDispo
100 : Acceptee
101 : Acceptee
102 : Acceptee
103 : Acceptee
104 : Acceptee
105 : NonDispo
106 : Acceptee
107 : NonDispo
108 : Acceptee
109 : Acceptee
110 : Acceptee
111 : Acceptee
112 : Acceptee
113 : Acceptee
114 : Acceptee
115 : Acceptee
116 : Acceptee
117 : Acceptee
118 : Acceptee
119 : NonDispo
120 : Acceptee
121 : Acceptee
122 : Acceptee
123 : Acceptee
124 : Acceptee
125 : Acceptee
126 : Acceptee
127 : Acceptee
128 : Acceptee
129 : NonDispo
130 : Acceptee
131 : Acceptee
132 : NonDispo
133 : Acceptee
134 : Acceptee
135 : Acceptee
136 : NonDispo
137 : Acceptee
138 : NonDispo
139 : Acceptee
140 : Acceptee
141 : Acceptee
142 : Acceptee
143 : Acceptee
144 : Acceptee
145 : Acceptee
146 : Acceptee
147 : Acceptee
148 : Acceptee
149 : Acceptee
150 : Acceptee
151 : Acceptee
152 : Acceptee
153 : NonDispo
154 : NonDispo
155 : NonDispo
156 : Acceptee
157 : NonDispo
158 : Acceptee
159 : NonDispo
160 : Acceptee
161 : Acceptee
162 : Acceptee
163 : Acceptee
164 : Acceptee
165 : Acceptee
166 : NonDispo
167 : Acceptee
168 : Acceptee
169 : Acceptee
170 : Acceptee
171 : Acceptee
172 : Acceptee
173 : NonDispo
174 : NonDispo
175 : Acceptee
176 : NonDispo
177 : NonDispo
178 : Acceptee
179 : NonDispo
180 : Acceptee
181 : NonDispo
182 : Acceptee
183 : NonDispo
184 : Acceptee
185 : Acceptee
186 : Acceptee
187 : NonDispo
188 : Acceptee
189 : Acceptee
190 : Acceptee
191 : NonDispo
192 : NonDispo
193 : Acceptee
194 : NonDispo
195 : NonDispo
196 : Acceptee
197 : NonDispo
198 : Acceptee
199 : Acceptee
200 : Acceptee
201 : NonDispo
202 : Acceptee
203 : Acceptee
204 : NonDispo
205 : NonDispo
206 : Acceptee
207 : Acceptee
208 : Acceptee
209 : Acceptee
210 : Acceptee
211 : Acceptee
212 : Acceptee
213 : Acceptee
214 : Acceptee
215 : Acceptee
216 : Acceptee
217 : NonDispo
218 : Acceptee
219 : Acceptee
220 : NonDispo
221 : Acceptee
222 : Acceptee
223 : NonDispo
224 : Acceptee
225 : Acceptee
226 : Acceptee
227 : Acceptee
228 : NonDispo
229 : NonDispo
230 : Acceptee
231 : NonDispo
232 : Acceptee
233 : Acceptee
234 : Acceptee
235 : Acceptee
236 : NonDispo
237 : NonDispo
238 : NonDispo
239 : Acceptee
240 : Acceptee
241 : Acceptee
242 : Acceptee
243 : Acceptee
244 : Acceptee
245 : Acceptee
246 : NonDispo
247 : Acceptee
248 : Acceptee
249 : NonDispo
250 : NonDispo
251 : NonDispo
252 : NonDispo
253 : Acceptee
254 : NonDispo
255 : NonDispo
256 : Acceptee
257 : NonDispo
258 : Acceptee
259 : NonDispo
260 : Acceptee
261 : NonDispo
262 : Acceptee
263 : NonDispo
264 : NonDispo
265 : Acceptee
266 : Acceptee
267 : Acceptee
268 : Acceptee
269 : Acceptee
270 : NonDispo
271 : NonDispo
272 : NonDispo
273 : NonDispo
274 : NonDispo
275 : Acceptee
276 : Acceptee
277 : Acceptee
278 : NonDispo
279 : NonDispo
280 : Acceptee
281 : Acceptee
282 : Acceptee
283 : Acceptee
284 : Acceptee
285 : Acceptee
286 : Acceptee
287 : Acceptee
288 : Acceptee
289 : NonDispo
290 : NonDispo
291 : Acceptee
292 : Acceptee
293 : Acceptee
294 : Acceptee
295 : NonDispo
296 : Acceptee
297 : NonDispo
298 : Acceptee
299 : Acceptee
300 : NonDispo
301 : NonDispo
302 : Acceptee
303 : NonDispo
304 : Acceptee
305 : NonDispo
306 : Acceptee
307 : Acceptee
308 : Acceptee
309 : NonDispo
310 : NonDispo
311 : NonDispo
312 : Acceptee
313 : NonDispo
314 : NonDispo
315 : NonDispo
316 : NonDispo
317 : Acceptee
318 : NonDispo
319 : NonDispo
320 : Acceptee
321 : NonDispo
322 : NonDispo
323 : Acceptee
324 : NonDispo
325 : NonDispo
326 : NonDispo
327 : NonDispo
328 : NonDispo
329 : NonDispo
330 : NonDispo
331 : NonDispo
332 : NonDispo
333 : NonDispo
334 : NonDispo
335 : NonDispo
336 : NonDispo
337 : Acceptee
338 : Acceptee
339 : Acceptee
340 : NonDispo
341 : NonDispo
342 : NonDispo
343 : NonDispo
344 : NonDispo
345 : NonDispo
346 : Acceptee
347 : NonDispo
348 : NonDispo
349 : Acceptee
350 : Acceptee
351 : NonDispo
352 : Acceptee
353 : Acceptee
354 : NonDispo
355 : Acceptee
356 : NonDispo
357 : NonDispo
358 : NonDispo
359 : NonDispo
360 : Acceptee
361 : NonDispo
362 : NonDispo
363 : NonDispo
364 : NonDispo
365 : NonDispo
366 : Acceptee
367 : Acceptee
368 : NonDispo
369 : NonDispo
370 : Acceptee
371 : NonDispo
372 : NonDispo
373 : Acceptee
374 : Acceptee
375 : NonDispo
376 : NonDispo
377 : Acceptee
378 : NonDispo
379 : NonDispo
380 : Acceptee
381 : Acceptee
382 : NonDispo
383 : NonDispo
384 : NonDispo
385 : NonDispo
386 : NonDispo
387 : NonDispo
388 : NonDispo
389 : NonDispo
390 : Acceptee
391 : NonDispo
392 : NonDispo
393 : NonDispo
394 : Acceptee
395 : NonDispo
396 : NonDispo
397 : NonDispo
398 : NonDispo
399 : NonDispo
400 : Acceptee
401 : NonDispo
402 : Acceptee
403 : NonDispo
404 : Acceptee
405 : NonDispo
406 : Acceptee
407 : NonDispo
408 : NonDispo
409 : NonDispo
410 : Acceptee
411 : NonDispo
412 : NonDispo
413 : NonDispo
414 : Acceptee
415 : Acceptee
416 : Acceptee
417 : NonDispo
418 : Acceptee
419 : NonDispo
420 : Acceptee
421 : Acceptee
422 : NonDispo
423 : Acceptee
424 : NonDispo
425 : NonDispo
426 : NonDispo
427 : NonDispo
428 : Acceptee
429 : NonDispo
430 : Acceptee
431 : Acceptee
432 : Acceptee
433 : Acceptee
434 : NonDispo
435 : NonDispo
436 : Acceptee
437 : Acceptee
438 : NonDispo
439 : NonDispo
440 : Acceptee
441 : NonDispo
442 : NonDispo
443 : Acceptee
444 : NonDispo
445 : NonDispo
446 : NonDispo
447 : Acceptee
448 : Acceptee
449 : Acceptee
450 : Acceptee
451 : NonDispo
452 : NonDispo
453 : NonDispo
454 : NonDispo
455 : Acceptee
456 : Acceptee
457 : NonDispo
458 : NonDispo
459 : Acceptee
460 : Acceptee
461 : NonDispo
462 : NonDispo
463 : Acceptee
464 : NonDispo
465 : NonDispo
466 : Acceptee
467 : NonDispo
468 : NonDispo
469 : Acceptee
470 : NonDispo
471 : Acceptee
472 : NonDispo
473 : Acceptee
474 : NonDispo
475 : Acceptee
476 : NonDispo
477 : Acceptee
478 : Acceptee
479 : NonDispo
480 : NonDispo
481 : Acceptee
482 : Acceptee
483 : Acceptee
484 : Acceptee
485 : Acceptee
486 : NonDispo
487 : Acceptee
488 : Acceptee
489 : NonDispo
490 : NonDispo
491 : NonDispo
492 : Acceptee
493 : Acceptee
494 : NonDispo
495 : NonDispo
496 : Acceptee
497 : Acceptee
498 : NonDispo
499 : NonDispo
500 : Acceptee
501 : NonDispo
502 : NonDispo
503 : Acceptee
504 : NonDispo
505 : NonDispo
506 : NonDispo
507 : NonDispo
508 : NonDispo
509 : NonDispo
510 : NonDispo
511 : NonDispo
512 : NonDispo
513 : Acceptee
514 : Acceptee
515 : NonDispo
516 : NonDispo
517 : Acceptee
518 : NonDispo
519 : Acceptee
520 : NonDispo
521 : NonDispo
522 : NonDispo
523 : NonDispo
524 : Acceptee
525 : NonDispo
526 : NonDispo
527 : NonDispo
528 : NonDispo
529 : Acceptee
530 : NonDispo
531 : NonDispo
532 : NonDispo
533 : NonDispo
534 : NonDispo
535 : Acceptee
536 : NonDispo
537 : Acceptee
538 : NonDispo
539 : NonDispo
540 : Acceptee
541 : NonDispo
542 : Acceptee
543 : Acceptee
544 : NonDispo
545 : Acceptee
546 : Acceptee
547 : NonDispo
548 : NonDispo
549 : NonDispo
550 : NonDispo
551 : Acceptee
552 : NonDispo
553 : Acceptee
554 : Acceptee
555 : Acceptee
556 : NonDispo
557 : Acceptee
558 : Acceptee
559 : Acceptee
560 : Acceptee
561 : NonDispo
562 : NonDispo
563 : NonDispo
564 : NonDispo
565 : NonDispo
566 : NonDispo
567 : NonDispo
568 : NonDispo
569 : NonDispo
570 : Acceptee
571 : NonDispo
572 : Acceptee
573 : NonDispo
574 : NonDispo
575 : Acceptee
576 : Acceptee
577 : NonDispo
578 : NonDispo
579 : Acceptee
580 : NonDispo
581 : NonDispo
582 : Acceptee
583 : NonDispo
584 : Acceptee
585 : NonDispo
586 : Acceptee
587 : Acceptee
588 : NonDispo
589 : NonDispo
590 : NonDispo
591 : Acceptee
592 : NonDispo
593 : NonDispo
594 : NonDispo
595 : Acceptee
596 : NonDispo
597 : NonDispo
598 : Acceptee
599 : Acceptee
600 : Acceptee
601 : NonDispo
602 : NonDispo
603 : NonDispo
604 : NonDispo
605 : Acceptee
606 : Acceptee
607 : NonDispo
608 : NonDispo
609 : Acceptee
610 : NonDispo
611 : NonDispo
612 : NonDispo
613 : NonDispo
614 : NonDispo
615 : Acceptee
616 : NonDispo
617 : Acceptee
618 : NonDispo
619 : NonDispo
620 : NonDispo
621 : NonDispo
622 : NonDispo
623 : Acceptee
624 : NonDispo
625 : NonDispo
626 : NonDispo
627 : Acceptee
628 : Acceptee
629 : Acceptee
630 : NonDispo
631 : Acceptee
632 : Acceptee
633 : NonDispo
634 : Acceptee
635 : NonDispo
636 : NonDispo
637 : Acceptee
638 : Acceptee
639 : Acceptee
640 : Acceptee
641 : NonDispo
642 : Acceptee
643 : NonDispo
644 : Acceptee
645 : Acceptee
646 : Acceptee
647 : NonDispo
648 : Acceptee
649 : Acceptee
650 : NonDispo
651 : NonDispo
652 : NonDispo
653 : Acceptee
654 : Acceptee
655 : NonDispo
656 : NonDispo
657 : NonDispo
658 : Acceptee
659 : Acceptee
660 : NonDispo
661 : Acceptee
662 : Acceptee
663 : Acceptee
664 : NonDispo
665 : NonDispo
666 : NonDispo
667 : NonDispo
668 : NonDispo
669 : NonDispo
670 : NonDispo
671 : NonDispo
672 : NonDispo
673 : NonDispo
674 : Acceptee
675 : NonDispo
676 : Acceptee
677 : NonDispo
678 : NonDispo
679 : NonDispo
680 : NonDispo
681 : NonDispo
682 : NonDispo
683 : Acceptee
684 : NonDispo
685 : Acceptee
686 : NonDispo
687 : NonDispo
688 : Acceptee
689 : NonDispo
690 : NonDispo
691 : NonDispo
692 : Acceptee
693 : NonDispo
694 : NonDispo
695 : Acceptee
696 : Acceptee
697 : Acceptee
698 : Acceptee
699 : Acceptee
700 : NonDispo
701 : Acceptee
702 : NonDispo
703 : NonDispo
704 : NonDispo
705 : Acceptee
706 : Acceptee
707 : Acceptee
708 : NonDispo
709 : Acceptee
710 : NonDispo
711 : NonDispo
712 : NonDispo
713 : Acceptee
714 : Acceptee
715 : Acceptee
716 : Acceptee
717 : NonDispo
718 : NonDispo
719 : NonDispo
720 : Acceptee
721 : Acceptee
722 : Acceptee
723 : Acceptee
724 : Acceptee
725 : NonDispo
726 : NonDispo
727 : NonDispo
728 : NonDispo
729 : Acceptee
730 : NonDispo
731 : Acceptee
732 : Acceptee
733 : NonDispo
734 : NonDispo
735 : Acceptee
736 : Acceptee
737 : NonDispo
738 : Acceptee
739 : NonDispo
740 : Acceptee
741 : Acceptee
742 : Acceptee
743 : NonDispo
744 : NonDispo
745 : NonDispo
746 : Acceptee
747 : NonDispo
748 : Acceptee
749 : NonDispo
750 : Acceptee
751 : NonDispo
752 : NonDispo
753 : NonDispo
754 : NonDispo
755 : NonDispo
756 : NonDispo
757 : Acceptee
758 : NonDispo
759 : NonDispo
760 : NonDispo
761 : Acceptee
762 : Acceptee
763 : NonDispo
764 : NonDispo
765 : Acceptee
766 : Acceptee
767 : NonDispo
768 : NonDispo
769 : NonDispo
770 : Acceptee
771 : Acceptee
772 : Acceptee
773 : Acceptee
774 : NonDispo
775 : NonDispo
776 : NonDispo
777 : Acceptee
778 : Acceptee
779 : Acceptee
780 : Acceptee
781 : NonDispo
782 : Acceptee
783 : Acceptee
784 : Acceptee
785 : NonDispo
786 : Acceptee
787 : NonDispo
788 : NonDispo
789 : NonDispo
790 : Acceptee
791 : NonDispo
792 : NonDispo
793 : NonDispo
794 : Acceptee
795 : NonDispo
796 : Acceptee
797 : NonDispo
798 : NonDispo
799 : Acceptee
800 : NonDispo
801 : NonDispo
802 : Acceptee
803 : Acceptee
804 : Acceptee
805 : NonDispo
806 : Acceptee
807 : Acceptee
808 : Acceptee
809 : Acceptee
810 : NonDispo
811 : NonDispo
812 : Acceptee
813 : NonDispo
814 : Acceptee
815 : NonDispo
816 : Acceptee
817 : NonDispo
818 : NonDispo
819 : NonDispo
820 : Acceptee
821 : Acceptee
822 : NonDispo
823 : Acceptee
824 : NonDispo
825 : NonDispo
826 : Acceptee
827 : NonDispo
828 : NonDispo
829 : NonDispo
830 : Acceptee
831 : NonDispo
832 : NonDispo
833 : NonDispo
834 : NonDispo
835 : Acceptee
836 : NonDispo
837 : NonDispo
838 : NonDispo
839 : NonDispo
840 : NonDispo
841 : NonDispo
842 : Acceptee
843 : NonDispo
844 : Acceptee
845 : NonDispo
846 : NonDispo
847 : NonDispo
848 : NonDispo
849 : NonDispo
850 : NonDispo
851 : NonDispo
852 : NonDispo
853 : Acceptee
854 : NonDispo
855 : NonDispo
856 : NonDispo
857 : Acceptee
858 : Acceptee
859 : NonDispo
860 : Acceptee
861 : NonDispo
862 : NonDispo
863 : Acceptee
864 : NonDispo
865 : NonDispo
866 : NonDispo
867 : NonDispo
868 : NonDispo
869 : Acceptee
870 : Acceptee
871 : Acceptee
872 : Acceptee
873 : NonDispo
874 : Acceptee
875 : Acceptee
876 : Acceptee
877 : Acceptee
878 : Acceptee
879 : Acceptee
880 : NonDispo
881 : NonDispo
882 : NonDispo
883 : NonDispo
884 : NonDispo
885 : NonDispo
886 : Acceptee
887 : Acceptee
888 : NonDispo
889 : NonDispo
890 : Acceptee
891 : NonDispo
892 : Acceptee
893 : NonDispo
894 : NonDispo
895 : Acceptee
896 : NonDispo
897 : Acceptee
898 : Acceptee
899 : Acceptee
900 : Acceptee
901 : NonDispo
902 : NonDispo
903 : Acceptee
904 : NonDispo
905 : Acceptee
906 : Acceptee
907 : NonDispo
908 : NonDispo
909 : Acceptee
910 : NonDispo
911 : NonDispo
912 : Acceptee
913 : NonDispo
914 : Acceptee
915 : Acceptee
916 : NonDispo
917 : NonDispo
918 : NonDispo
919 : NonDispo
920 : Acceptee
921 : Acceptee
922 : NonDispo
923 : Acceptee
924 : NonDispo
925 : NonDispo
926 : NonDispo
927 : Acceptee
928 : NonDispo
929 : Acceptee
930 : NonDispo
931 : Acceptee
932 : Acceptee
933 : NonDispo
934 : Acceptee
935 : Acceptee
936 : Acceptee
937 : NonDispo
938 : Acceptee
939 : NonDispo
940 : Acceptee
941 : NonDispo
942 : NonDispo
943 : NonDispo
944 : Acceptee
945 : NonDispo
946 : NonDispo
947 : NonDispo
948 : Acceptee
949 : NonDispo
950 : NonDispo
951 : Acceptee
952 : NonDispo
953 : NonDispo
954 : NonDispo
955 : Acceptee
956 : NonDispo
957 : Acceptee
958 : NonDispo
959 : Acceptee
960 : Acceptee
961 : NonDispo
962 : NonDispo
963 : NonDispo
964 : NonDispo
965 : Acceptee
966 : NonDispo
967 : Acceptee
968 : NonDispo
969 : Acceptee
970 : Acceptee
971 : NonDispo
972 : NonDispo
973 : NonDispo
974 : NonDispo
975 : Acceptee
976 : NonDispo
977 : NonDispo
978 : NonDispo
979 : NonDispo
980 : NonDispo
981 : Acceptee
982 : Acceptee
983 : Acceptee
984 : NonDispo
985 : NonDispo
986 : Acceptee
987 : NonDispo
988 : Acceptee
989 : Acceptee
990 : NonDispo
991 : Acceptee
992 : NonDispo
993 : NonDispo
994 : NonDispo
995 : NonDispo
996 : NonDispo
997 : Acceptee
998 : Acceptee
999 : Acceptee
1000 : Acceptee
1001 : Acceptee
1002 : NonDispo
1003 : Acceptee
1004 : Acceptee
1005 : NonDispo
1006 : NonDispo
1007 : NonDispo
1008 : NonDispo
1009 : Acceptee
1010 : Acceptee
1011 : Acceptee
1012 : Acceptee
1013 : Acceptee
1014 : Acceptee
1015 : Acceptee
1016 : NonDispo
1017 : NonDispo
1018 : Acceptee
1019 : NonDispo
1020 : Acceptee
1021 : Acceptee
1022 : NonDispo
1023 : Acceptee
1024 : NonDispo
1025 : Acceptee
1026 : Acceptee
