1 : Creee
2 : Creee
3 : Creee
4 : Creee
5 : Creee
6 : Creee
7 : Creee
8 : Creee
9 : Creee
10 : Creee
11 : Creee
12 : Creee
13 : Creee
14 : Creee
15 : Creee
16 : Creee
17 : Creee
18 : Creee
19 : Creee
20 : Creee
21 : Creee
22 : Creee
23 : Creee
24 : Creee
25 : Creee
26 : Creee
27 : Creee
28 : Creee
29 : Creee
30 : Creee
31 : Creee
32 : Creee
33 : Creee
34 : Creee
35 : Creee
36 : Creee
37 : Creee
38 : Creee
39 : Creee
40 : Creee
41 : Creee
42 : Creee
43 : Creee
44 : Creee
45 : Creee
46 : Creee
47 : Creee
48 : Creee
49 : Creee
50 : Creee
51 : Creee
52 : Creee
53 : Creee
54 : Creee
55 : Creee
56 : Creee
57 : Creee
58 : Creee
59 : Creee
60 : Creee
61 : Creee
62 : Creee
63 : Creee
64 : Creee
65 : Creee
66 : Creee
67 : Creee
68 : Creee
69 : Creee
70 : Creee
71 : Creee
72 : Creee
73 : Creee
74 : Creee
75 : Creee
76 : Creee
77 : Creee
78 : Creee
79 : Creee
80 : Creee
81 : Creee
82 : Creee
83 : Creee
84 : Creee
85 : Creee
86 : Creee
87 : Creee
88 : Creee
89 : Creee
90 : Creee
91 : Creee
92 : Creee
93 : Creee
94 : Creee
95 : Creee
96 : Creee
97 : Creee
98 : Creee
99 : Creee
100 : Creee
101 : Creee
102 : Creee
103 : Creee
104 : Creee
105 : Creee
106 : Creee
107 : Creee
108 : Creee
109 : Creee
110 : Creee
111 : Creee
112 : Creee
113 : Creee
114 : Creee
115 : Creee
116 : Creee
117 : Creee
118 : Creee
119 : Creee
120 : Creee
121 : Creee
122 : Creee
123 : Creee
124 : Creee
125 : Creee
126 : Creee
127 : Creee
128 : Creee
129 : Creee
130 : Creee
131 : Creee
132 : Creee
133 : Creee
134 : Creee
135 : Creee
136 : Creee
137 : Creee
138 : Creee
139 : Creee
140 : Creee
141 : Creee
142 : Creee
143 : Creee
144 : Creee
145 : Creee
146 : Creee
147 : Creee
148 : Creee
149 : Creee
150 : Creee
151 : Creee
152 : Creee
153 : Creee
154 : Creee
155 : Creee
156 : Creee
157 : Creee
158 : Creee
159 : Creee
160 : Creee
161 : Creee
162 : Creee
163 : Creee
164 : Creee
165 : Creee
166 : Creee
167 : Creee
168 : Creee
169 : Creee
170 : Creee
171 : Creee
172 : Creee
173 : Creee
174 : Creee
175 : Creee
176 : Creee
177 : Creee
178 : Creee
179 : Creee
180 : Creee
181 : Creee
182 : Creee
183 : Creee
184 : Creee
185 : Creee
186 : Creee
187 : Creee
188 : Creee
189 : Creee
190 : Creee
191 : Creee
192 : Creee
193 : Creee
194 : Creee
195 : Creee
196 : Creee
197 : Creee
198 : Creee
199 : Creee
200 : Creee
201 : Creee
202 : Creee
203 : Creee
204 : Creee
205 : Creee
206 : Creee
207 : Creee
208 : Creee
209 : Creee
210 : Creee
211 : Creee
212 : Creee
213 : Creee
214 : Creee
215 : Creee
216 : Creee
217 : Creee
218 : Creee
219 : Creee
220 : Creee
221 : Creee
222 : Creee
223 : Creee
224 : Creee
225 : Creee
226 : Creee
227 : Creee
228 : Creee
229 : Creee
230 : Creee
231 : Creee
232 : Creee
233 : Creee
234 : Creee
235 : Creee
236 : Creee
237 : Creee
238 : Creee
239 : Creee
240 : Creee
241 : Creee
242 : Creee
243 : Creee
244 : Creee
245 : Creee
246 : Creee
247 : Creee
248 : Creee
249 : Creee
250 : Creee
251 : Creee
252 : Creee
253 : Creee
254 : Creee
255 : Creee
256 : Creee
257 : Creee
258 : Creee
259 : Creee
260 : Creee
261 : Creee
262 : Creee
263 : Creee
264 : Creee
265 : Creee
266 : Creee
267 : Creee
268 : Creee
269 : Creee
270 : Creee
271 : Creee
272 : Creee
273 : Creee
274 : Creee
275 : Creee
276 : Creee
277 : Creee
278 : Creee
279 : Creee
280 : Creee
281 : Creee
282 : Creee
283 : Creee
284 : Creee
285 : Creee
286 : Creee
287 : Creee
288 : Creee
289 : Creee
290 : Creee
291 : Creee
292 : Creee
293 : Creee
294 : Creee
295 : Creee
296 : Creee
297 : Creee
298 : Creee
299 : Creee
300 : Creee
301 : Creee
302 : Creee
303 : Creee
304 : Creee
305 : Creee
306 : Creee
307 : Creee
308 : Creee
309 : Creee
310 : Creee
311 : Creee
312 : Creee
313 : Creee
314 : Creee
315 : Creee
316 : Creee
317 : Creee
318 : Creee
319 : Creee
320 : Creee
321 : Creee
322 : Creee
323 : Creee
324 : Creee
325 : Creee
326 : Creee
327 : Creee
328 : Creee
329 : Creee
330 : Creee
331 : Creee
332 : Creee
333 : Creee
334 : Creee
335 : Creee
336 : Creee
337 : Creee
338 : Creee
339 : Creee
340 : Creee
341 : Creee
342 : Creee
343 : Creee
344 : Creee
345 : Creee
346 : Creee
347 : Creee
348 : Creee
349 : Creee
350 : Creee
351 : Creee
352 : Creee
353 : Creee
354 : Creee
355 : Creee
356 : Creee
357 : Creee
358 : Creee
359 : Creee
360 : Creee
361 : Creee
362 : Creee
363 : Creee
364 : Creee
365 : Creee
366 : Creee
367 : Creee
368 : Creee
369 : Creee
370 : Creee
371 : Creee
372 : Creee
373 : Creee
374 : Creee
375 : Creee
376 : Creee
377 : Creee
378 : Creee
379 : Creee
380 : Creee
381 : Creee
382 : Creee
383 : Creee
384 : Creee
385 : Creee
386 : Creee
387 : Creee
388 : Creee
389 : Creee
390 : Creee
391 : Creee
392 : Creee
393 : Creee
394 : Creee
395 : Creee
396 : Creee
397 : Creee
398 : Creee
399 : Creee
400 : Creee
401 : Creee
402 : Creee
403 : Creee
404 : Creee
405 : Creee
406 : Creee
407 : Creee
408 : Creee
409 : Creee
410 : Creee
411 : Creee
412 : Creee
413 : Creee
414 : Creee
415 : Creee
416 : Creee
417 : Creee
418 : Creee
419 : Creee
420 : Creee
421 : Creee
422 : Creee
423 : Creee
424 : Creee
425 : Creee
426 : Creee
427 : Creee
428 : Creee
429 : Creee
430 : Creee
431 : Creee
432 : Creee
433 : Creee
434 : Creee
435 : Creee
436 : Creee
437 : Creee
438 : Creee
439 : Creee
440 : Creee
441 : Creee
442 : Creee
443 : Creee
444 : Creee
445 : Creee
446 : Creee
447 : Creee
448 : Creee
449 : Creee
450 : Creee
451 : Creee
452 : Creee
453 : Creee
454 : Creee
455 : Creee
456 : Creee
457 : Creee
458 : Creee
459 : Creee
460 : Creee
461 : Creee
462 : Creee
463 : Creee
464 : Creee
465 : Creee
466 : Creee
467 : Creee
468 : Creee
469 : Creee
470 : Creee
471 : Creee
472 : Creee
473 : Creee
474 : Creee
475 : Creee
476 : Creee
477 : Creee
478 : Creee
479 : Creee
480 : Creee
481 : Creee
482 : Creee
483 : Creee
484 : Creee
485 : Creee
486 : Creee
487 : Creee
488 : Creee
489 : Creee
490 : Creee
491 : Creee
492 : Creee
493 : Creee
494 : Creee
495 : Creee
496 : Creee
497 : Creee
498 : Creee
499 : Creee
500 : Creee
501 : Creee
502 : Creee
503 : Creee
504 : Creee
505 : Creee
506 : Creee
507 : Creee
508 : Creee
509 : Creee
510 : Creee
511 : Creee
512 : Creee
513 : Creee
514 : Creee
515 : Creee
516 : Creee
517 : Creee
518 : Creee
519 : Creee
520 : Creee
521 : Creee
522 : Creee
523 : Creee
524 : Creee
525 : Creee
526 : Creee
527 : Creee
528 : Creee
529 : Creee
530 : Creee
531 : Creee
532 : Creee
533 : Creee
534 : Creee
535 : Creee
536 : Creee
537 : Creee
538 : Creee
539 : Creee
540 : Creee
541 : Creee
542 : Creee
543 : Creee
544 : Creee
545 : Creee
546 : Creee
547 : Creee
548 : Creee
549 : Creee
550 : Creee
551 : Creee
552 : Creee
553 : Creee
554 : Creee
555 : Creee
556 : Creee
557 : Creee
558 : Creee
559 : Creee
560 : Creee
561 : Creee
562 : Creee
563 : Creee
564 : Creee
565 : Creee
566 : Creee
567 : Creee
568 : Creee
569 : Creee
570 : Creee
571 : Creee
572 : Creee
573 : Creee
574 : Creee
575 : Creee
576 : Creee
577 : Creee
578 : Creee
579 : Creee
580 : Creee
581 : Creee
582 : Creee
583 : Creee
584 : Creee
585 : Creee
586 : Creee
587 : Creee
588 : Creee
589 : Creee
590 : Creee
591 : Creee
592 : Creee
593 : Creee
594 : Creee
595 : Creee
596 : Creee
597 : Creee
598 : Creee
599 : Creee
600 : Creee
601 : Creee
602 : Creee
603 : Creee
604 : Creee
605 : Creee
606 : Creee
607 : Creee
608 : Creee
609 : Creee
610 : Creee
611 : Creee
612 : Creee
613 : Creee
614 : Creee
615 : Creee
616 : Creee
617 : Creee
618 : Creee
619 : Creee
620 : Creee
621 : Creee
622 : Creee
623 : Creee
624 : Creee
625 : Creee
626 : Creee
627 : Creee
628 : Creee
629 : Creee
630 : Creee
631 : Creee
632 : Creee
633 : Creee
634 : Creee
635 : Creee
636 : Creee
637 : Creee
638 : Creee
639 : Creee
640 : Creee
641 : Creee
642 : Creee
643 : Creee
644 : Creee
645 : Creee
646 : Creee
647 : Creee
648 : Creee
649 : Creee
650 : Creee
651 : Creee
652 : Creee
653 : Creee
654 : Creee
655 : Creee
656 : Creee
657 : Creee
658 : Creee
659 : Creee
660 : Creee
661 : Creee
662 : Creee
663 : Creee
664 : Creee
665 : Creee
666 : Creee
667 : Creee
668 : Creee
669 : Creee
670 : Creee
671 : Creee
672 : Creee
673 : Creee
674 : Creee
675 : Creee
676 : Creee
677 : Creee
678 : Creee
679 : Creee
680 : Creee
681 : Creee
682 : Creee
683 : Creee
684 : Creee
685 : Creee
686 : Creee
687 : Creee
688 : Creee
689 : Creee
690 : Creee
691 : Creee
692 : Creee
693 : Creee
694 : Creee
695 : Creee
696 : Creee
697 : Creee
698 : Creee
699 : Creee
700 : Creee
701 : Creee
702 : Creee
703 : Creee
704 : Creee
705 : Creee
706 : Creee
707 : Creee
708 : Creee
709 : Creee
710 : Creee
711 : Creee
712 : Creee
713 : Creee
714 : Creee
715 : Creee
716 : Creee
717 : Creee
718 : Creee
719 : Creee
720 : Creee
721 : Creee
722 : Creee
723 : Creee
724 : Creee
725 : Creee
726 : Creee
727 : Creee
728 : Creee
729 : Creee
730 : Creee
731 : Creee
732 : Creee
733 : Creee
734 : Creee
735 : Creee
736 : Creee
737 : Creee
738 : Creee
739 : Creee
740 : Creee
741 : Creee
742 : Creee
743 : Creee
744 : Creee
745 : Creee
746 : Creee
747 : Creee
748 : Creee
749 : Creee
750 : Creee
751 : Creee
752 : Creee
753 : Creee
754 : Creee
755 : Creee
756 : Creee
757 : Creee
758 : Creee
759 : Creee
760 : Creee
761 : Creee
762 : Creee
763 : Creee
764 : Creee
765 : Creee
766 : Creee
767 : Creee
768 : Creee
769 : Creee
770 : Creee
771 : Creee
772 : Creee
773 : Creee
774 : Creee
775 : Creee
776 : Creee
777 : Creee
778 : Creee
779 : Creee
780 : Creee
781 : Creee
782 : Creee
783 : Creee
784 : Creee
785 : Creee
786 : Creee
787 : Creee
788 : Creee
789 : Creee
790 : Creee
791 : Creee
792 : Creee
793 : Creee
794 : Creee
795 : Creee
796 : Creee
797 : Creee
798 : Creee
799 : Creee
800 : Creee
801 : Creee
802 : Creee
803 : Creee
804 : Creee
805 : Creee
806 : Creee
807 : Creee
808 : Creee
809 : Creee
810 : Creee
811 : Creee
812 : Creee
813 : Creee
814 : Creee
815 : Creee
816 : Creee
817 : Creee
818 : Creee
819 : Creee
820 : Creee
821 : Creee
822 : Creee
823 : Creee
824 : Creee
825 : Creee
826 : Creee
827 : Creee
828 : Creee
829 : Creee
830 : Creee
831 : Creee
832 : Creee
833 : Creee
834 : Creee
835 : Creee
836 : Creee
837 : Creee
838 : Creee
839 : Creee
840 : Creee
841 : Creee
842 : Creee
843 : Creee
844 : Creee
845 : Creee
846 : Creee
847 : Creee
848 : Creee
849 : Creee
850 : Creee
851 : Creee
852 : Creee
853 : Creee
854 : Creee
855 : Creee
856 : Creee
857 : Creee
858 : Creee
859 : Creee
860 : Creee
861 : Creee
862 : Creee
863 : Creee
864 : Creee
865 : Creee
866 : Creee
867 : Creee
868 : Creee
869 : Creee
870 : Creee
871 : Creee
872 : Creee
873 : Creee
874 : Creee
875 : Creee
876 : Creee
877 : Creee
878 : Creee
879 : Creee
880 : Creee
881 : Creee
882 : Creee
883 : Creee
884 : Creee
885 : Creee
886 : Creee
887 : Creee
888 : Creee
889 : Creee
890 : Creee
891 : Creee
892 : Creee
893 : Creee
894 : Creee
895 : Creee
896 : Creee
897 : Creee
898 : Creee
899 : Creee
900 : Creee
901 : Creee
902 : Creee
903 : Creee
904 : Creee
905 : Creee
906 : Creee
907 : Creee
908 : Creee
909 : Creee
910 : Creee
911 : Creee
912 : Creee
913 : Creee
914 : Creee
915 : Creee
916 : Creee
917 : Creee
918 : Creee
919 : Creee
920 : Creee
921 : Creee
922 : Creee
923 : Creee
924 : Creee
925 : Creee
926 : Creee
927 : Creee
928 : Creee
929 : Creee
930 : Creee
931 : Creee
932 : Creee
933 : Creee
934 : Creee
935 : Creee
936 : Creee
937 : Creee
938 : Creee
939 : Creee
940 : Creee
941 : Creee
942 : Creee
943 : Creee
944 : Creee
945 : Creee
946 : Creee
947 : Creee
948 : Creee
949 : Creee
950 : Creee
951 : Creee
952 : Creee
953 : Creee
954 : Creee
955 : Creee
956 : Creee
957 : Creee
958 : Creee
959 : Creee
960 : Creee
961 : Creee
962 : Creee
963 : Creee
964 : Creee
965 : Creee
966 : Creee
967 : Creee
968 : Creee
969 : Creee
970 : Creee
971 : Creee
972 : Creee
973 : Creee
974 : Creee
975 : Creee
976 : Creee
977 : Creee
978 : Creee
979 : Creee
980 : Creee
981 : Creee
982 : Creee
983 : Creee
984 : Creee
985 : Creee
986 : Creee
987 : Creee
988 : Creee
989 : Creee
990 : Creee
991 : Creee
992 : Creee
993 : Creee
994 : Creee
995 : Creee
996 : Creee
997 : Creee
998 : Creee
999 : Creee
1000 : Creee
1001 : Acceptee
1002 : Acceptee
1003 : Acceptee
1004 : Acceptee
1005 : Acceptee
1006 : Acceptee
1007 : Acceptee
1008 : NonDispo
1009 : Acceptee
1010 : Acceptee
1011 : Acceptee
1012 : Acceptee
1013 : Acceptee
1014 : Acceptee
1015 : Acceptee
1016 : Acceptee
1017 : Acceptee
1018 : Acceptee
1019 : Acceptee
1020 : Acceptee
1021 : Acceptee
1022 : NonDispo
1023 : Acceptee
1024 : Acceptee
1025 : NonDispo
1026 : Acceptee
1027 : Acceptee
1028 : Acceptee
1029 : Acceptee
1030 : Acceptee
1031 : Acceptee
1032 : Acceptee
1033 : Acceptee
1034 : Acceptee
1035 : Acceptee
1036 : Acceptee
1037 : Acceptee
1038 : Acceptee
1039 : Acceptee
1040 : Acceptee
1041 : Acceptee
1042 : Acceptee
1043 : Acceptee
1044 : Acceptee
1045 : Acceptee
1046 : Acceptee
1047 : Acceptee
1048 : Acceptee
1049 : Acceptee
1050 : Acceptee
1051 : Acceptee
1052 : Acceptee
1053 : Acceptee
1054 : NonDispo
1055 : Acceptee
1056 : Acceptee
1057 : Acceptee
1058 : Acceptee
1059 : Acceptee
1060 : Acceptee
1061 : Acceptee
1062 : Acceptee
1063 : Acceptee
1064 : Acceptee
1065 : Acceptee
1066 : Acceptee
1067 : Acceptee
1068 : Acceptee
1069 : Acceptee
1070 : Acceptee
1071 : Acceptee
1072 : Acceptee
1073 : Acceptee
1074 : Acceptee
1075 : Acceptee
1076 : Acceptee
1077 : Acceptee
1078 : Acceptee
1079 : Acceptee
1080 : Acceptee
1081 : Acceptee
1082 : Acceptee
1083 : Acceptee
1084 : Acceptee
1085 : Acceptee
1086 : Acceptee
1087 : Acceptee
1088 : Acceptee
1089 : NonDispo
1090 : Acceptee
1091 : Acceptee
1092 : Acceptee
1093 : Acceptee
1094 : Acceptee
1095 : Acceptee
1096 : Acceptee
1097 : NonDispo
1098 : Acceptee
1099 : Acceptee
1100 : Acceptee
1101 : Acceptee
1102 : Acceptee
1103 : Acceptee
1104 : Acceptee
1105 : Acceptee
1106 : Acceptee
1107 : NonDispo
1108 : Acceptee
1109 : Acceptee
1110 : Acceptee
1111 : Acceptee
1112 : Acceptee
1113 : Acceptee
1114 : NonDispo
1115 : Acceptee
1116 : NonDispo
1117 : Acceptee
1118 : Acceptee
1119 : Acceptee
1120 : Acceptee
1121 : Acceptee
1122 : Acceptee
1123 : Acceptee
1124 : Acceptee
1125 : Acceptee
1126 : Acceptee
1127 : Acceptee
1128 : NonDispo
1129 : Acceptee
1130 : Acceptee
1131 : Acceptee
1132 : Acceptee
1133 : Acceptee
1134 : Acceptee
1135 : Acceptee
1136 : Acceptee
1137 : Acceptee
1138 : Acceptee
1139 : Acceptee
1140 : Acceptee
1141 : Acceptee
1142 : Acceptee
1143 : Acceptee
1144 : Acceptee
1145 : Acceptee
1146 : Acceptee
1147 : Acceptee
1148 : Acceptee
1149 : Acceptee
1150 : Acceptee
1151 : Acceptee
1152 : Acceptee
1153 : Acceptee
1154 : Acceptee
1155 : Acceptee
1156 : NonDispo
1157 : Acceptee
1158 : Acceptee
1159 : Acceptee
1160 : Acceptee
1161 : Acceptee
1162 : Acceptee
1163 : Acceptee
1164 : Acceptee
1165 : Acceptee
1166 : Acceptee
1167 : NonDispo
1168 : Acceptee
1169 : Acceptee
1170 : Acceptee
1171 : Acceptee
1172 : Acceptee
1173 : Acceptee
1174 : Acceptee
1175 : Acceptee
1176 : Acceptee
1177 : Acceptee
1178 : Acceptee
1179 : Acceptee
1180 : Acceptee
1181 : Acceptee
1182 : Acceptee
1183 : Acceptee
1184 : Acceptee
1185 : Acceptee
1186 : NonDispo
1187 : Acceptee
1188 : Acceptee
1189 : Acceptee
1190 : Acceptee
1191 : NonDispo
1192 : NonDispo
1193 : Acceptee
1194 : Acceptee
1195 : Acceptee
1196 : Acceptee
1197 : Acceptee
1198 : Acceptee
1199 : Acceptee
1200 : Acceptee
1201 : Acceptee
1202 : Acceptee
1203 : Acceptee
1204 : NonDispo
1205 : Acceptee
1206 : Acceptee
1207 : Acceptee
1208 : Acceptee
1209 : Acceptee
1210 : Acceptee
1211 : Acceptee
1212 : Acceptee
1213 : NonDispo
1214 : Acceptee
1215 : Acceptee
1216 : Acceptee
1217 : Acceptee
1218 : Acceptee
1219 : Acceptee
1220 : Acceptee
1221 : Acceptee
1222 : Acceptee
1223 : Acceptee
1224 : Acceptee
1225 : Acceptee
1226 : Acceptee
1227 : Acceptee
1228 : Acceptee
1229 : Acceptee
1230 : Acceptee
1231 : NonDispo
1232 : Acceptee
1233 : Acceptee
1234 : Acceptee
1235 : Acceptee
1236 : Acceptee
1237 : Acceptee
1238 : Acceptee
1239 : Acceptee
1240 : Acceptee
1241 : Acceptee
1242 : Acceptee
1243 : Acceptee
1244 : Acceptee
1245 : Acceptee
1246 : Acceptee
1247 : Acceptee
1248 : Acceptee
1249 : Acceptee
1250 : Acceptee
1251 : Acceptee
1252 : Acceptee
1253 : Acceptee
1254 : Acceptee
1255 : Acceptee
1256 : Acceptee
1257 : Acceptee
1258 : Acceptee
1259 : Acceptee
1260 : Acceptee
1261 : Acceptee
1262 : Acceptee
1263 : Acceptee
1264 : Acceptee
1265 : Acceptee
1266 : Acceptee
1267 : Acceptee
1268 : Acceptee
1269 : Acceptee
1270 : Acceptee
1271 : Acceptee
1272 : Acceptee
1273 : Acceptee
1274 : Acceptee
1275 : Acceptee
1276 : Acceptee
1277 : Acceptee
1278 : Acceptee
1279 : Acceptee
1280 : NonDispo
1281 : Acceptee
1282 : Acceptee
1283 : Acceptee
1284 : Acceptee
1285 : Acceptee
1286 : Acceptee
1287 : Acceptee
1288 : Acceptee
1289 : Acceptee
1290 : Acceptee
1291 : Acceptee
1292 : Acceptee
1293 : Acceptee
1294 : Acceptee
1295 : Acceptee
1296 : Acceptee
1297 : Acceptee
1298 : Acceptee
1299 : NonDispo
1300 : Acceptee
1301 : Acceptee
1302 : NonDispo
1303 : Acceptee
1304 : NonDispo
1305 : NonDispo
1306 : Acceptee
1307 : Acceptee
1308 : Acceptee
1309 : Acceptee
1310 : NonDispo
1311 : Acceptee
1312 : NonDispo
1313 : Acceptee
1314 : Acceptee
1315 : Acceptee
1316 : Acceptee
1317 : Acceptee
1318 : Acceptee
1319 : Acceptee
1320 : Acceptee
1321 : Acceptee
1322 : Acceptee
1323 : Acceptee
1324 : Acceptee
1325 : Acceptee
1326 : Acceptee
1327 : Acceptee
1328 : Acceptee
1329 : Acceptee
1330 : Acceptee
1331 : Acceptee
1332 : NonDispo
1333 : Acceptee
1334 : Acceptee
1335 : Acceptee
1336 : Acceptee
1337 : Acceptee
1338 : Acceptee
1339 : Acceptee
1340 : Acceptee
1341 : Acceptee
1342 : Acceptee
1343 : Acceptee
1344 : Acceptee
1345 : Acceptee
1346 : Acceptee
1347 : Acceptee
1348 : Acceptee
1349 : Acceptee
1350 : Acceptee
1351 : Acceptee
1352 : Acceptee
1353 : Acceptee
1354 : Acceptee
1355 : Acceptee
1356 : Acceptee
1357 : Acceptee
1358 : Acceptee
1359 : Acceptee
1360 : Acceptee
1361 : Acceptee
1362 : Acceptee
1363 : Acceptee
1364 : Acceptee
1365 : Acceptee
1366 : Acceptee
1367 : Acceptee
1368 : NonDispo
1369 : Acceptee
1370 : NonDispo
1371 : Acceptee
1372 : Acceptee
1373 : Acceptee
1374 : Acceptee
1375 : Acceptee
1376 : Acceptee
1377 : Acceptee
1378 : Acceptee
1379 : Acceptee
1380 : NonDispo
1381 : NonDispo
1382 : Acceptee
1383 : NonDispo
1384 : Acceptee
1385 : Acceptee
1386 : Acceptee
1387 : Acceptee
1388 : Acceptee
1389 : Acceptee
1390 : Acceptee
1391 : Acceptee
1392 : Acceptee
1393 : Acceptee
1394 : NonDispo
1395 : Acceptee
1396 : Acceptee
1397 : Acceptee
1398 : Acceptee
1399 : Acceptee
1400 : Acceptee
1401 : Acceptee
1402 : Acceptee
1403 : Acceptee
1404 : Acceptee
1405 : Acceptee
1406 : Acceptee
1407 : Acceptee
1408 : Acceptee
1409 : Acceptee
1410 : Acceptee
1411 : Acceptee
1412 : Acceptee
1413 : NonDispo
1414 : Acceptee
1415 : Acceptee
1416 : NonDispo
1417 : Acceptee
1418 : Acceptee
1419 : NonDispo
1420 : Acceptee
1421 : Acceptee
1422 : Acceptee
1423 : Acceptee
1424 : Acceptee
1425 : Acceptee
1426 : Acceptee
1427 : Acceptee
1428 : Acceptee
1429 : Acceptee
1430 : NonDispo
1431 : Acceptee
1432 : Acceptee
1433 : Acceptee
1434 : Acceptee
1435 : Acceptee
1436 : Acceptee
1437 : Acceptee
1438 : NonDispo
1439 : Acceptee
1440 : Acceptee
1441 : Acceptee
1442 : Acceptee
1443 : Acceptee
1444 : NonDispo
1445 : Acceptee
1446 : Acceptee
1447 : NonDispo
1448 : Acceptee
1449 : Acceptee
1450 : Acceptee
1451 : Acceptee
1452 : NonDispo
1453 : Acceptee
1454 : Acceptee
1455 : Acceptee
1456 : Acceptee
1457 : Acceptee
1458 : Acceptee
1459 : Acceptee
1460 : Acceptee
1461 : Acceptee
1462 : Acceptee
1463 : Acceptee
1464 : Acceptee
1465 : Acceptee
1466 : Acceptee
1467 : Acceptee
1468 : Acceptee
1469 : NonDispo
1470 : Acceptee
1471 : Acceptee
1472 : Acceptee
1473 : Acceptee
1474 : Acceptee
1475 : Acceptee
1476 : Acceptee
1477 : Acceptee
1478 : Acceptee
1479 : Acceptee
1480 : Acceptee
1481 : Acceptee
1482 : Acceptee
1483 : Acceptee
1484 : Acceptee
1485 : Acceptee
1486 : Acceptee
1487 : Acceptee
1488 : Acceptee
1489 : Acceptee
1490 : Acceptee
1491 : NonDispo
1492 : Acceptee
1493 : NonDispo
1494 : Acceptee
1495 : Acceptee
1496 : Acceptee
1497 : NonDispo
1498 : Acceptee
1499 : Acceptee
1500 : Acceptee
1501 : Acceptee
1502 : Acceptee
1503 : Acceptee
1504 : NonDispo
1505 : Acceptee
1506 : NonDispo
1507 : Acceptee
1508 : Acceptee
1509 : Acceptee
1510 : Acceptee
1511 : Acceptee
1512 : Acceptee
1513 : Acceptee
1514 : Acceptee
1515 : Acceptee
1516 : Acceptee
1517 : Acceptee
1518 : Acceptee
1519 : Acceptee
1520 : Acceptee
1521 : Acceptee
1522 : Acceptee
1523 : Acceptee
1524 : Acceptee
1525 : Acceptee
1526 : Acceptee
1527 : Acceptee
1528 : Acceptee
1529 : Acceptee
1530 : Acceptee
1531 : Acceptee
1532 : Acceptee
1533 : Acceptee
1534 : Acceptee
1535 : NonDispo
1536 : Acceptee
1537 : Acceptee
1538 : Acceptee
1539 : Acceptee
1540 : Acceptee
1541 : Acceptee
1542 : Acceptee
1543 : NonDispo
1544 : Acceptee
1545 : Acceptee
1546 : Acceptee
1547 : Acceptee
1548 : Acceptee
1549 : Acceptee
1550 : Acceptee
1551 : Acceptee
1552 : Acceptee
1553 : Acceptee
1554 : NonDispo
1555 : Acceptee
1556 : NonDispo
1557 : Acceptee
1558 : NonDispo
1559 : Acceptee
1560 : Acceptee
1561 : Acceptee
1562 : Acceptee
1563 : Acceptee
1564 : Acceptee
1565 : Acceptee
1566 : Acceptee
1567 : Acceptee
1568 : NonDispo
1569 : Acceptee
1570 : Acceptee
1571 : Acceptee
1572 : Acceptee
1573 : Acceptee
1574 : Acceptee
1575 : Acceptee
1576 : Acceptee
1577 : Acceptee
1578 : Acceptee
1579 : Acceptee
1580 : Acceptee
1581 : Acceptee
1582 : Acceptee
1583 : Acceptee
1584 : Acceptee
1585 : Acceptee
1586 : Acceptee
1587 : Acceptee
1588 : Acceptee
1589 : NonDispo
1590 : Acceptee
1591 : Acceptee
1592 : Acceptee
1593 : Acceptee
1594 : Acceptee
1595 : Acceptee
1596 : Acceptee
1597 : Acceptee
1598 : Acceptee
1599 : Acceptee
1600 : Acceptee
1601 : Acceptee
1602 : Acceptee
1603 : Acceptee
1604 : Acceptee
1605 : Acceptee
1606 : Acceptee
1607 : Acceptee
1608 : Acceptee
1609 : Acceptee
1610 : Acceptee
1611 : Acceptee
1612 : NonDispo
1613 : Acceptee
1614 : NonDispo
1615 : Acceptee
1616 : Acceptee
1617 : Acceptee
1618 : Acceptee
1619 : Acceptee
1620 : Acceptee
1621 : Acceptee
1622 : Acceptee
1623 : NonDispo
1624 : Acceptee
1625 : Acceptee
1626 : Acceptee
1627 : Acceptee
1628 : Acceptee
1629 : Acceptee
1630 : Acceptee
1631 : NonDispo
1632 : Acceptee
1633 : Acceptee
1634 : Acceptee
1635 : Acceptee
1636 : Acceptee
1637 : Acceptee
1638 : Acceptee
1639 : Acceptee
1640 : Acceptee
1641 : Acceptee
1642 : Acceptee
1643 : Acceptee
1644 : Acceptee
1645 : Acceptee
1646 : Acceptee
1647 : Acceptee
1648 : NonDispo
1649 : Acceptee
1650 : Acceptee
1651 : Acceptee
1652 : NonDispo
1653 : Acceptee
1654 : Acceptee
1655 : Acceptee
1656 : Acceptee
1657 : Acceptee
1658 : Acceptee
1659 : Acceptee
1660 : Acceptee
1661 : Acceptee
1662 : NonDispo
1663 : Acceptee
1664 : Acceptee
1665 : Acceptee
1666 : Acceptee
1667 : Acceptee
1668 : Acceptee
1669 : Acceptee
1670 : Acceptee
1671 : Acceptee
1672 : Acceptee
1673 : Acceptee
1674 : Acceptee
1675 : Acceptee
1676 : Acceptee
1677 : Acceptee
1678 : Acceptee
1679 : Acceptee
1680 : Acceptee
1681 : Acceptee
1682 : Acceptee
1683 : Acceptee
1684 : Acceptee
1685 : Acceptee
1686 : Acceptee
1687 : Acceptee
1688 : Acceptee
1689 : Acceptee
1690 : Acceptee
1691 : NonDispo
1692 : Acceptee
1693 : Acceptee
1694 : Acceptee
1695 : Acceptee
1696 : Acceptee
1697 : Acceptee
1698 : Acceptee
1699 : Acceptee
1700 : Acceptee
1701 : Acceptee
1702 : Acceptee
1703 : Acceptee
1704 : Acceptee
1705 : Acceptee
1706 : Acceptee
1707 : Acceptee
1708 : Acceptee
1709 : Acceptee
1710 : Acceptee
1711 : Acceptee
1712 : Acceptee
1713 : Acceptee
1714 : Acceptee
1715 : Acceptee
1716 : Acceptee
1717 : Acceptee
1718 : NonDispo
1719 : Acceptee
1720 : Acceptee
1721 : Acceptee
1722 : Acceptee
1723 : Acceptee
1724 : Acceptee
1725 : Acceptee
1726 : Acceptee
1727 : Acceptee
1728 : Acceptee
1729 : NonDispo
1730 : Acceptee
1731 : Acceptee
1732 : Acceptee
1733 : Acceptee
1734 : Acceptee
1735 : Acceptee
1736 : Acceptee
1737 : Acceptee
1738 : NonDispo
1739 : Acceptee
1740 : Acceptee
1741 : NonDispo
1742 : Acceptee
1743 : NonDispo
1744 : Acceptee
1745 : Acceptee
1746 : Acceptee
1747 : Acceptee
1748 : Acceptee
1749 : Acceptee
1750 : Acceptee
1751 : Acceptee
1752 : Acceptee
1753 : Acceptee
1754 : Acceptee
1755 : Acceptee
1756 : Acceptee
1757 : Acceptee
1758 : NonDispo
1759 : Acceptee
1760 : Acceptee
1761 : Acceptee
1762 : Acceptee
1763 : Acceptee
1764 : Acceptee
1765 : Acceptee
1766 : Acceptee
1767 : Acceptee
1768 : Acceptee
1769 : Acceptee
1770 : Acceptee
1771 : Acceptee
1772 : Acceptee
1773 : Acceptee
1774 : Acceptee
1775 : Acceptee
1776 : Acceptee
1777 : Acceptee
1778 : Acceptee
1779 : Acceptee
1780 : Acceptee
1781 : Acceptee
1782 : Acceptee
1783 : Acceptee
1784 : Acceptee
1785 : Acceptee
1786 : Acceptee
1787 : Acceptee
1788 : Acceptee
1789 : Acceptee
1790 : Acceptee
1791 : Acceptee
1792 : Acceptee
1793 : Acceptee
1794 : Acceptee
1795 : Acceptee
1796 : NonDispo
1797 : Acceptee
1798 : NonDispo
1799 : Acceptee
1800 : Acceptee
1801 : Acceptee
1802 : Acceptee
1803 : Acceptee
1804 : Acceptee
1805 : NonDispo
1806 : Acceptee
1807 : NonDispo
1808 : Acceptee
1809 : NonDispo
1810 : Acceptee
1811 : Acceptee
1812 : Acceptee
1813 : Acceptee
1814 : Acceptee
1815 : Acceptee
1816 : Acceptee
1817 : Acceptee
1818 : Acceptee
1819 : Acceptee
1820 : Acceptee
1821 : Acceptee
1822 : Acceptee
1823 : Acceptee
1824 : Acceptee
1825 : Acceptee
1826 : NonDispo
1827 : Acceptee
1828 : Acceptee
1829 : Acceptee
1830 : Acceptee
1831 : Acceptee
1832 : Acceptee
1833 : Acceptee
1834 : Acceptee
1835 : Acceptee
1836 : Acceptee
1837 : Acceptee
1838 : Acceptee
1839 : Acceptee
1840 : Acceptee
1841 : Acceptee
1842 : Acceptee
1843 : Acceptee
1844 : Acceptee
1845 : Acceptee
1846 : NonDispo
1847 : Acceptee
1848 : Acceptee
1849 : Acceptee
1850 : Acceptee
1851 : Acceptee
1852 : Acceptee
1853 : Acceptee
1854 : Acceptee
1855 : Acceptee
1856 : Acceptee
1857 : Acceptee
1858 : Acceptee
1859 : Acceptee
1860 : Acceptee
1861 : Acceptee
1862 : Acceptee
1863 : Acceptee
1864 : Acceptee
1865 : Acceptee
1866 : Acceptee
1867 : Acceptee
1868 : Acceptee
1869 : Acceptee
1870 : Acceptee
1871 : Acceptee
1872 : Acceptee
1873 : Acceptee
1874 : Acceptee
1875 : Acceptee
1876 : Acceptee
1877 : Acceptee
1878 : Acceptee
1879 : Acceptee
1880 : Acceptee
1881 : NonDispo
1882 : Acceptee
1883 : Acceptee
1884 : Acceptee
1885 : Acceptee
1886 : Acceptee
1887 : Acceptee
1888 : Acceptee
1889 : Acceptee
1890 : Acceptee
1891 : Acceptee
1892 : Acceptee
1893 : Acceptee
1894 : Acceptee
1895 : Acceptee
1896 : Acceptee
1897 : NonDispo
1898 : Acceptee
1899 : Acceptee
1900 : Acceptee
1901 : Acceptee
1902 : Acceptee
1903 : NonDispo
1904 : Acceptee
1905 : Acceptee
1906 : Acceptee
1907 : Acceptee
1908 : Acceptee
1909 : Acceptee
1910 : Acceptee
1911 : NonDispo
1912 : Acceptee
1913 : Acceptee
1914 : Acceptee
1915 : Acceptee
1916 : Acceptee
1917 : Acceptee
1918 : Acceptee
1919 : Acceptee
1920 : Acceptee
1921 : Acceptee
1922 : Acceptee
1923 : NonDispo
1924 : Acceptee
1925 : Acceptee
1926 : NonDispo
1927 : Acceptee
1928 : Acceptee
1929 : Acceptee
1930 : Acceptee
1931 : Acceptee
1932 : Acceptee
1933 : Acceptee
1934 : Acceptee
1935 : Acceptee
1936 : Acceptee
1937 : Acceptee
1938 : NonDispo
1939 : Acceptee
1940 : Acceptee
1941 : NonDispo
1942 : Acceptee
1943 : Acceptee
1944 : NonDispo
1945 : Acceptee
1946 : Acceptee
1947 : Acceptee
1948 : Acceptee
1949 : NonDispo
1950 : Acceptee
1951 : Acceptee
1952 : Acceptee
1953 : Acceptee
1954 : Acceptee
1955 : Acceptee
1956 : Acceptee
1957 : Acceptee
1958 : Acceptee
1959 : Acceptee
1960 : Acceptee
1961 : Acceptee
1962 : Acceptee
1963 : Acceptee
1964 : Acceptee
1965 : Acceptee
1966 : Acceptee
1967 : Acceptee
1968 : Acceptee
1969 : Acceptee
1970 : Acceptee
1971 : Acceptee
1972 : Acceptee
1973 : Acceptee
1974 : Acceptee
1975 : NonDispo
1976 : Acceptee
1977 : Acceptee
1978 : Acceptee
1979 : Acceptee
1980 : Acceptee
1981 : Acceptee
1982 : Acceptee
1983 : Acceptee
1984 : Acceptee
1985 : Acceptee
1986 : Acceptee
1987 : Acceptee
1988 : Acceptee
1989 : NonDispo
1990 : Acceptee
1991 : Acceptee
1992 : Acceptee
1993 : Acceptee
1994 : Acceptee
1995 : NonDispo
1996 : Acceptee
1997 : NonDispo
1998 : Acceptee
1999 : Acceptee
2000 : Acceptee
2001 : Acceptee
2002 : Acceptee
2003 : Acceptee
2004 : Acceptee
2005 : Acceptee
2006 : Acceptee
2007 : Acceptee
2008 : Acceptee
2009 : Acceptee
2010 : Acceptee
2011 : Acceptee
2012 : Acceptee
2013 : Acceptee
2014 : Acceptee
2015 : Acceptee
2016 : Acceptee
2017 : Acceptee
2018 : Acceptee
2019 : Acceptee
2020 : Acceptee
2021 : Acceptee
2022 : Acceptee
2023 : Acceptee
2024 : Acceptee
2025 : Acceptee
2026 : Acceptee
2027 : Acceptee
2028 : Acceptee
2029 : Acceptee
2030 : Acceptee
2031 : Acceptee
2032 : Acceptee
2033 : Acceptee
2034 : Acceptee
2035 : Acceptee
2036 : Acceptee
2037 : Acceptee
2038 : Acceptee
2039 : Acceptee
2040 : Acceptee
2041 : Acceptee
2042 : Acceptee
2043 : Acceptee
2044 : Acceptee
2045 : Acceptee
2046 : NonDispo
2047 : Acceptee
2048 : Acceptee
2049 : Acceptee
2050 : Acceptee
2051 : Acceptee
2052 : Acceptee
2053 : Acceptee
2054 : Acceptee
2055 : Acceptee
2056 : Acceptee
2057 : Acceptee
2058 : Acceptee
2059 : Acceptee
2060 : NonDispo
2061 : Acceptee
2062 : Acceptee
2063 : Acceptee
2064 : Acceptee
2065 : Acceptee
2066 : Acceptee
2067 : Acceptee
2068 : Acceptee
2069 : Acceptee
2070 : Acceptee
2071 : Acceptee
2072 : Acceptee
2073 : Acceptee
2074 : Acceptee
2075 : Acceptee
2076 : NonDispo
2077 : Acceptee
2078 : Acceptee
2079 : Acceptee
2080 : Acceptee
2081 : NonDispo
2082 : Acceptee
2083 : Acceptee
2084 : Acceptee
2085 : Acceptee
2086 : Acceptee
2087 : NonDispo
2088 : NonDispo
2089 : NonDispo
2090 : Acceptee
2091 : Acceptee
2092 : Acceptee
2093 : Acceptee
2094 : NonDispo
2095 : NonDispo
2096 : Acceptee
2097 : Acceptee
2098 : Acceptee
2099 : Acceptee
2100 : Acceptee
2101 : Acceptee
2102 : Acceptee
2103 : Acceptee
2104 : Acceptee
2105 : Acceptee
2106 : Acceptee
2107 : Acceptee
2108 : Acceptee
2109 : Acceptee
2110 : Acceptee
2111 : Acceptee
2112 : Acceptee
2113 : Acceptee
2114 : NonDispo
2115 : Acceptee
2116 : Acceptee
2117 : Acceptee
2118 : Acceptee
2119 : Acceptee
2120 : Acceptee
2121 : Acceptee
2122 : Acceptee
2123 : Acceptee
2124 : Acceptee
2125 : Acceptee
2126 : NonDispo
2127 : Acceptee
2128 : Acceptee
2129 : Acceptee
2130 : Acceptee
2131 : Acceptee
2132 : Acceptee
2133 : Acceptee
2134 : Acceptee
2135 : Acceptee
2136 : Acceptee
2137 : Acceptee
2138 : Acceptee
2139 : Acceptee
2140 : Acceptee
2141 : Acceptee
2142 : Acceptee
2143 : NonDispo
2144 : Acceptee
2145 : Acceptee
2146 : Acceptee
2147 : Acceptee
2148 : Acceptee
2149 : Acceptee
2150 : NonDispo
2151 : Acceptee
2152 : NonDispo
2153 : Acceptee
2154 : Acceptee
2155 : Acceptee
2156 : Acceptee
2157 : Acceptee
2158 : Acceptee
2159 : Acceptee
2160 : Acceptee
2161 : Acceptee
2162 : Acceptee
2163 : Acceptee
2164 : Acceptee
2165 : Acceptee
2166 : Acceptee
2167 : Acceptee
2168 : NonDispo
2169 : Acceptee
2170 : NonDispo
2171 : Acceptee
2172 : Acceptee
2173 : Acceptee
2174 : Acceptee
2175 : Acceptee
2176 : Acceptee
2177 : Acceptee
2178 : Acceptee
2179 : Acceptee
2180 : Acceptee
2181 : Acceptee
2182 : Acceptee
2183 : NonDispo
2184 : Acceptee
2185 : Acceptee
2186 : Acceptee
2187 : Acceptee
2188 : NonDispo
2189 : NonDispo
2190 : Acceptee
2191 : Acceptee
2192 : Acceptee
2193 : Acceptee
2194 : Acceptee
2195 : Acceptee
2196 : Acceptee
2197 : Acceptee
2198 : NonDispo
2199 : Acceptee
2200 : NonDispo
2201 : Acceptee
2202 : Acceptee
2203 : Acceptee
2204 : Acceptee
2205 : Acceptee
2206 : Acceptee
2207 : Acceptee
2208 : Acceptee
2209 : Acceptee
2210 : Acceptee
2211 : Acceptee
2212 : Acceptee
2213 : Acceptee
2214 : NonDispo
2215 : Acceptee
2216 : Acceptee
2217 : Acceptee
2218 : Acceptee
2219 : Acceptee
2220 : NonDispo
2221 : Acceptee
2222 : NonDispo
2223 : Acceptee
2224 : NonDispo
2225 : Acceptee
2226 : Acceptee
2227 : Acceptee
2228 : Acceptee
2229 : Acceptee
2230 : Acceptee
2231 : Acceptee
2232 : Acceptee
2233 : Acceptee
2234 : Acceptee
2235 : Acceptee
2236 : NonDispo
2237 : Acceptee
2238 : Acceptee
2239 : Acceptee
2240 : Acceptee
2241 : Acceptee
2242 : Acceptee
2243 : Acceptee
2244 : Acceptee
2245 : Acceptee
2246 : Acceptee
2247 : Acceptee
2248 : Acceptee
2249 : Acceptee
2250 : Acceptee
2251 : Acceptee
2252 : NonDispo
2253 : Acceptee
2254 : NonDispo
2255 : Acceptee
2256 : Acceptee
2257 : Acceptee
2258 : Acceptee
2259 : Acceptee
2260 : Acceptee
2261 : Acceptee
2262 : Acceptee
2263 : NonDispo
2264 : Acceptee
2265 : Acceptee
2266 : NonDispo
2267 : Acceptee
2268 : NonDispo
2269 : Acceptee
2270 : NonDispo
2271 : Acceptee
2272 : Acceptee
2273 : Acceptee
2274 : Acceptee
2275 : Acceptee
2276 : Acceptee
2277 : Acceptee
2278 : Acceptee
2279 : NonDispo
2280 : Acceptee
2281 : Acceptee
2282 : Acceptee
2283 : Acceptee
2284 : Acceptee
2285 : Acceptee
2286 : Acceptee
2287 : Acceptee
2288 : Acceptee
2289 : Acceptee
2290 : Acceptee
2291 : Acceptee
2292 : Acceptee
2293 : Acceptee
2294 : NonDispo
2295 : Acceptee
2296 : Acceptee
2297 : NonDispo
2298 : NonDispo
2299 : Acceptee
2300 : Acceptee
2301 : Acceptee
2302 : Acceptee
2303 : Acceptee
2304 : Acceptee
2305 : Acceptee
2306 : Acceptee
2307 : Acceptee
2308 : Acceptee
2309 : Acceptee
2310 : NonDispo
2311 : Acceptee
2312 : Acceptee
2313 : Acceptee
2314 : Acceptee
2315 : Acceptee
2316 : Acceptee
2317 : Acceptee
2318 : Acceptee
2319 : Acceptee
2320 : Acceptee
2321 : Acceptee
2322 : Acceptee
2323 : NonDispo
2324 : Acceptee
2325 : Acceptee
2326 : Acceptee
2327 : Acceptee
2328 : Acceptee
2329 : Acceptee
2330 : Acceptee
2331 : NonDispo
2332 : Acceptee
2333 : Acceptee
2334 : Acceptee
2335 : Acceptee
2336 : Acceptee
2337 : Acceptee
2338 : Acceptee
2339 : Acceptee
2340 : Acceptee
2341 : NonDispo
2342 : Acceptee
2343 : Acceptee
2344 : NonDispo
2345 : Acceptee
2346 : Acceptee
2347 : Acceptee
2348 : Acceptee
2349 : Acceptee
2350 : Acceptee
2351 : NonDispo
2352 : Acceptee
2353 : Acceptee
2354 : Acceptee
2355 : Acceptee
2356 : NonDispo
2357 : Acceptee
2358 : Acceptee
2359 : Acceptee
2360 : Acceptee
2361 : Acceptee
2362 : NonDispo
2363 : Acceptee
2364 : Acceptee
2365 : Acceptee
2366 : Acceptee
2367 : Acceptee
2368 : Acceptee
2369 : Acceptee
2370 : Acceptee
2371 : NonDispo
2372 : NonDispo
2373 : Acceptee
2374 : Acceptee
2375 : Acceptee
2376 : Acceptee
2377 : Acceptee
2378 : NonDispo
2379 : Acceptee
2380 : Acceptee
2381 : Acceptee
2382 : Acceptee
2383 : Acceptee
2384 : Acceptee
2385 : Acceptee
2386 : Acceptee
2387 : Acceptee
2388 : Acceptee
2389 : Acceptee
2390 : Acceptee
2391 : Acceptee
2392 : Acceptee
2393 : Acceptee
2394 : Acceptee
2395 : Acceptee
2396 : Acceptee
2397 : Acceptee
2398 : Acceptee
2399 : Acceptee
2400 : Acceptee
2401 : NonDispo
2402 : Acceptee
2403 : Acceptee
2404 : Acceptee
2405 : Acceptee
2406 : Acceptee
2407 : Acceptee
2408 : Acceptee
2409 : Acceptee
2410 : Acceptee
2411 : Acceptee
2412 : Acceptee
2413 : Acceptee
2414 : Acceptee
2415 : Acceptee
2416 : Acceptee
2417 : Acceptee
2418 : Acceptee
2419 : Acceptee
2420 : Acceptee
2421 : Acceptee
2422 : Acceptee
2423 : Acceptee
2424 : Acceptee
2425 : Acceptee
2426 : Acceptee
2427 : Acceptee
2428 : Acceptee
2429 : Acceptee
2430 : Acceptee
2431 : Acceptee
2432 : Acceptee
2433 : Acceptee
2434 : Acceptee
2435 : Acceptee
2436 : Acceptee
2437 : Acceptee
2438 : NonDispo
2439 : Acceptee
2440 : Acceptee
2441 : Acceptee
2442 : Acceptee
2443 : Acceptee
2444 : Acceptee
2445 : Acceptee
2446 : Acceptee
2447 : Acceptee
2448 : NonDispo
2449 : Acceptee
2450 : Acceptee
2451 : Acceptee
2452 : Acceptee
2453 : Acceptee
2454 : Acceptee
2455 : Acceptee
2456 : Acceptee
2457 : Acceptee
2458 : Acceptee
2459 : Acceptee
2460 : Acceptee
2461 : Acceptee
2462 : Acceptee
2463 : Acceptee
2464 : Acceptee
2465 : Acceptee
2466 : Acceptee
2467 : Acceptee
2468 : Acceptee
2469 : Acceptee
2470 : Acceptee
2471 : Acceptee
2472 : Acceptee
2473 : NonDispo
2474 : Acceptee
2475 : Acceptee
2476 : Acceptee
2477 : NonDispo
2478 : Acceptee
2479 : Acceptee
2480 : NonDispo
2481 : Acceptee
2482 : NonDispo
2483 : NonDispo
2484 : NonDispo
2485 : Acceptee
2486 : Acceptee
2487 : Acceptee
2488 : Acceptee
2489 : Acceptee
2490 : NonDispo
2491 : NonDispo
2492 : Acceptee
2493 : NonDispo
2494 : Acceptee
2495 : Acceptee
2496 : Acceptee
2497 : Acceptee
2498 : Acceptee
2499 : Acceptee
2500 : Acceptee
2501 : Acceptee
2502 : Acceptee
2503 : NonDispo
2504 : Acceptee
2505 : Acceptee
2506 : Acceptee
2507 : Acceptee
2508 : Acceptee
2509 : Acceptee
2510 : NonDispo
2511 : Acceptee
2512 : NonDispo
2513 : NonDispo
2514 : Acceptee
2515 : Acceptee
2516 : Acceptee
2517 : Acceptee
2518 : Acceptee
2519 : NonDispo
2520 : Acceptee
2521 : Acceptee
2522 : Acceptee
2523 : Acceptee
2524 : NonDispo
2525 : NonDispo
2526 : NonDispo
2527 : Acceptee
2528 : NonDispo
2529 : Acceptee
2530 : NonDispo
2531 : Acceptee
2532 : Acceptee
2533 : NonDispo
2534 : Acceptee
2535 : Acceptee
2536 : NonDispo
2537 : Acceptee
2538 : Acceptee
2539 : Acceptee
2540 : NonDispo
2541 : Acceptee
2542 : Acceptee
2543 : Acceptee
2544 : Acceptee
2545 : Acceptee
2546 : Acceptee
2547 : Acceptee
2548 : Acceptee
2549 : NonDispo
2550 : Acceptee
2551 : Acceptee
2552 : Acceptee
2553 : NonDispo
2554 : Acceptee
2555 : Acceptee
2556 : Acceptee
2557 : Acceptee
2558 : Acceptee
2559 : Acceptee
2560 : Acceptee
2561 : Acceptee
2562 : Acceptee
2563 : NonDispo
2564 : Acceptee
2565 : Acceptee
2566 : NonDispo
2567 : Acceptee
2568 : Acceptee
2569 : Acceptee
2570 : Acceptee
2571 : Acceptee
2572 : Acceptee
2573 : Acceptee
2574 : Acceptee
2575 : Acceptee
2576 : Acceptee
2577 : Acceptee
2578 : Acceptee
2579 : NonDispo
2580 : Acceptee
2581 : Acceptee
2582 : Acceptee
2583 : Acceptee
2584 : Acceptee
2585 : Acceptee
2586 : NonDispo
2587 : Acceptee
2588 : Acceptee
2589 : Acceptee
2590 : Acceptee
2591 : Acceptee
2592 : Acceptee
2593 : Acceptee
2594 : Acceptee
2595 : Acceptee
2596 : Acceptee
2597 : NonDispo
2598 : NonDispo
2599 : Acceptee
2600 : Acceptee
2601 : NonDispo
2602 : Acceptee
2603 : NonDispo
2604 : Acceptee
2605 : Acceptee
2606 : NonDispo
2607 : Acceptee
2608 : NonDispo
2609 : Acceptee
2610 : Acceptee
2611 : NonDispo
2612 : NonDispo
2613 : Acceptee
2614 : Acceptee
2615 : Acceptee
2616 : Acceptee
2617 : Acceptee
2618 : Acceptee
2619 : NonDispo
2620 : Acceptee
2621 : Acceptee
2622 : NonDispo
2623 : Acceptee
2624 : Acceptee
2625 : Acceptee
2626 : Acceptee
2627 : Acceptee
2628 : Acceptee
2629 : Acceptee
2630 : NonDispo
2631 : Acceptee
2632 : Acceptee
2633 : Acceptee
2634 : Acceptee
2635 : Acceptee
2636 : Acceptee
2637 : NonDispo
2638 : NonDispo
2639 : Acceptee
2640 : Acceptee
2641 : Acceptee
2642 : NonDispo
2643 : Acceptee
2644 : Acceptee
2645 : Acceptee
2646 : Acceptee
2647 : Acceptee
2648 : Acceptee
2649 : Acceptee
2650 : Acceptee
2651 : NonDispo
2652 : Acceptee
2653 : Acceptee
2654 : Acceptee
2655 : Acceptee
2656 : Acceptee
2657 : Acceptee
2658 : Acceptee
2659 : NonDispo
2660 : Acceptee
2661 : Acceptee
2662 : Acceptee
2663 : NonDispo
2664 : Acceptee
2665 : Acceptee
2666 : Acceptee
2667 : Acceptee
2668 : Acceptee
2669 : NonDispo
2670 : Acceptee
2671 : Acceptee
2672 : Acceptee
2673 : Acceptee
2674 : Acceptee
2675 : Acceptee
2676 : NonDispo
2677 : Acceptee
2678 : Acceptee
2679 : Acceptee
2680 : Acceptee
2681 : Acceptee
2682 : Acceptee
2683 : Acceptee
2684 : Acceptee
2685 : Acceptee
2686 : Acceptee
2687 : Acceptee
2688 : Acceptee
2689 : Acceptee
2690 : NonDispo
2691 : NonDispo
2692 : Acceptee
2693 : NonDispo
2694 : Acceptee
2695 : NonDispo
2696 : Acceptee
2697 : Acceptee
2698 : Acceptee
2699 : Acceptee
2700 : Acceptee
2701 : Acceptee
2702 : Acceptee
2703 : Acceptee
2704 : Acceptee
2705 : NonDispo
2706 : Acceptee
2707 : Acceptee
2708 : Acceptee
2709 : NonDispo
2710 : Acceptee
2711 : Acceptee
2712 : Acceptee
2713 : Acceptee
2714 : Acceptee
2715 : Acceptee
2716 : Acceptee
2717 : Acceptee
2718 : Acceptee
2719 : Acceptee
2720 : NonDispo
2721 : NonDispo
2722 : Acceptee
2723 : NonDispo
2724 : Acceptee
2725 : NonDispo
2726 : Acceptee
2727 : Acceptee
2728 : Acceptee
2729 : Acceptee
2730 : Acceptee
2731 : Acceptee
2732 : Acceptee
2733 : Acceptee
2734 : NonDispo
2735 : Acceptee
2736 : Acceptee
2737 : NonDispo
2738 : NonDispo
2739 : Acceptee
2740 : Acceptee
2741 : Acceptee
2742 : Acceptee
2743 : Acceptee
2744 : Acceptee
2745 : Acceptee
2746 : Acceptee
2747 : Acceptee
2748 : Acceptee
2749 : Acceptee
2750 : Acceptee
2751 : NonDispo
2752 : Acceptee
2753 : Acceptee
2754 : Acceptee
2755 : Acceptee
2756 : NonDispo
2757 : Acceptee
2758 : Acceptee
2759 : Acceptee
2760 : NonDispo
2761 : NonDispo
2762 : NonDispo
2763 : Acceptee
2764 : Acceptee
2765 : Acceptee
2766 : Acceptee
2767 : Acceptee
2768 : Acceptee
2769 : Acceptee
2770 : NonDispo
2771 : Acceptee
2772 : NonDispo
2773 : Acceptee
2774 : NonDispo
2775 : Acceptee
2776 : Acceptee
2777 : Acceptee
2778 : NonDispo
2779 : Acceptee
2780 : Acceptee
2781 : Acceptee
2782 : Acceptee
2783 : Acceptee
2784 : Acceptee
2785 : Acceptee
2786 : NonDispo
2787 : Acceptee
2788 : Acceptee
2789 : Acceptee
2790 : Acceptee
2791 : Acceptee
2792 : Acceptee
2793 : Acceptee
2794 : NonDispo
2795 : Acceptee
2796 : Acceptee
2797 : Acceptee
2798 : Acceptee
2799 : Acceptee
2800 : Acceptee
2801 : Acceptee
2802 : Acceptee
2803 : Acceptee
2804 : Acceptee
2805 : Acceptee
2806 : Acceptee
2807 : NonDispo
2808 : Acceptee
2809 : NonDispo
2810 : Acceptee
2811 : Acceptee
2812 : Acceptee
2813 : NonDispo
2814 : Acceptee
2815 : Acceptee
2816 : Acceptee
2817 : Acceptee
2818 : NonDispo
2819 : Acceptee
2820 : Acceptee
2821 : Acceptee
2822 : Acceptee
2823 : Acceptee
2824 : Acceptee
2825 : Acceptee
2826 : Acceptee
2827 : Acceptee
2828 : Acceptee
2829 : Acceptee
2830 : Acceptee
2831 : NonDispo
2832 : NonDispo
2833 : NonDispo
2834 : Acceptee
2835 : Acceptee
2836 : Acceptee
2837 : Acceptee
2838 : Acceptee
2839 : Acceptee
2840 : Acceptee
2841 : Acceptee
2842 : Acceptee
2843 : Acceptee
2844 : Acceptee
2845 : Acceptee
2846 : Acceptee
2847 : Acceptee
2848 : Acceptee
2849 : Acceptee
2850 : Acceptee
2851 : Acceptee
2852 : NonDispo
2853 : Acceptee
2854 : Acceptee
2855 : Acceptee
2856 : Acceptee
2857 : Acceptee
2858 : Acceptee
2859 : Acceptee
2860 : Acceptee
2861 : Acceptee
2862 : Acceptee
2863 : Acceptee
2864 : Acceptee
2865 : NonDispo
2866 : Acceptee
2867 : Acceptee
2868 : Acceptee
2869 : NonDispo
2870 : NonDispo
2871 : Acceptee
2872 : Acceptee
2873 : Acceptee
2874 : Acceptee
2875 : Acceptee
2876 : Acceptee
2877 : Acceptee
2878 : Acceptee
2879 : NonDispo
2880 : Acceptee
2881 : Acceptee
2882 : Acceptee
2883 : Acceptee
2884 : Acceptee
2885 : Acceptee
2886 : NonDispo
2887 : Acceptee
2888 : NonDispo
2889 : Acceptee
2890 : NonDispo
2891 : Acceptee
2892 : Acceptee
2893 : NonDispo
2894 : Acceptee
2895 : Acceptee
2896 : Acceptee
2897 : Acceptee
2898 : Acceptee
2899 : Acceptee
2900 : Acceptee
2901 : Acceptee
2902 : Acceptee
2903 : Acceptee
2904 : Acceptee
2905 : Acceptee
2906 : Acceptee
2907 : NonDispo
2908 : Acceptee
2909 : Acceptee
2910 : Acceptee
2911 : Acceptee
2912 : Acceptee
2913 : Acceptee
2914 : Acceptee
2915 : Acceptee
2916 : Acceptee
2917 : Acceptee
2918 : NonDispo
2919 : Acceptee
2920 : Acceptee
2921 : NonDispo
2922 : Acceptee
2923 : Acceptee
2924 : Acceptee
2925 : Acceptee
2926 : Acceptee
2927 : Acceptee
2928 : Acceptee
2929 : Acceptee
2930 : Acceptee
2931 : Acceptee
2932 : Acceptee
2933 : NonDispo
2934 : Acceptee
2935 : NonDispo
2936 : Acceptee
2937 : NonDispo
2938 : Acceptee
2939 : Acceptee
2940 : Acceptee
2941 : Acceptee
2942 : Acceptee
2943 : Acceptee
2944 : Acceptee
2945 : Acceptee
2946 : Acceptee
2947 : Acceptee
2948 : NonDispo
2949 : Acceptee
2950 : NonDispo
2951 : Acceptee
2952 : Acceptee
2953 : NonDispo
2954 : Acceptee
2955 : Acceptee
2956 : Acceptee
2957 : Acceptee
2958 : Acceptee
2959 : Acceptee
2960 : Acceptee
2961 : Acceptee
2962 : NonDispo
2963 : Acceptee
2964 : NonDispo
2965 : Acceptee
2966 : Acceptee
2967 : Acceptee
2968 : NonDispo
2969 : Acceptee
2970 : Acceptee
2971 : Acceptee
2972 : Acceptee
2973 : Acceptee
2974 : Acceptee
2975 : Acceptee
2976 : Acceptee
2977 : Acceptee
2978 : NonDispo
2979 : Acceptee
2980 : Acceptee
2981 : Acceptee
2982 : Acceptee
2983 : Acceptee
2984 : Acceptee
2985 : Acceptee
2986 : NonDispo
2987 : Acceptee
2988 : Acceptee
2989 : Acceptee
2990 : Acceptee
2991 : NonDispo
2992 : Acceptee
2993 : Acceptee
2994 : Acceptee
2995 : Acceptee
2996 : Acceptee
2997 : Acceptee
2998 : Acceptee
2999 : Acceptee
3000 : Acceptee
3001 : Acceptee
3002 : Acceptee
