creer	A	(45.509415,-73.568122)	7	7	;
creer	B	(46.779344,-71.276443)	5	10	;
creer	C	(45.380947,-71.923853)	1	5	;
creer	D	(46.347809,-72.578216)	2	1	;
creer	E	(48.420928,-71.053798)	4	9	;
creer	F	(45.421874,-75.738523)	4	2	;
creer	G	(45.880628,-72.526932)	9	9	;
creer	H	(45.617069,-72.97368)	3	6	;
creer	I	(45.399768,-72.730458)	5	6	;
creer	J	(45.296928,-73.26853)	2	2	;
creer	K	(46.107413,-71.279233)	4	2	;
creer	L	(47.82739,-69.539208)	0	8	;
creer	M	(48.4533,-68.512727)	7	2	;
creer	N	(48.833142,-64.483738)	6	7	;
creer	O	(47.622082,-70.144529)	8	6	;
creer	P	(45.589567,-70.903755)	8	5	;
creer	Q	(45.134041,-71.807113)	7	2	;
creer	R	(45.107681,-72.615584)	3	5	;
creer	S	(45.516903,-73.429785)	8	4	;
creer	T	(45.744527,-73.589001)	3	4	;
creer	U	(45.543028,-73.913655)	5	7	;
creer	V	(46.550199,-75.488241)	3	7	;
creer	W	(48.230805,-79.009509)	6	7	;
creer	X	(48.573143,-78.124123)	1	2	;
creer	Y	(48.466747,-67.426915)	1	2	;
creer	Z	(49.211654,-68.174887)	6	2	;
reserver	B	1j_10h00m	Z	2j_02h00m	;
reserver	X	2j_17h00m	Q	4j_10h00m	;
reserver	L	4j_16h00m	Q	6j_02h00m	;
reserver	A	7j_06h00m	S	8j_10h00m	;
reserver	A	9j_01h00m	I	10j_17h00m	;
reserver	U	12j_11h00m	K	13j_10h00m	;
reserver	Z	14j_13h00m	U	16j_03h00m	;
reserver	T	16j_05h00m	Y	17j_14h00m	;
reserver	A	19j_12h00m	Y	20j_10h00m	;
reserver	J	20j_16h00m	X	21j_09h00m	;
reserver	N	22j_07h00m	E	24j_02h00m	;
reserver	W	24j_05h00m	H	25j_17h00m	;
reserver	X	26j_00h00m	L	26j_20h00m	;
reserver	N	27j_05h00m	I	27j_17h00m	;
reserver	W	28j_07h00m	X	29j_22h00m	;
reserver	F	29j_23h00m	D	31j_09h00m	;
reserver	I	31j_17h00m	S	32j_09h00m	;
reserver	G	33j_06h00m	O	34j_14h00m	;
reserver	F	36j_09h00m	E	37j_12h00m	;
reserver	G	38j_08h00m	H	39j_12h00m	;
reserver	J	41j_11h00m	U	42j_06h00m	;
reserver	Q	42j_13h00m	A	44j_09h00m	;
reserver	C	45j_11h00m	U	47j_02h00m	;
reserver	H	47j_21h00m	A	48j_10h00m	;
reserver	J	50j_10h00m	Y	51j_11h00m	;
reserver	I	53j_04h00m	C	54j_14h00m	;
reserver	D	54j_15h00m	H	56j_03h00m	;
reserver	D	56j_11h00m	J	58j_08h00m	;
reserver	P	59j_20h00m	X	61j_15h00m	;
reserver	T	63j_05h00m	O	64j_16h00m	;
reserver	Y	66j_05h00m	V	68j_03h00m	;
reserver	M	68j_03h00m	G	70j_02h00m	;
reserver	Y	70j_16h00m	T	72j_01h00m	;
reserver	J	73j_19h00m	M	74j_21h00m	;
reserver	O	76j_09h00m	T	77j_03h00m	;
reserver	X	77j_14h00m	H	78j_13h00m	;
reserver	A	79j_15h00m	M	80j_16h00m	;
reserver	C	82j_01h00m	R	83j_08h00m	;
reserver	M	85j_05h00m	X	86j_09h00m	;
reserver	W	87j_14h00m	P	89j_03h00m	;
reserver	T	91j_03h00m	C	92j_21h00m	;
reserver	A	94j_21h00m	L	95j_13h00m	;
reserver	E	95j_19h00m	P	97j_12h00m	;
reserver	C	97j_16h00m	S	99j_13h00m	;
reserver	X	100j_07h00m	K	101j_09h00m	;
reserver	L	103j_08h00m	L	105j_08h00m	;
reserver	E	106j_17h00m	F	108j_01h00m	;
reserver	X	109j_00h00m	A	109j_17h00m	;
reserver	A	111j_16h00m	U	113j_07h00m	;
reserver	B	113j_17h00m	D	114j_08h00m	;
reserver	Z	114j_19h00m	I	115j_21h00m	;
reserver	I	117j_20h00m	Y	118j_18h00m	;
reserver	Z	120j_10h00m	Y	121j_13h00m	;
reserver	P	122j_20h00m	X	124j_08h00m	;
reserver	M	125j_03h00m	X	125j_21h00m	;
reserver	H	126j_08h00m	M	126j_21h00m	;
reserver	S	128j_03h00m	E	129j_19h00m	;
reserver	N	130j_19h00m	G	132j_14h00m	;
reserver	D	134j_08h00m	K	136j_05h00m	;
reserver	E	137j_21h00m	E	139j_13h00m	;
reserver	X	140j_12h01m	S	141j_08h01m	;
reserver	U	142j_12h01m	P	143j_22h01m	;
reserver	O	145j_05h01m	S	146j_12h01m	;
reserver	D	146j_17h01m	O	148j_13h01m	;
reserver	Q	148j_17h01m	X	149j_23h01m	;
reserver	L	151j_03h01m	Z	152j_06h01m	;
reserver	E	154j_01h01m	G	154j_15h01m	;
reserver	G	154j_19h01m	J	156j_04h01m	;
reserver	G	157j_12h01m	I	158j_03h01m	;
reserver	A	159j_21h01m	Z	160j_16h01m	;
reserver	T	162j_07h01m	X	162j_22h01m	;
reserver	G	164j_10h01m	V	165j_03h01m	;
reserver	V	165j_03h01m	P	166j_20h01m	;
reserver	B	168j_04h01m	O	169j_15h01m	;
reserver	G	169j_20h01m	O	171j_10h01m	;
reserver	X	173j_08h01m	F	174j_12h01m	;
reserver	W	175j_05h01m	F	176j_10h01m	;
reserver	L	177j_10h01m	K	177j_22h01m	;
reserver	V	179j_19h01m	W	181j_15h01m	;
reserver	C	183j_05h01m	F	184j_05h01m	;
reserver	V	186j_05h01m	A	188j_04h01m	;
reserver	V	189j_20h01m	M	190j_12h01m	;
reserver	S	190j_12h01m	K	191j_20h01m	;
reserver	X	192j_13h01m	L	193j_22h01m	;
reserver	V	195j_00h01m	R	196j_15h01m	;
reserver	E	198j_04h01m	H	199j_10h01m	;
reserver	D	201j_01h01m	H	202j_03h01m	;
reserver	B	202j_19h01m	Y	204j_12h01m	;
reserver	X	206j_06h01m	C	207j_05h01m	;
reserver	J	208j_04h01m	Z	209j_23h01m	;
reserver	I	211j_23h01m	F	212j_23h01m	;
reserver	Z	213j_18h01m	D	215j_06h01m	;
reserver	W	216j_18h01m	O	217j_17h01m	;
reserver	O	219j_15h01m	V	220j_10h01m	;
reserver	A	221j_19h01m	D	222j_19h01m	;
reserver	U	222j_23h01m	K	223j_20h01m	;
reserver	N	224j_07h01m	F	224j_19h01m	;
reserver	Q	226j_07h01m	C	227j_14h01m	;
reserver	K	228j_04h01m	W	228j_17h01m	;
reserver	I	229j_22h01m	A	231j_19h01m	;
reserver	L	232j_15h01m	G	233j_15h01m	;
reserver	E	234j_19h01m	C	235j_10h01m	;
reserver	X	236j_06h01m	Q	237j_14h01m	;
reserver	G	238j_02h01m	A	239j_18h01m	;
reserver	Z	239j_22h01m	X	240j_11h01m	;
reserver	P	241j_11h01m	R	243j_09h01m	;
reserver	J	244j_22h01m	N	246j_14h01m	;
reserver	R	247j_06h01m	M	248j_19h01m	;
reserver	U	250j_18h01m	W	251j_14h01m	;
reserver	Y	251j_20h01m	W	252j_14h01m	;
reserver	V	253j_22h01m	W	254j_22h01m	;
reserver	K	256j_09h01m	O	257j_23h01m	;
reserver	U	258j_22h01m	H	259j_19h01m	;
reserver	X	260j_15h01m	Y	261j_15h01m	;
reserver	Z	262j_21h01m	R	263j_12h01m	;
reserver	W	265j_01h01m	J	266j_19h01m	;
reserver	L	267j_14h01m	C	268j_18h01m	;
reserver	Y	270j_01h01m	J	272j_00h01m	;
reserver	N	273j_19h01m	L	275j_19h01m	;
reserver	B	277j_12h01m	L	278j_18h01m	;
reserver	H	279j_21h02m	D	280j_21h02m	;
reserver	L	281j_05h02m	C	282j_18h02m	;
reserver	P	284j_12h02m	I	285j_23h02m	;
reserver	E	287j_19h02m	V	289j_15h02m	;
reserver	R	290j_19h02m	H	292j_10h02m	;
reserver	D	294j_00h02m	C	294j_14h02m	;
reserver	C	294j_14h02m	C	295j_04h02m	;
reserver	W	295j_11h02m	G	296j_22h02m	;
reserver	C	297j_11h02m	J	298j_16h02m	;
reserver	V	299j_21h02m	S	301j_14h02m	;
reserver	C	302j_10h02m	B	303j_22h02m	;
reserver	E	304j_17h02m	C	305j_09h02m	;
reserver	B	307j_01h02m	J	307j_15h02m	;
reserver	R	308j_10h02m	Q	310j_00h02m	;
reserver	B	311j_19h02m	F	312j_16h02m	;
reserver	P	313j_21h02m	W	315j_00h02m	;
reserver	T	316j_19h02m	F	317j_14h02m	;
reserver	A	317j_22h02m	L	319j_03h02m	;
reserver	O	319j_22h02m	T	321j_01h02m	;
reserver	R	322j_01h02m	K	323j_09h02m	;
reserver	U	324j_06h02m	I	325j_00h02m	;
reserver	V	325j_06h02m	H	326j_22h02m	;
reserver	S	328j_05h02m	R	329j_03h02m	;
reserver	O	329j_20h02m	E	330j_19h02m	;
reserver	A	330j_20h02m	H	331j_11h02m	;
reserver	O	332j_07h02m	V	333j_07h02m	;
reserver	H	334j_15h02m	V	336j_03h02m	;
reserver	R	336j_05h02m	H	336j_19h02m	;
reserver	H	337j_16h02m	I	339j_07h02m	;
reserver	C	339j_23h02m	X	341j_19h02m	;
reserver	U	341j_21h02m	V	342j_09h02m	;
reserver	R	342j_11h02m	U	343j_08h02m	;
reserver	E	343j_21h02m	F	344j_22h02m	;
reserver	B	346j_02h02m	P	347j_13h02m	;
reserver	N	348j_14h02m	E	349j_17h02m	;
reserver	C	349j_20h02m	R	350j_21h02m	;
reserver	P	351j_03h02m	R	353j_03h02m	;
reserver	V	354j_02h02m	N	354j_20h02m	;
reserver	Q	356j_10h02m	M	357j_21h02m	;
reserver	K	358j_20h02m	X	359j_15h02m	;
reserver	G	360j_16h02m	A	361j_22h02m	;
reserver	Z	362j_07h02m	L	363j_06h02m	;
reserver	U	364j_12h02m	A	365j_19h02m	;
reserver	L	367j_18h02m	W	368j_14h02m	;
reserver	T	369j_23h02m	S	371j_22h02m	;
reserver	E	372j_02h02m	B	373j_15h02m	;
reserver	P	373j_21h02m	P	375j_12h02m	;
reserver	C	377j_00h02m	D	379j_00h02m	;
reserver	I	380j_08h02m	K	381j_12h02m	;
reserver	D	383j_08h02m	V	384j_07h02m	;
reserver	W	385j_09h02m	A	386j_04h02m	;
reserver	A	387j_12h02m	L	389j_09h02m	;
reserver	E	390j_20h02m	S	392j_11h02m	;
reserver	U	393j_22h02m	Z	394j_16h02m	;
reserver	Q	394j_22h02m	F	396j_07h02m	;
reserver	S	398j_05h02m	J	399j_19h02m	;
reserver	G	399j_22h02m	H	401j_01h02m	;
reserver	T	402j_06h02m	Y	403j_21h02m	;
reserver	A	404j_07h02m	T	405j_20h02m	;
reserver	D	406j_23h02m	V	408j_12h02m	;
reserver	X	409j_15h03m	Z	410j_19h03m	;
reserver	M	410j_19h03m	U	411j_12h03m	;
reserver	O	413j_10h03m	S	414j_05h03m	;
reserver	G	415j_14h03m	D	417j_09h03m	;
reserver	Q	418j_04h03m	D	419j_00h03m	;
reserver	R	419j_23h03m	H	420j_12h03m	;
reserver	X	420j_17h03m	O	422j_01h03m	;
reserver	B	423j_05h03m	G	424j_16h03m	;
reserver	U	425j_14h03m	E	426j_11h03m	;
reserver	F	427j_17h03m	D	428j_18h03m	;
reserver	P	428j_23h03m	J	430j_22h03m	;
reserver	M	432j_10h03m	J	433j_08h03m	;
reserver	K	435j_05h03m	R	436j_09h03m	;
reserver	K	438j_02h03m	Y	438j_18h03m	;
reserver	C	440j_17h03m	Q	441j_11h03m	;
reserver	F	442j_19h03m	D	443j_12h03m	;
reserver	W	445j_08h03m	L	446j_09h03m	;
reserver	R	447j_20h03m	O	449j_04h03m	;
reserver	N	450j_18h03m	W	452j_04h03m	;
reserver	W	452j_19h03m	R	453j_14h03m	;
reserver	J	453j_20h03m	U	454j_12h03m	;
reserver	J	454j_15h03m	T	455j_10h03m	;
reserver	W	456j_14h03m	A	457j_21h03m	;
reserver	D	458j_05h03m	Y	459j_13h03m	;
reserver	V	460j_18h03m	Y	462j_09h03m	;
reserver	U	463j_15h03m	P	465j_15h03m	;
reserver	G	466j_13h03m	C	468j_12h03m	;
reserver	I	470j_03h03m	O	470j_18h03m	;
reserver	N	472j_01h03m	J	473j_13h03m	;
reserver	E	475j_13h03m	O	476j_14h03m	;
reserver	X	478j_01h03m	E	479j_16h03m	;
reserver	M	480j_02h03m	V	481j_08h03m	;
reserver	U	482j_19h03m	Y	484j_14h03m	;
reserver	D	486j_07h03m	A	488j_02h03m	;
reserver	T	489j_19h03m	I	491j_01h03m	;
reserver	T	491j_04h03m	U	492j_03h03m	;
reserver	D	492j_17h03m	G	494j_07h03m	;
reserver	G	495j_11h03m	S	496j_20h03m	;
reserver	A	497j_00h03m	O	498j_02h03m	;
reserver	Z	499j_05h03m	V	499j_17h03m	;
reserver	E	500j_10h03m	T	501j_23h03m	;
reserver	J	502j_00h03m	D	503j_11h03m	;
reserver	W	504j_08h03m	N	505j_23h03m	;
reserver	O	507j_12h03m	J	509j_04h03m	;
reserver	I	510j_20h03m	F	511j_23h03m	;
reserver	I	512j_03h03m	R	513j_00h03m	;
reserver	I	514j_03h03m	O	514j_20h03m	;
reserver	Z	516j_13h03m	R	517j_03h03m	;
reserver	Q	517j_05h03m	O	517j_17h03m	;
reserver	O	519j_02h03m	V	520j_10h03m	;
reserver	T	521j_10h03m	X	521j_22h03m	;
reserver	Y	523j_07h03m	Q	523j_22h03m	;
reserver	M	524j_08h03m	W	525j_02h03m	;
reserver	R	525j_15h03m	P	527j_13h03m	;
reserver	Z	528j_14h03m	V	529j_16h03m	;
reserver	M	530j_22h03m	J	532j_01h03m	;
reserver	S	532j_01h03m	H	533j_11h03m	;
reserver	D	535j_10h03m	F	536j_10h03m	;
reserver	Q	537j_12h03m	C	538j_20h03m	;
reserver	I	539j_01h03m	V	539j_18h03m	;
reserver	N	540j_11h04m	Y	542j_06h04m	;
reserver	W	543j_16h04m	Z	545j_13h04m	;
reserver	I	545j_13h04m	V	546j_18h04m	;
reserver	S	548j_04h04m	U	549j_05h04m	;
reserver	S	549j_18h04m	Y	550j_06h04m	;
reserver	V	550j_15h04m	T	551j_18h04m	;
reserver	M	552j_19h04m	K	553j_17h04m	;
reserver	W	555j_07h04m	S	556j_10h04m	;
reserver	V	557j_07h04m	P	559j_05h04m	;
reserver	T	559j_21h04m	P	561j_16h04m	;
reserver	S	562j_22h04m	Z	564j_06h04m	;
reserver	R	565j_04h04m	N	566j_13h04m	;
reserver	H	566j_14h04m	H	568j_04h04m	;
reserver	C	568j_16h04m	D	570j_06h04m	;
reserver	P	570j_07h04m	L	571j_17h04m	;
reserver	Q	571j_17h04m	A	573j_17h04m	;
reserver	I	574j_02h04m	M	574j_16h04m	;
reserver	S	575j_07h04m	G	576j_02h04m	;
reserver	O	576j_20h04m	P	577j_22h04m	;
reserver	Q	578j_07h04m	U	578j_23h04m	;
reserver	U	580j_03h04m	X	581j_18h04m	;
reserver	S	582j_14h04m	Z	584j_01h04m	;
reserver	E	584j_22h04m	Z	585j_13h04m	;
reserver	K	587j_01h04m	H	588j_09h04m	;
reserver	A	588j_21h04m	T	590j_21h04m	;
reserver	L	590j_21h04m	K	592j_02h04m	;
reserver	C	593j_19h04m	Y	595j_16h04m	;
reserver	A	596j_02h04m	Q	597j_06h04m	;
reserver	U	598j_23h04m	Y	600j_15h04m	;
reserver	K	601j_10h04m	P	602j_21h04m	;
reserver	Y	603j_01h04m	T	604j_08h04m	;
reserver	T	605j_23h04m	I	606j_22h04m	;
reserver	J	607j_06h04m	Y	608j_12h04m	;
reserver	D	608j_13h04m	L	609j_03h04m	;
reserver	N	610j_14h04m	Q	612j_01h04m	;
reserver	X	612j_11h04m	K	613j_20h04m	;
reserver	J	615j_08h04m	T	616j_15h04m	;
reserver	Q	618j_15h04m	R	620j_12h04m	;
reserver	T	620j_22h04m	Z	621j_11h04m	;
reserver	V	621j_14h04m	K	623j_00h04m	;
reserver	F	623j_13h04m	V	624j_01h04m	;
reserver	I	625j_18h04m	V	627j_13h04m	;
reserver	O	627j_16h04m	N	628j_18h04m	;
reserver	I	630j_02h04m	O	631j_01h04m	;
reserver	J	633j_01h04m	D	634j_18h04m	;
reserver	V	636j_00h04m	X	637j_20h04m	;
reserver	Z	638j_02h04m	E	638j_19h04m	;
reserver	S	640j_17h04m	R	641j_22h04m	;
reserver	R	643j_11h04m	K	644j_15h04m	;
reserver	K	645j_00h04m	B	646j_21h04m	;
reserver	D	647j_09h04m	F	648j_20h04m	;
reserver	H	649j_19h04m	R	650j_23h04m	;
reserver	L	652j_12h04m	M	653j_18h04m	;
reserver	U	655j_16h04m	D	656j_18h04m	;
reserver	W	657j_06h04m	E	658j_06h04m	;
reserver	B	659j_21h04m	L	661j_09h04m	;
reserver	Q	662j_12h04m	X	664j_03h04m	;
reserver	I	665j_23h04m	I	667j_23h04m	;
reserver	O	668j_04h04m	Z	669j_11h04m	;
reserver	F	669j_15h04m	T	670j_22h04m	;
reserver	W	672j_09h05m	Y	673j_22h05m	;
reserver	Q	675j_18h05m	Z	676j_08h05m	;
reserver	R	678j_00h05m	J	679j_17h05m	;
reserver	S	680j_08h05m	J	681j_00h05m	;
reserver	D	682j_16h05m	I	683j_22h05m	;
reserver	T	685j_04h05m	D	687j_03h05m	;
reserver	T	687j_03h05m	I	687j_19h05m	;
reserver	B	688j_01h05m	S	689j_09h05m	;
reserver	O	690j_07h05m	O	691j_22h05m	;
reserver	C	692j_07h05m	J	693j_02h05m	;
reserver	M	694j_18h05m	O	695j_14h05m	;
reserver	E	697j_13h05m	K	698j_14h05m	;
reserver	F	699j_00h05m	L	700j_08h05m	;
reserver	J	700j_18h05m	P	701j_08h05m	;
reserver	F	702j_02h05m	X	703j_20h05m	;
reserver	O	705j_05h05m	V	705j_23h05m	;
reserver	L	706j_23h05m	P	708j_01h05m	;
reserver	T	708j_11h05m	M	709j_02h05m	;
reserver	Y	709j_05h05m	D	710j_22h05m	;
reserver	H	710j_23h05m	P	712j_08h05m	;
reserver	I	712j_22h05m	M	713j_18h05m	;
reserver	N	715j_13h05m	X	717j_12h05m	;
reserver	Y	718j_11h05m	I	720j_08h05m	;
reserver	C	721j_13h05m	I	722j_14h05m	;
reserver	U	723j_02h05m	B	725j_02h05m	;
reserver	J	726j_01h05m	W	726j_15h05m	;
reserver	Q	728j_07h05m	G	729j_18h05m	;
reserver	X	730j_02h05m	G	731j_11h05m	;
reserver	J	731j_13h05m	K	733j_13h05m	;
reserver	N	735j_00h05m	B	736j_05h05m	;
reserver	W	737j_01h05m	W	738j_06h05m	;
reserver	E	738j_15h05m	V	740j_00h05m	;
reserver	W	740j_00h05m	P	741j_16h05m	;
reserver	Q	741j_23h05m	K	743j_19h05m	;
reserver	U	743j_21h05m	V	745j_04h05m	;
reserver	E	746j_03h05m	X	747j_00h05m	;
reserver	M	747j_07h05m	S	748j_15h05m	;
reserver	Q	749j_01h05m	C	749j_20h05m	;
reserver	O	751j_11h05m	F	752j_09h05m	;
reserver	T	753j_11h05m	R	754j_03h05m	;
reserver	H	755j_04h05m	Q	757j_01h05m	;
reserver	A	757j_23h05m	B	759j_11h05m	;
reserver	N	760j_23h05m	U	762j_00h05m	;
reserver	J	762j_09h05m	E	762j_23h05m	;
reserver	K	763j_21h05m	S	765j_12h05m	;
reserver	J	767j_12h05m	B	769j_00h05m	;
reserver	W	769j_23h05m	A	771j_10h05m	;
reserver	H	772j_21h05m	A	774j_02h05m	;
reserver	Q	775j_02h05m	G	775j_18h05m	;
reserver	J	775j_23h05m	R	777j_01h05m	;
reserver	B	777j_03h05m	W	778j_19h05m	;
reserver	F	779j_10h05m	R	780j_18h05m	;
reserver	B	782j_09h05m	V	783j_01h05m	;
reserver	D	783j_15h05m	L	785j_02h05m	;
reserver	N	786j_12h05m	R	787j_06h05m	;
reserver	F	787j_23h05m	U	789j_12h05m	;
reserver	A	790j_23h05m	Z	791j_23h05m	;
reserver	R	793j_08h05m	L	795j_02h05m	;
reserver	Q	795j_20h05m	D	797j_09h05m	;
reserver	C	798j_16h05m	T	799j_05h05m	;
reserver	Y	800j_19h06m	Z	802j_12h06m	;
reserver	X	803j_03h06m	M	804j_12h06m	;
reserver	E	805j_00h06m	Z	805j_17h06m	;
reserver	Z	806j_03h06m	S	807j_04h06m	;
reserver	R	807j_13h06m	M	808j_22h06m	;
reserver	M	809j_13h06m	Y	810j_18h06m	;
reserver	X	811j_09h06m	I	812j_21h06m	;
reserver	X	813j_18h06m	D	814j_08h06m	;
reserver	K	814j_12h06m	L	815j_06h06m	;
reserver	J	816j_18h06m	H	818j_00h06m	;
reserver	M	818j_03h06m	D	819j_20h06m	;
reserver	E	820j_21h06m	J	821j_15h06m	;
reserver	F	822j_12h06m	E	823j_07h06m	;
reserver	O	824j_10h06m	X	825j_13h06m	;
reserver	H	825j_21h06m	P	827j_08h06m	;
reserver	E	827j_20h06m	I	829j_12h06m	;
reserver	X	831j_08h06m	Z	832j_11h06m	;
reserver	H	833j_02h06m	C	833j_22h06m	;
reserver	A	835j_06h06m	F	836j_21h06m	;
reserver	W	837j_23h06m	H	838j_22h06m	;
reserver	D	840j_01h06m	N	840j_15h06m	;
reserver	U	841j_04h06m	F	842j_12h06m	;
reserver	P	843j_01h06m	X	844j_07h06m	;
reserver	H	844j_22h06m	M	845j_21h06m	;
reserver	A	847j_12h06m	Z	848j_21h06m	;
reserver	U	849j_02h06m	G	849j_17h06m	;
reserver	P	849j_23h06m	U	850j_16h06m	;
reserver	G	852j_02h06m	Y	852j_17h06m	;
reserver	U	854j_01h06m	R	855j_11h06m	;
reserver	V	856j_12h06m	M	857j_03h06m	;
reserver	P	857j_14h06m	A	859j_00h06m	;
reserver	H	860j_19h06m	F	862j_07h06m	;
reserver	C	863j_21h06m	O	864j_19h06m	;
reserver	L	864j_22h06m	T	866j_04h06m	;
reserver	J	867j_12h06m	M	869j_12h06m	;
reserver	Y	870j_07h06m	A	871j_00h06m	;
reserver	R	872j_16h06m	O	873j_22h06m	;
reserver	L	875j_04h06m	H	875j_20h06m	;
reserver	X	876j_01h06m	H	876j_18h06m	;
reserver	J	877j_16h06m	P	878j_23h06m	;
reserver	M	880j_06h06m	F	881j_10h06m	;
reserver	I	882j_18h06m	I	884j_01h06m	;
reserver	R	884j_09h06m	Q	885j_05h06m	;
reserver	Z	885j_16h06m	O	887j_11h06m	;
reserver	X	888j_20h06m	M	889j_10h06m	;
reserver	S	890j_16h06m	I	891j_14h06m	;
reserver	Q	891j_19h06m	S	893j_02h06m	;
reserver	I	894j_22h06m	E	896j_14h06m	;
reserver	V	897j_02h06m	H	898j_06h06m	;
reserver	J	899j_13h06m	F	900j_07h06m	;
reserver	C	901j_15h06m	A	903j_05h06m	;
reserver	I	903j_09h06m	F	905j_09h06m	;
reserver	S	905j_17h06m	B	907j_13h06m	;
reserver	I	908j_21h06m	M	909j_23h06m	;
reserver	I	911j_21h06m	S	913j_13h06m	;
reserver	N	915j_10h06m	Q	916j_19h06m	;
reserver	S	918j_17h06m	K	919j_09h06m	;
reserver	S	920j_22h06m	E	921j_13h06m	;
reserver	K	922j_15h06m	B	924j_02h06m	;
reserver	O	925j_22h06m	J	926j_12h06m	;
reserver	D	928j_08h07m	L	929j_06h07m	;
reserver	A	931j_01h07m	T	931j_17h07m	;
reserver	A	932j_00h07m	W	932j_12h07m	;
reserver	D	934j_06h07m	L	935j_16h07m	;
reserver	Q	936j_21h07m	Y	937j_10h07m	;
reserver	S	937j_15h07m	I	939j_09h07m	;
reserver	I	941j_00h07m	U	941j_12h07m	;
reserver	Z	942j_07h07m	N	943j_12h07m	;
reserver	M	945j_12h07m	I	946j_13h07m	;
reserver	S	948j_00h07m	G	949j_18h07m	;
reserver	S	949j_23h07m	D	951j_11h07m	;
reserver	Q	952j_16h07m	X	954j_05h07m	;
reserver	Y	954j_10h07m	X	956j_02h07m	;
reserver	M	957j_21h07m	D	958j_12h07m	;
reserver	O	959j_12h07m	N	960j_01h07m	;
reserver	M	960j_10h07m	N	961j_00h07m	;
reserver	Y	961j_18h07m	I	963j_02h07m	;
reserver	G	964j_01h07m	I	964j_15h07m	;
reserver	A	964j_18h07m	V	965j_07h07m	;
reserver	R	966j_05h07m	M	967j_21h07m	;
reserver	H	968j_12h07m	P	969j_05h07m	;
reserver	C	969j_22h07m	Z	971j_20h07m	;
reserver	N	972j_05h07m	K	972j_20h07m	;
reserver	D	974j_15h07m	J	975j_15h07m	;
reserver	L	976j_08h07m	M	977j_16h07m	;
reserver	R	977j_18h07m	V	978j_10h07m	;
reserver	V	980j_10h07m	P	980j_22h07m	;
reserver	J	982j_10h07m	K	982j_23h07m	;
reserver	K	984j_03h07m	S	986j_01h07m	;
reserver	N	987j_08h07m	A	987j_20h07m	;
reserver	B	988j_02h07m	N	989j_07h07m	;
reserver	B	990j_23h07m	W	992j_00h07m	;
reserver	M	993j_09h07m	H	994j_06h07m	;
reserver	E	996j_05h07m	Y	998j_03h07m	;
reserver	X	998j_22h07m	I	999j_14h07m	;
reserver	N	1000j_15h07m	Y	1001j_08h07m	;
reserver	B	1002j_15h07m	O	1003j_14h07m	;
reserver	X	1004j_13h07m	P	1005j_15h07m	;
reserver	V	1006j_13h07m	C	1007j_01h07m	;
reserver	Z	1007j_17h07m	C	1008j_15h07m	;
reserver	O	1010j_12h07m	K	1011j_07h07m	;
reserver	P	1012j_16h07m	S	1014j_13h07m	;
reserver	L	1015j_07h07m	A	1016j_02h07m	;
reserver	Z	1018j_02h07m	S	1019j_10h07m	;
reserver	O	1021j_05h07m	F	1022j_04h07m	;
reserver	E	1023j_23h07m	D	1024j_20h07m	;
reserver	C	1026j_16h07m	G	1027j_12h07m	;
reserver	D	1027j_21h07m	Y	1029j_01h07m	;
reserver	J	1029j_20h07m	M	1031j_02h07m	;
reserver	Z	1032j_23h07m	Y	1033j_17h07m	;
reserver	L	1033j_18h07m	F	1035j_03h07m	;
reserver	C	1036j_06h07m	Y	1038j_05h07m	;
reserver	U	1039j_21h07m	A	1041j_09h07m	;
reserver	Z	1042j_09h07m	I	1043j_16h07m	;
reserver	H	1045j_05h07m	E	1045j_17h07m	;
reserver	X	1046j_13h07m	U	1047j_11h07m	;
reserver	X	1048j_07h07m	A	1049j_02h07m	;
reserver	Z	1049j_21h07m	H	1051j_12h07m	;
reserver	T	1053j_11h07m	S	1055j_08h07m	;
reserver	O	1055j_12h07m	P	1057j_11h07m	;
reserver	Y	1059j_10h08m	G	1060j_05h08m	;
reserver	I	1060j_18h08m	L	1061j_20h08m	;
reserver	X	1063j_15h08m	X	1064j_19h08m	;
reserver	O	1066j_15h08m	K	1067j_23h08m	;
reserver	P	1069j_03h08m	Y	1070j_00h08m	;
reserver	K	1071j_23h08m	W	1073j_09h08m	;
reserver	I	1075j_06h08m	N	1076j_14h08m	;
reserver	L	1078j_07h08m	H	1079j_13h08m	;
reserver	D	1080j_19h08m	F	1082j_01h08m	;
reserver	Y	1083j_13h08m	H	1084j_18h08m	;
reserver	S	1086j_14h08m	N	1088j_12h08m	;
reserver	Y	1089j_13h08m	M	1091j_10h08m	;
reserver	H	1093j_08h08m	F	1094j_14h08m	;
reserver	X	1096j_12h08m	P	1097j_13h08m	;
reserver	S	1098j_01h08m	W	1098j_16h08m	;
reserver	C	1099j_15h08m	A	1100j_20h08m	;
reserver	S	1101j_02h08m	N	1102j_10h08m	;
reserver	B	1104j_07h08m	B	1105j_23h08m	;
reserver	R	1107j_16h08m	A	1109j_02h08m	;
reserver	K	1109j_17h08m	R	1111j_17h08m	;
reserver	X	1112j_23h08m	K	1114j_00h08m	;
reserver	W	1114j_09h08m	E	1115j_15h08m	;
reserver	P	1117j_15h08m	I	1119j_10h08m	;
reserver	S	1120j_04h08m	P	1120j_19h08m	;
reserver	T	1120j_21h08m	G	1122j_16h08m	;
reserver	I	1123j_00h08m	V	1124j_01h08m	;
reserver	D	1125j_08h08m	N	1126j_23h08m	;
reserver	Y	1128j_10h08m	Y	1130j_09h08m	;
reserver	D	1130j_21h08m	O	1132j_05h08m	;
reserver	T	1132j_21h08m	P	1134j_02h08m	;
reserver	D	1134j_20h08m	C	1135j_08h08m	;
reserver	N	1137j_03h08m	D	1137j_15h08m	;
reserver	T	1137j_17h08m	K	1139j_07h08m	;
reserver	O	1139j_08h08m	F	1140j_06h08m	;
reserver	J	1140j_14h08m	Z	1142j_09h08m	;
reserver	V	1142j_14h08m	N	1143j_09h08m	;
reserver	Q	1145j_03h08m	Z	1147j_00h08m	;
reserver	Y	1147j_05h08m	Y	1148j_00h08m	;
reserver	C	1148j_20h08m	P	1149j_21h08m	;
reserver	K	1150j_18h08m	X	1152j_04h08m	;
reserver	F	1152j_13h08m	H	1153j_07h08m	;
reserver	V	1154j_23h08m	F	1155j_19h08m	;
reserver	M	1157j_01h08m	M	1157j_23h08m	;
reserver	J	1159j_13h08m	T	1160j_08h08m	;
reserver	U	1160j_20h08m	O	1161j_08h08m	;
reserver	Q	1162j_01h08m	P	1163j_14h08m	;
reserver	C	1163j_21h08m	X	1164j_17h08m	;
reserver	G	1165j_01h08m	B	1166j_07h08m	;
reserver	O	1166j_17h08m	V	1168j_06h08m	;
reserver	Z	1168j_13h08m	T	1169j_04h08m	;
reserver	N	1169j_07h08m	Z	1170j_11h08m	;
reserver	I	1171j_06h08m	G	1172j_11h08m	;
reserver	U	1173j_22h08m	D	1175j_03h08m	;
reserver	L	1175j_10h08m	W	1176j_15h08m	;
reserver	E	1176j_19h08m	G	1178j_18h08m	;
reserver	R	1179j_17h08m	T	1180j_20h08m	;
reserver	L	1181j_00h08m	W	1182j_06h08m	;
reserver	B	1182j_06h08m	A	1183j_01h08m	;
reserver	I	1185j_01h08m	B	1185j_14h08m	;
reserver	R	1186j_07h08m	O	1187j_21h08m	;
reserver	O	1189j_12h09m	H	1190j_20h09m	;
reserver	V	1190j_20h09m	Y	1192j_14h09m	;
reserver	D	1193j_07h09m	I	1194j_23h09m	;
reserver	M	1196j_14h09m	Y	1197j_10h09m	;
reserver	R	1197j_13h09m	O	1199j_06h09m	;
reserver	M	1199j_07h09m	T	1200j_21h09m	;
reserver	W	1202j_21h09m	S	1203j_09h09m	;
reserver	U	1203j_19h09m	H	1204j_22h09m	;
reserver	P	1205j_18h09m	E	1206j_21h09m	;
reserver	U	1207j_11h09m	S	1209j_00h09m	;
reserver	U	1211j_00h09m	W	1212j_10h09m	;
reserver	A	1213j_19h09m	Y	1215j_10h09m	;
reserver	G	1215j_20h09m	T	1217j_18h09m	;
reserver	I	1218j_02h09m	K	1219j_02h09m	;
reserver	Q	1220j_17h09m	W	1221j_18h09m	;
reserver	E	1223j_18h09m	J	1225j_15h09m	;
reserver	T	1226j_20h09m	I	1227j_13h09m	;
reserver	K	1229j_12h09m	X	1230j_21h09m	;
reserver	I	1231j_17h09m	C	1232j_19h09m	;
reserver	Z	1233j_00h09m	J	1233j_12h09m	;
reserver	N	1234j_14h09m	C	1236j_08h09m	;
reserver	G	1237j_23h09m	Q	1238j_21h09m	;
reserver	I	1240j_02h09m	T	1241j_14h09m	;
reserver	K	1242j_21h09m	Y	1243j_14h09m	;
reserver	F	1244j_19h09m	L	1246j_00h09m	;
reserver	L	1247j_21h09m	R	1249j_05h09m	;
reserver	T	1250j_14h09m	L	1252j_08h09m	;
reserver	U	1252j_20h09m	G	1254j_04h09m	;
reserver	O	1254j_07h09m	K	1255j_02h09m	;
reserver	G	1256j_13h09m	X	1257j_07h09m	;
reserver	C	1258j_14h09m	V	1259j_07h09m	;
reserver	Q	1260j_21h09m	L	1261j_17h09m	;
reserver	Q	1262j_20h09m	I	1264j_11h09m	;
reserver	Q	1265j_06h09m	P	1266j_12h09m	;
reserver	D	1268j_00h09m	B	1269j_21h09m	;
reserver	J	1270j_01h09m	W	1270j_20h09m	;
reserver	M	1271j_21h09m	Z	1273j_16h09m	;
reserver	O	1275j_15h09m	J	1277j_11h09m	;
reserver	M	1278j_19h09m	Z	1279j_08h09m	;
reserver	W	1279j_22h09m	N	1281j_13h09m	;
reserver	X	1282j_18h09m	V	1284j_14h09m	;
reserver	I	1285j_17h09m	O	1286j_19h09m	;
reserver	H	1287j_00h09m	N	1288j_14h09m	;
reserver	J	1289j_06h09m	T	1291j_01h09m	;
reserver	Y	1291j_23h09m	J	1293j_10h09m	;
reserver	P	1294j_11h09m	W	1295j_19h09m	;
reserver	Y	1296j_16h09m	Q	1297j_05h09m	;
reserver	E	1298j_11h09m	E	1299j_18h09m	;
reserver	F	1300j_00h09m	K	1301j_03h09m	;
reserver	B	1301j_05h09m	T	1302j_13h09m	;
reserver	S	1302j_23h09m	P	1304j_07h09m	;
reserver	S	1304j_17h09m	T	1305j_13h09m	;
reserver	D	1305j_13h09m	C	1307j_02h09m	;
reserver	D	1308j_16h09m	Q	1310j_09h09m	;
reserver	D	1312j_08h09m	O	1313j_22h09m	;
reserver	J	1314j_19h09m	U	1316j_11h09m	;
reserver	B	1316j_12h09m	A	1317j_07h09m	;
reserver	I	1318j_17h09m	E	1320j_05h09m	;
reserver	L	1321j_03h09m	S	1321j_23h09m	;
reserver	A	1323j_16h09m	E	1324j_08h09m	;
reserver	P	1324j_08h10m	G	1325j_20h10m	;
reserver	F	1325j_23h10m	Z	1327j_08h10m	;
reserver	X	1328j_17h10m	D	1330j_16h10m	;
reserver	R	1330j_16h10m	V	1332j_04h10m	;
reserver	N	1334j_03h10m	C	1334j_20h10m	;
reserver	G	1335j_23h10m	P	1337j_05h10m	;
reserver	Z	1338j_15h10m	Z	1339j_17h10m	;
reserver	Z	1341j_09h10m	V	1342j_09h10m	;
reserver	Z	1342j_15h10m	Y	1343j_14h10m	;
reserver	M	1344j_05h10m	K	1345j_19h10m	;
reserver	I	1347j_04h10m	P	1347j_18h10m	;
reserver	V	1348j_01h10m	O	1349j_22h10m	;
reserver	P	1351j_22h10m	Z	1353j_11h10m	;
reserver	X	1353j_12h10m	U	1355j_06h10m	;
reserver	O	1357j_03h10m	O	1358j_09h10m	;
reserver	Z	1360j_01h10m	I	1361j_08h10m	;
reserver	T	1361j_17h10m	S	1363j_16h10m	;
reserver	Q	1364j_07h10m	P	1365j_23h10m	;
reserver	K	1366j_05h10m	K	1367j_22h10m	;
reserver	T	1369j_15h10m	J	1370j_23h10m	;
reserver	B	1372j_19h10m	F	1374j_03h10m	;
reserver	C	1375j_14h10m	Y	1376j_21h10m	;
reserver	R	1377j_03h10m	S	1378j_00h10m	;
reserver	Z	1378j_12h10m	X	1379j_07h10m	;
reserver	J	1380j_17h10m	F	1381j_23h10m	;
reserver	V	1383j_15h10m	N	1384j_12h10m	;
reserver	C	1385j_17h10m	U	1387j_05h10m	;
reserver	D	1389j_03h10m	M	1390j_09h10m	;
reserver	F	1391j_19h10m	V	1392j_14h10m	;
reserver	D	1393j_22h10m	S	1395j_01h10m	;
reserver	T	1395j_20h10m	Q	1397j_20h10m	;
reserver	X	1397j_20h10m	U	1399j_12h10m	;
reserver	G	1399j_18h10m	U	1400j_22h10m	;
reserver	H	1401j_18h10m	R	1403j_07h10m	;
reserver	F	1405j_00h10m	Q	1405j_15h10m	;
reserver	A	1405j_16h10m	O	1407j_08h10m	;
reserver	U	1407j_17h10m	I	1408j_12h10m	;
reserver	Q	1409j_08h10m	L	1410j_21h10m	;
reserver	P	1411j_23h10m	G	1413j_23h10m	;
reserver	G	1415j_03h10m	R	1416j_20h10m	;
reserver	P	1417j_06h10m	G	1417j_19h10m	;
reserver	Y	1419j_01h10m	C	1421j_00h10m	;
reserver	R	1422j_08h10m	Y	1423j_23h10m	;
reserver	D	1424j_00h10m	X	1424j_13h10m	;
reserver	O	1426j_03h10m	X	1426j_22h10m	;
reserver	X	1427j_13h10m	G	1428j_07h10m	;
reserver	F	1429j_22h10m	H	1431j_03h10m	;
reserver	K	1431j_22h10m	G	1433j_04h10m	;
reserver	O	1435j_04h10m	W	1436j_18h10m	;
reserver	M	1438j_13h10m	I	1439j_10h10m	;
reserver	W	1439j_19h10m	W	1440j_12h10m	;
reserver	Y	1441j_13h10m	C	1442j_06h10m	;
reserver	Q	1442j_13h10m	F	1444j_09h10m	;
reserver	M	1444j_20h10m	H	1445j_13h10m	;
reserver	K	1446j_21h10m	H	1448j_21h10m	;
reserver	J	1449j_09h10m	Z	1450j_06h10m	;
reserver	U	1452j_06h10m	G	1453j_16h10m	;
reserver	K	1455j_06h10m	L	1457j_06h10m	;
reserver	B	1459j_01h10m	U	1460j_20h10m	;
reserver	X	1461j_03h10m	N	1461j_23h10m	;
reserver	G	1463j_12h11m	K	1464j_13h11m	;
reserver	A	1464j_13h11m	U	1465j_01h11m	;
reserver	R	1465j_18h11m	N	1466j_16h11m	;
reserver	E	1467j_21h11m	K	1468j_20h11m	;
reserver	L	1470j_02h11m	K	1471j_23h11m	;
reserver	O	1473j_22h11m	D	1475j_08h11m	;
reserver	G	1475j_09h11m	J	1476j_17h11m	;
reserver	I	1476j_20h11m	A	1478j_17h11m	;
reserver	R	1480j_16h11m	Z	1481j_20h11m	;
reserver	S	1483j_07h11m	Q	1484j_21h11m	;
reserver	P	1485j_03h11m	V	1485j_16h11m	;
reserver	O	1486j_18h11m	Y	1488j_05h11m	;
reserver	O	1489j_19h11m	M	1491j_10h11m	;
reserver	Z	1491j_18h11m	I	1492j_09h11m	;
reserver	W	1493j_16h11m	R	1494j_04h11m	;
reserver	C	1494j_16h11m	B	1496j_13h11m	;
reserver	Z	1497j_11h11m	P	1498j_11h11m	;
reserver	I	1498j_22h11m	G	1499j_11h11m	;
reserver	T	1500j_14h11m	D	1501j_21h11m	;
reserver	Q	1502j_15h11m	K	1504j_03h11m	;
reserver	Z	1504j_07h11m	V	1505j_04h11m	;
reserver	K	1506j_21h11m	Y	1508j_07h11m	;
reserver	W	1510j_06h11m	U	1511j_03h11m	;
reserver	F	1512j_09h11m	V	1513j_19h11m	;
reserver	W	1515j_18h11m	R	1517j_12h11m	;
reserver	G	1519j_06h11m	S	1521j_06h11m	;
reserver	M	1522j_09h11m	Z	1523j_14h11m	;
reserver	W	1524j_10h11m	J	1526j_00h11m	;
reserver	D	1526j_13h11m	J	1527j_19h11m	;
reserver	R	1529j_11h11m	P	1530j_08h11m	;
reserver	Y	1530j_15h11m	M	1531j_12h11m	;
reserver	N	1533j_06h11m	Q	1533j_20h11m	;
reserver	X	1534j_06h11m	D	1535j_05h11m	;
reserver	S	1535j_08h11m	F	1536j_02h11m	;
reserver	L	1537j_13h11m	W	1538j_21h11m	;
reserver	B	1540j_19h11m	M	1541j_07h11m	;
reserver	A	1541j_17h11m	A	1543j_00h11m	;
reserver	B	1543j_03h11m	C	1543j_15h11m	;
reserver	X	1544j_15h11m	X	1545j_23h11m	;
reserver	W	1546j_02h11m	S	1547j_06h11m	;
reserver	P	1549j_02h11m	P	1549j_16h11m	;
reserver	V	1551j_05h11m	J	1552j_15h11m	;
reserver	B	1553j_05h11m	M	1554j_20h11m	;
reserver	Z	1555j_19h11m	Y	1556j_19h11m	;
reserver	O	1558j_14h11m	L	1559j_20h11m	;
reserver	M	1561j_11h11m	M	1562j_03h11m	;
reserver	N	1562j_10h11m	Y	1563j_22h11m	;
reserver	C	1565j_15h11m	P	1566j_16h11m	;
reserver	Q	1567j_03h11m	Q	1568j_03h11m	;
reserver	M	1568j_03h11m	W	1569j_13h11m	;
reserver	L	1571j_08h11m	R	1572j_20h11m	;
reserver	N	1573j_19h11m	O	1575j_08h11m	;
reserver	N	1576j_09h11m	Y	1577j_17h11m	;
reserver	D	1579j_16h11m	L	1581j_14h11m	;
reserver	P	1581j_22h11m	K	1583j_07h11m	;
reserver	X	1584j_13h11m	L	1586j_00h11m	;
reserver	S	1586j_18h11m	E	1587j_18h11m	;
reserver	N	1589j_17h11m	W	1591j_02h11m	;
reserver	E	1591j_05h11m	H	1591j_18h11m	;
reserver	C	1592j_13h11m	X	1593j_16h11m	;
reserver	C	1594j_20h12m	Q	1595j_19h12m	;
reserver	J	1596j_18h12m	D	1597j_16h12m	;
reserver	C	1597j_19h12m	T	1599j_12h12m	;
reserver	T	1600j_20h12m	P	1602j_05h12m	;
reserver	Z	1602j_16h12m	N	1604j_04h12m	;
reserver	M	1606j_03h12m	I	1607j_19h12m	;
reserver	F	1609j_12h12m	G	1610j_13h12m	;
reserver	L	1611j_19h12m	E	1613j_10h12m	;
reserver	Y	1613j_12h12m	B	1614j_21h12m	;
reserver	R	1616j_08h12m	R	1617j_01h12m	;
reserver	N	1618j_11h12m	F	1620j_05h12m	;
reserver	A	1620j_08h12m	S	1622j_06h12m	;
reserver	D	1623j_22h12m	J	1624j_13h12m	;
reserver	X	1626j_05h12m	S	1628j_05h12m	;
reserver	Y	1629j_03h12m	G	1630j_19h12m	;
reserver	R	1631j_20h12m	V	1632j_19h12m	;
reserver	X	1632j_20h12m	S	1634j_04h12m	;
reserver	P	1634j_20h12m	A	1636j_07h12m	;
reserver	B	1637j_06h12m	E	1638j_15h12m	;
reserver	A	1640j_00h12m	W	1641j_07h12m	;
reserver	R	1642j_08h12m	Q	1643j_04h12m	;
reserver	A	1643j_14h12m	G	1644j_14h12m	;
reserver	U	1646j_00h12m	G	1647j_12h12m	;
reserver	S	1648j_21h12m	X	1649j_23h12m	;
reserver	N	1651j_13h12m	Z	1653j_05h12m	;
reserver	R	1653j_06h12m	G	1654j_04h12m	;
reserver	H	1655j_01h12m	M	1656j_12h12m	;
reserver	B	1658j_07h12m	J	1659j_05h12m	;
reserver	T	1660j_03h12m	Y	1661j_10h12m	;
reserver	D	1661j_23h12m	K	1663j_09h12m	;
reserver	G	1664j_01h12m	R	1665j_19h12m	;
reserver	V	1666j_00h12m	W	1667j_14h12m	;
reserver	Q	1668j_21h12m	K	1670j_18h12m	;
reserver	P	1671j_18h12m	B	1672j_10h12m	;
reserver	W	1673j_15h12m	S	1675j_12h12m	;
reserver	I	1675j_18h12m	T	1676j_14h12m	;
reserver	P	1676j_20h12m	B	1677j_08h12m	;
reserver	D	1677j_13h12m	Q	1678j_03h12m	;
reserver	Y	1678j_12h12m	Z	1680j_01h12m	;
reserver	L	1681j_20h12m	O	1683j_14h12m	;
reserver	E	1685j_12h12m	G	1686j_06h12m	;
reserver	T	1688j_00h12m	H	1689j_07h12m	;
reserver	A	1689j_14h12m	N	1690j_08h12m	;
reserver	V	1690j_23h12m	B	1692j_06h12m	;
reserver	W	1692j_17h12m	R	1693j_08h12m	;
reserver	F	1693j_19h12m	Q	1695j_14h12m	;
reserver	Q	1696j_15h12m	S	1698j_00h12m	;
reserver	N	1698j_14h12m	U	1699j_10h12m	;
reserver	N	1700j_22h12m	Y	1702j_02h12m	;
reserver	P	1702j_10h12m	K	1703j_16h12m	;
reserver	J	1703j_19h12m	B	1705j_11h12m	;
reserver	O	1705j_14h12m	O	1706j_10h12m	;
reserver	R	1707j_21h12m	Q	1709j_15h12m	;
reserver	T	1709j_21h12m	S	1711j_16h12m	;
reserver	J	1712j_00h12m	K	1712j_20h12m	;
reserver	W	1713j_00h12m	X	1713j_22h12m	;
reserver	Y	1715j_18h12m	F	1716j_19h12m	;
reserver	I	1718j_12h12m	W	1719j_21h12m	;
reserver	N	1720j_17h12m	E	1721j_14h12m	;
reserver	Q	1722j_06h12m	P	1724j_04h12m	;
reserver	B	1725j_11h13m	D	1726j_06h13m	;
reserver	K	1728j_02h13m	E	1729j_07h13m	;
reserver	H	1730j_19h13m	L	1732j_17h13m	;
reserver	W	1734j_11h13m	U	1736j_10h13m	;
reserver	R	1736j_23h13m	N	1737j_18h13m	;
reserver	U	1737j_19h13m	A	1739j_18h13m	;
reserver	Z	1741j_11h13m	K	1743j_08h13m	;
reserver	K	1744j_17h13m	Z	1746j_05h13m	;
reserver	F	1747j_06h13m	X	1747j_20h13m	;
reserver	S	1749j_09h13m	I	1750j_20h13m	;
reserver	Z	1751j_20h13m	Y	1753j_17h13m	;
reserver	J	1754j_02h13m	B	1755j_08h13m	;
reserver	C	1756j_19h13m	I	1757j_09h13m	;
reserver	Q	1759j_08h13m	S	1761j_03h13m	;
reserver	O	1761j_19h13m	K	1762j_08h13m	;
reserver	A	1762j_23h13m	T	1764j_02h13m	;
reserver	R	1764j_10h13m	X	1765j_21h13m	;
reserver	V	1766j_12h13m	U	1768j_04h13m	;
reserver	R	1769j_15h13m	D	1771j_06h13m	;
reserver	T	1773j_02h13m	B	1773j_20h13m	;
reserver	B	1774j_00h13m	Y	1775j_16h13m	;
reserver	P	1775j_18h13m	Q	1777j_00h13m	;
reserver	E	1777j_01h13m	F	1778j_07h13m	;
reserver	G	1779j_10h13m	I	1781j_06h13m	;
reserver	A	1783j_06h13m	E	1784j_16h13m	;
reserver	N	1784j_18h13m	I	1785j_10h13m	;
reserver	S	1786j_01h13m	F	1787j_02h13m	;
reserver	Z	1788j_00h13m	I	1789j_05h13m	;
reserver	K	1791j_04h13m	W	1791j_21h13m	;
reserver	S	1792j_17h13m	K	1793j_14h13m	;
reserver	T	1793j_20h13m	K	1795j_13h13m	;
reserver	I	1797j_00h13m	M	1797j_18h13m	;
reserver	F	1798j_11h13m	M	1800j_10h13m	;
reserver	L	1802j_03h13m	O	1804j_01h13m	;
reserver	B	1804j_09h13m	W	1805j_15h13m	;
reserver	D	1806j_15h13m	B	1808j_00h13m	;
reserver	Y	1808j_13h13m	F	1809j_14h13m	;
reserver	R	1810j_22h13m	W	1811j_21h13m	;
reserver	N	1813j_15h13m	W	1815j_03h13m	;
reserver	L	1815j_08h13m	M	1817j_04h13m	;
reserver	L	1818j_01h13m	M	1818j_15h13m	;
reserver	O	1819j_07h13m	T	1820j_22h13m	;
reserver	O	1821j_02h13m	K	1822j_23h13m	;
reserver	R	1823j_18h13m	A	1825j_14h13m	;
reserver	Z	1827j_00h13m	Y	1827j_19h13m	;
reserver	L	1828j_21h13m	J	1829j_13h13m	;
reserver	J	1830j_08h13m	B	1832j_05h13m	;
reserver	E	1832j_07h13m	O	1834j_06h13m	;
reserver	H	1834j_12h13m	Q	1835j_07h13m	;
reserver	K	1836j_05h13m	B	1836j_18h13m	;
reserver	G	1837j_02h13m	I	1838j_08h13m	;
reserver	T	1840j_07h13m	C	1842j_00h13m	;
reserver	A	1842j_06h13m	X	1844j_06h13m	;
reserver	Q	1844j_19h13m	X	1846j_06h13m	;
reserver	P	1846j_15h13m	Q	1847j_22h13m	;
reserver	M	1848j_19h13m	Y	1850j_08h13m	;
reserver	Q	1851j_00h13m	S	1851j_22h13m	;
reserver	T	1853j_11h13m	R	1854j_00h13m	;
reserver	D	1854j_18h13m	X	1855j_14h13m	;
reserver	Q	1856j_11h13m	L	1857j_15h13m	;
reserver	U	1859j_01h14m	R	1860j_15h14m	;
reserver	G	1861j_05h14m	B	1862j_10h14m	;
reserver	Q	1862j_11h14m	C	1863j_09h14m	;
reserver	X	1865j_09h14m	I	1866j_01h14m	;
reserver	I	1867j_13h14m	U	1869j_09h14m	;
reserver	M	1871j_07h14m	M	1872j_19h14m	;
reserver	P	1874j_11h14m	D	1876j_11h14m	;
reserver	K	1877j_18h14m	V	1878j_13h14m	;
reserver	J	1878j_17h14m	Z	1879j_20h14m	;
reserver	A	1880j_21h14m	M	1881j_23h14m	;
reserver	Q	1882j_05h14m	M	1882j_17h14m	;
reserver	T	1884j_10h14m	G	1885j_05h14m	;
reserver	K	1886j_20h14m	I	1887j_16h14m	;
reserver	T	1889j_03h14m	R	1890j_11h14m	;
reserver	V	1892j_03h14m	G	1893j_21h14m	;
reserver	E	1894j_08h14m	Q	1895j_08h14m	;
reserver	M	1897j_07h14m	Y	1898j_14h14m	;
reserver	B	1900j_05h14m	T	1901j_20h14m	;
reserver	D	1902j_13h14m	G	1903j_07h14m	;
reserver	V	1905j_07h14m	S	1906j_03h14m	;
reserver	K	1906j_10h14m	K	1907j_23h14m	;
reserver	X	1908j_23h14m	A	1909j_11h14m	;
reserver	F	1910j_00h14m	E	1911j_20h14m	;
reserver	I	1912j_16h14m	Z	1914j_02h14m	;
reserver	R	1915j_11h14m	H	1916j_15h14m	;
reserver	M	1918j_03h14m	L	1919j_11h14m	;
reserver	G	1921j_07h14m	J	1922j_17h14m	;
reserver	K	1923j_14h14m	O	1925j_07h14m	;
reserver	V	1926j_11h14m	T	1927j_06h14m	;
reserver	Z	1927j_09h14m	C	1928j_22h14m	;
reserver	Q	1929j_23h14m	S	1930j_13h14m	;
reserver	D	1931j_11h14m	L	1932j_09h14m	;
reserver	U	1933j_11h14m	U	1933j_23h14m	;
reserver	L	1935j_10h14m	O	1936j_03h14m	;
reserver	P	1936j_04h14m	Y	1937j_18h14m	;
reserver	Q	1938j_01h14m	L	1939j_10h14m	;
reserver	Q	1941j_08h14m	Y	1942j_10h14m	;
reserver	M	1943j_11h14m	A	1944j_09h14m	;
reserver	R	1945j_18h14m	D	1946j_21h14m	;
reserver	E	1947j_04h14m	I	1947j_17h14m	;
reserver	G	1948j_19h14m	M	1949j_20h14m	;
reserver	D	1951j_12h14m	R	1952j_19h14m	;
reserver	C	1954j_13h14m	K	1956j_03h14m	;
reserver	V	1956j_21h14m	J	1958j_08h14m	;
reserver	O	1959j_17h14m	N	1960j_18h14m	;
reserver	T	1962j_07h14m	H	1963j_22h14m	;
reserver	A	1964j_14h14m	B	1965j_18h14m	;
reserver	L	1967j_02h14m	P	1967j_17h14m	;
reserver	I	1969j_17h14m	T	1970j_18h14m	;
reserver	R	1972j_17h14m	R	1974j_11h14m	;
reserver	E	1976j_08h14m	C	1977j_23h14m	;
reserver	M	1978j_01h14m	M	1979j_18h14m	;
reserver	T	1980j_17h14m	V	1981j_15h14m	;
reserver	A	1983j_06h14m	Q	1983j_18h14m	;
reserver	G	1984j_20h14m	A	1986j_13h14m	;
reserver	Y	1988j_01h14m	P	1989j_07h14m	;
reserver	O	1990j_14h14m	X	1991j_17h14m	;
reserver	N	1992j_03h14m	O	1993j_14h14m	;
reserver	J	1995j_08h14m	S	1996j_20h14m	;
reserver	D	1996j_23h14m	L	1997j_16h14m	;
reserver	C	1999j_06h15m	S	2000j_23h15m	;
reserver	V	2002j_21h15m	E	2004j_21h15m	;
reserver	M	2005j_20h15m	L	2007j_18h15m	;
reserver	F	2008j_07h15m	H	2008j_23h15m	;
reserver	T	2009j_23h15m	G	2011j_04h15m	;
reserver	U	2012j_08h15m	F	2013j_01h15m	;
reserver	L	2013j_21h15m	D	2014j_10h15m	;
reserver	X	2015j_03h15m	G	2017j_00h15m	;
reserver	Y	2017j_08h15m	A	2018j_06h15m	;
reserver	C	2019j_21h15m	I	2021j_09h15m	;
reserver	X	2022j_17h15m	P	2023j_05h15m	;
reserver	L	2024j_04h15m	H	2026j_04h15m	;
reserver	U	2027j_07h15m	F	2028j_19h15m	;
reserver	R	2029j_19h15m	U	2030j_20h15m	;
reserver	C	2031j_23h15m	J	2033j_12h15m	;
reserver	B	2033j_16h15m	F	2034j_07h15m	;
reserver	A	2036j_00h15m	J	2036j_21h15m	;
reserver	Q	2038j_03h15m	J	2039j_03h15m	;
reserver	B	2040j_10h15m	C	2042j_08h15m	;
reserver	H	2043j_22h15m	E	2044j_20h15m	;
reserver	A	2046j_20h15m	D	2047j_09h15m	;
reserver	K	2047j_17h15m	J	2048j_15h15m	;
reserver	P	2048j_22h15m	N	2050j_10h15m	;
reserver	Q	2051j_06h15m	A	2052j_12h15m	;
reserver	G	2052j_19h15m	F	2054j_15h15m	;
reserver	N	2055j_08h15m	N	2057j_06h15m	;
reserver	M	2059j_02h15m	Z	2060j_05h15m	;
reserver	N	2060j_07h15m	W	2061j_06h15m	;
reserver	Z	2061j_22h15m	P	2063j_13h15m	;
reserver	S	2063j_13h15m	U	2065j_00h15m	;
reserver	A	2065j_16h15m	J	2066j_04h15m	;
reserver	O	2067j_22h15m	Q	2069j_02h15m	;
reserver	Y	2069j_20h15m	I	2070j_19h15m	;
reserver	A	2071j_22h15m	L	2072j_20h15m	;
reserver	T	2072j_20h15m	U	2074j_03h15m	;
reserver	M	2074j_23h15m	J	2076j_05h15m	;
reserver	M	2076j_09h15m	Q	2077j_05h15m	;
reserver	T	2078j_02h15m	T	2079j_12h15m	;
reserver	L	2080j_11h15m	B	2080j_23h15m	;
reserver	P	2080j_23h15m	P	2081j_18h15m	;
reserver	X	2082j_15h15m	F	2083j_09h15m	;
reserver	I	2083j_09h15m	Q	2084j_05h15m	;
reserver	C	2085j_04h15m	H	2086j_11h15m	;
reserver	I	2088j_01h15m	D	2089j_03h15m	;
reserver	S	2090j_12h15m	W	2091j_04h15m	;
reserver	T	2092j_04h15m	F	2094j_00h15m	;
reserver	P	2095j_15h15m	G	2096j_16h15m	;
reserver	R	2097j_11h15m	F	2098j_02h15m	;
reserver	M	2098j_05h15m	B	2099j_13h15m	;
reserver	D	2100j_02h15m	Q	2101j_20h15m	;
reserver	Z	2103j_08h15m	I	2104j_00h15m	;
reserver	G	2104j_01h15m	V	2105j_19h15m	;
reserver	J	2105j_20h15m	B	2106j_18h15m	;
reserver	D	2107j_14h15m	H	2109j_09h15m	;
reserver	T	2111j_07h15m	K	2112j_06h15m	;
reserver	J	2114j_05h15m	D	2115j_06h15m	;
reserver	E	2115j_20h15m	L	2117j_10h15m	;
reserver	Q	2117j_12h15m	Q	2118j_23h15m	;
reserver	D	2119j_11h15m	C	2120j_16h15m	;
reserver	L	2122j_13h15m	C	2123j_09h15m	;
reserver	A	2124j_01h16m	N	2125j_02h16m	;
reserver	E	2126j_08h16m	E	2127j_13h16m	;
reserver	H	2127j_16h16m	U	2129j_16h16m	;
reserver	L	2131j_15h16m	W	2132j_18h16m	;
reserver	V	2133j_05h16m	R	2134j_21h16m	;
reserver	E	2135j_06h16m	K	2135j_21h16m	;
reserver	G	2137j_15h16m	Z	2138j_05h16m	;
reserver	J	2138j_09h16m	Q	2139j_14h16m	;
reserver	U	2140j_01h16m	K	2141j_12h16m	;
reserver	P	2141j_21h16m	Z	2143j_00h16m	;
reserver	R	2143j_14h16m	R	2144j_22h16m	;
reserver	J	2145j_20h16m	U	2146j_22h16m	;
reserver	X	2147j_15h16m	C	2149j_13h16m	;
reserver	E	2150j_12h16m	A	2151j_03h16m	;
reserver	O	2151j_23h16m	J	2153j_07h16m	;
reserver	G	2155j_07h16m	X	2156j_17h16m	;
reserver	D	2157j_10h16m	T	2158j_01h16m	;
reserver	L	2159j_17h16m	A	2160j_07h16m	;
reserver	O	2161j_06h16m	D	2162j_14h16m	;
reserver	S	2163j_01h16m	U	2164j_09h16m	;
reserver	Z	2164j_12h16m	B	2165j_20h16m	;
reserver	Z	2165j_20h16m	L	2167j_16h16m	;
reserver	V	2168j_13h16m	L	2169j_21h16m	;
reserver	H	2171j_18h16m	I	2172j_09h16m	;
reserver	R	2173j_17h16m	Q	2175j_05h16m	;
reserver	O	2175j_15h16m	C	2176j_20h16m	;
reserver	O	2178j_20h16m	Q	2179j_08h16m	;
reserver	C	2180j_21h16m	V	2182j_16h16m	;
reserver	I	2182j_22h16m	M	2183j_17h16m	;
reserver	W	2183j_22h16m	Z	2185j_01h16m	;
reserver	S	2185j_22h16m	L	2187j_17h16m	;
reserver	B	2188j_12h16m	X	2189j_01h16m	;
reserver	D	2190j_21h16m	V	2191j_16h16m	;
reserver	A	2193j_01h16m	C	2193j_16h16m	;
reserver	U	2195j_14h16m	F	2197j_00h16m	;
reserver	E	2197j_16h16m	F	2198j_16h16m	;
reserver	Z	2198j_20h16m	F	2199j_18h16m	;
reserver	S	2200j_19h16m	K	2202j_07h16m	;
reserver	K	2203j_19h16m	Q	2204j_19h16m	;
reserver	I	2205j_22h16m	Z	2207j_04h16m	;
reserver	N	2207j_08h16m	N	2208j_17h16m	;
reserver	G	2208j_23h16m	T	2210j_01h16m	;
reserver	B	2211j_10h16m	H	2212j_02h16m	;
reserver	R	2213j_13h16m	V	2215j_01h16m	;
reserver	I	2216j_06h16m	W	2217j_17h16m	;
reserver	R	2218j_09h16m	E	2219j_10h16m	;
reserver	S	2220j_13h16m	O	2221j_19h16m	;
reserver	L	2223j_00h16m	S	2223j_21h16m	;
reserver	A	2225j_13h16m	G	2226j_08h16m	;
reserver	H	2227j_06h16m	Y	2228j_09h16m	;
reserver	C	2230j_02h16m	H	2231j_14h16m	;
reserver	N	2232j_01h16m	E	2233j_13h16m	;
reserver	O	2234j_06h16m	W	2235j_03h16m	;
reserver	X	2236j_23h16m	G	2237j_22h16m	;
reserver	W	2239j_17h16m	W	2240j_21h16m	;
reserver	S	2240j_23h16m	Y	2241j_14h16m	;
reserver	H	2243j_02h16m	Y	2244j_00h16m	;
reserver	P	2245j_01h16m	Z	2246j_18h16m	;
reserver	F	2247j_22h16m	H	2249j_18h16m	;
reserver	M	2250j_04h16m	H	2251j_14h16m	;
reserver	R	2251j_16h17m	B	2252j_04h17m	;
reserver	T	2254j_01h17m	A	2255j_08h17m	;
reserver	L	2256j_19h17m	L	2258j_19h17m	;
reserver	D	2259j_00h17m	X	2260j_20h17m	;
reserver	I	2261j_14h17m	B	2263j_13h17m	;
reserver	Z	2263j_13h17m	H	2264j_02h17m	;
reserver	D	2265j_06h17m	Y	2266j_06h17m	;
reserver	E	2267j_12h17m	Z	2269j_12h17m	;
reserver	U	2270j_21h17m	G	2271j_16h17m	;
reserver	C	2272j_19h17m	O	2273j_15h17m	;
reserver	Y	2275j_10h17m	L	2277j_10h17m	;
reserver	Z	2277j_10h17m	B	2278j_07h17m	;
reserver	B	2278j_18h17m	V	2279j_12h17m	;
reserver	N	2279j_17h17m	N	2281j_00h17m	;
reserver	M	2282j_03h17m	B	2283j_09h17m	;
reserver	Z	2285j_01h17m	P	2286j_20h17m	;
reserver	B	2287j_06h17m	F	2288j_10h17m	;
reserver	M	2288j_16h17m	R	2290j_01h17m	;
reserver	D	2291j_23h17m	A	2293j_03h17m	;
reserver	E	2293j_20h17m	Y	2294j_21h17m	;
reserver	T	2295j_01h17m	R	2295j_16h17m	;
reserver	N	2296j_09h17m	N	2297j_11h17m	;
reserver	U	2298j_04h17m	T	2300j_03h17m	;
reserver	X	2301j_09h17m	C	2302j_00h17m	;
reserver	K	2304j_00h17m	T	2304j_16h17m	;
reserver	L	2306j_09h17m	V	2307j_08h17m	;
reserver	J	2308j_12h17m	D	2309j_11h17m	;
reserver	Q	2310j_11h17m	C	2311j_05h17m	;
reserver	J	2312j_05h17m	N	2312j_19h17m	;
reserver	K	2314j_08h17m	C	2316j_01h17m	;
reserver	N	2316j_01h17m	F	2316j_19h17m	;
reserver	S	2317j_19h17m	T	2318j_19h17m	;
reserver	U	2320j_12h17m	K	2322j_02h17m	;
reserver	X	2322j_16h17m	R	2324j_06h17m	;
reserver	V	2324j_14h17m	T	2326j_09h17m	;
reserver	Y	2327j_23h17m	Y	2329j_15h17m	;
reserver	F	2331j_11h17m	Y	2332j_08h17m	;
reserver	L	2332j_19h17m	X	2334j_15h17m	;
reserver	Y	2336j_13h17m	M	2338j_10h17m	;
reserver	Y	2338j_14h17m	R	2339j_22h17m	;
reserver	V	2341j_15h17m	W	2342j_21h17m	;
reserver	E	2344j_07h17m	Z	2344j_22h17m	;
reserver	L	2345j_02h17m	F	2347j_02h17m	;
reserver	Y	2348j_05h17m	I	2348j_18h17m	;
reserver	S	2350j_17h17m	U	2352j_04h17m	;
reserver	A	2352j_20h17m	O	2354j_20h17m	;
reserver	K	2356j_19h17m	N	2357j_07h17m	;
reserver	E	2358j_21h17m	V	2360j_02h17m	;
reserver	N	2361j_05h17m	S	2362j_22h17m	;
reserver	D	2364j_06h17m	L	2365j_10h17m	;
reserver	I	2365j_18h17m	Y	2366j_07h17m	;
reserver	W	2368j_01h17m	C	2369j_23h17m	;
reserver	I	2371j_23h17m	J	2373j_14h17m	;
reserver	M	2373j_16h17m	S	2374j_08h17m	;
reserver	V	2375j_00h17m	U	2376j_20h17m	;
reserver	W	2377j_05h17m	B	2378j_05h17m	;
reserver	W	2378j_21h17m	P	2380j_16h17m	;
reserver	G	2381j_08h17m	G	2382j_14h17m	;
reserver	S	2383j_06h17m	P	2385j_00h17m	;
reserver	E	2386j_14h17m	I	2388j_00h17m	;
reserver	S	2389j_16h18m	F	2391j_01h18m	;
reserver	Q	2392j_05h18m	G	2394j_03h18m	;
reserver	O	2395j_09h18m	Z	2397j_06h18m	;
reserver	W	2398j_09h18m	O	2399j_04h18m	;
reserver	C	2399j_04h18m	Y	2399j_19h18m	;
reserver	H	2400j_19h18m	L	2402j_12h18m	;
reserver	C	2404j_01h18m	A	2405j_17h18m	;
reserver	Z	2407j_13h18m	F	2408j_20h18m	;
reserver	F	2410j_10h18m	S	2411j_03h18m	;
reserver	Z	2412j_18h18m	H	2414j_11h18m	;
reserver	P	2416j_11h18m	E	2416j_23h18m	;
reserver	L	2418j_18h18m	N	2419j_22h18m	;
reserver	A	2421j_10h18m	E	2423j_08h18m	;
reserver	W	2425j_00h18m	A	2426j_19h18m	;
reserver	F	2428j_18h18m	K	2429j_20h18m	;
reserver	C	2430j_03h18m	K	2431j_14h18m	;
reserver	D	2433j_05h18m	K	2434j_21h18m	;
reserver	L	2435j_22h18m	K	2436j_19h18m	;
reserver	T	2437j_13h18m	S	2439j_09h18m	;
reserver	A	2440j_00h18m	R	2440j_19h18m	;
reserver	C	2441j_17h18m	G	2442j_09h18m	;
reserver	C	2442j_09h18m	G	2443j_08h18m	;
reserver	A	2444j_00h18m	H	2445j_05h18m	;
reserver	Z	2446j_21h18m	Q	2448j_21h18m	;
reserver	Y	2449j_09h18m	V	2451j_05h18m	;
reserver	S	2452j_17h18m	S	2454j_11h18m	;
reserver	A	2455j_20h18m	D	2456j_12h18m	;
reserver	O	2457j_20h18m	K	2458j_14h18m	;
reserver	E	2460j_13h18m	Q	2461j_06h18m	;
reserver	V	2461j_23h18m	W	2462j_15h18m	;
reserver	X	2462j_23h18m	T	2464j_03h18m	;
reserver	I	2466j_02h18m	B	2466j_17h18m	;
reserver	F	2468j_13h18m	A	2469j_01h18m	;
reserver	L	2470j_10h18m	E	2471j_09h18m	;
reserver	S	2472j_16h18m	V	2474j_15h18m	;
reserver	N	2474j_22h18m	P	2476j_12h18m	;
reserver	V	2477j_00h18m	R	2478j_16h18m	;
reserver	M	2480j_04h18m	P	2481j_05h18m	;
reserver	M	2483j_04h18m	Q	2484j_12h18m	;
reserver	B	2485j_11h18m	T	2487j_09h18m	;
reserver	W	2488j_08h18m	T	2489j_01h18m	;
reserver	H	2490j_20h18m	X	2492j_14h18m	;
reserver	C	2492j_22h18m	P	2494j_06h18m	;
reserver	K	2494j_08h18m	L	2496j_02h18m	;
reserver	P	2498j_02h18m	E	2499j_06h18m	;
reserver	E	2499j_12h18m	D	2501j_06h18m	;
reserver	N	2502j_20h18m	N	2503j_12h18m	;
reserver	I	2504j_20h18m	U	2506j_07h18m	;
reserver	T	2507j_18h18m	X	2509j_04h18m	;
reserver	J	2511j_00h18m	M	2511j_14h18m	;
reserver	B	2513j_03h18m	E	2515j_01h18m	;
reserver	J	2516j_20h18m	V	2517j_13h18m	;
reserver	D	2517j_14h18m	L	2519j_14h18m	;
reserver	S	2520j_00h18m	Y	2521j_19h18m	;
reserver	Q	2522j_21h18m	L	2523j_15h18m	;
reserver	M	2524j_17h18m	W	2526j_09h18m	;
reserver	F	2527j_07h18m	Y	2529j_02h18m	;
reserver	N	2530j_14h18m	T	2532j_00h18m	;
reserver	I	2533j_16h18m	A	2534j_14h18m	;
reserver	M	2536j_01h18m	Y	2537j_03h18m	;
reserver	I	2537j_06h19m	O	2538j_05h19m	;
reserver	T	2539j_11h19m	Y	2540j_10h19m	;
reserver	P	2541j_05h19m	D	2541j_21h19m	;
reserver	Z	2543j_08h19m	B	2545j_02h19m	;
reserver	O	2545j_14h19m	D	2547j_14h19m	;
reserver	F	2549j_14h19m	T	2551j_11h19m	;
reserver	H	2552j_06h19m	I	2553j_21h19m	;
reserver	S	2554j_14h19m	L	2555j_11h19m	;
reserver	B	2556j_09h19m	Q	2558j_09h19m	;
reserver	B	2558j_15h19m	U	2559j_22h19m	;
reserver	B	2560j_02h19m	F	2561j_09h19m	;
reserver	U	2562j_20h19m	D	2563j_11h19m	;
reserver	Z	2564j_05h19m	N	2565j_14h19m	;
reserver	V	2566j_14h19m	Z	2567j_03h19m	;
reserver	G	2569j_03h19m	W	2570j_00h19m	;
reserver	J	2571j_15h19m	C	2572j_22h19m	;
reserver	I	2574j_00h19m	M	2574j_16h19m	;
reserver	U	2575j_09h19m	P	2576j_18h19m	;
reserver	J	2577j_01h19m	Y	2578j_11h19m	;
reserver	Q	2579j_01h19m	X	2580j_21h19m	;
reserver	D	2582j_17h19m	B	2584j_12h19m	;
reserver	B	2585j_10h19m	A	2587j_07h19m	;
reserver	F	2588j_05h19m	Z	2589j_10h19m	;
reserver	D	2590j_01h19m	W	2590j_22h19m	;
reserver	Y	2592j_03h19m	R	2593j_04h19m	;
reserver	K	2594j_19h19m	K	2595j_18h19m	;
reserver	V	2595j_19h19m	K	2597j_05h19m	;
reserver	G	2597j_14h19m	D	2598j_11h19m	;
reserver	H	2598j_20h19m	G	2600j_12h19m	;
reserver	B	2601j_20h19m	S	2603j_20h19m	;
reserver	R	2604j_18h19m	Z	2605j_11h19m	;
reserver	P	2605j_19h19m	H	2607j_19h19m	;
reserver	O	2608j_03h19m	G	2609j_10h19m	;
reserver	B	2611j_10h19m	G	2611j_22h19m	;
reserver	F	2613j_03h19m	H	2614j_11h19m	;
reserver	T	2615j_07h19m	U	2616j_05h19m	;
reserver	U	2617j_05h19m	J	2618j_05h19m	;
reserver	K	2619j_12h19m	S	2621j_11h19m	;
reserver	S	2622j_01h19m	O	2622j_17h19m	;
reserver	U	2624j_12h19m	O	2626j_10h19m	;
reserver	B	2627j_06h19m	Y	2629j_00h19m	;
reserver	O	2629j_08h19m	I	2630j_02h19m	;
reserver	J	2631j_23h19m	Z	2633j_17h19m	;
reserver	K	2633j_17h19m	C	2635j_07h19m	;
reserver	U	2637j_01h19m	M	2638j_04h19m	;
reserver	L	2639j_17h19m	M	2641j_02h19m	;
reserver	V	2642j_04h19m	Q	2643j_22h19m	;
reserver	R	2644j_19h19m	G	2646j_13h19m	;
reserver	P	2648j_04h19m	N	2649j_19h19m	;
reserver	J	2651j_08h19m	P	2652j_13h19m	;
reserver	S	2653j_20h19m	M	2655j_07h19m	;
reserver	M	2657j_02h19m	B	2658j_23h19m	;
reserver	C	2659j_22h19m	G	2661j_12h19m	;
reserver	C	2661j_18h19m	O	2662j_23h19m	;
reserver	Q	2663j_13h19m	J	2665j_10h19m	;
reserver	B	2666j_11h19m	R	2667j_08h19m	;
reserver	V	2668j_15h19m	S	2669j_18h19m	;
reserver	F	2670j_17h19m	L	2672j_11h19m	;
reserver	R	2673j_09h19m	P	2674j_23h19m	;
reserver	W	2676j_00h19m	Z	2676j_16h19m	;
reserver	X	2677j_20h20m	Z	2678j_12h20m	;
reserver	X	2679j_17h20m	M	2681j_08h20m	;
reserver	O	2682j_16h20m	H	2683j_10h20m	;
reserver	C	2683j_17h20m	S	2685j_15h20m	;
reserver	C	2686j_18h20m	Q	2687j_15h20m	;
reserver	M	2688j_01h20m	A	2689j_14h20m	;
reserver	T	2690j_00h20m	N	2691j_23h20m	;
reserver	V	2693j_23h20m	J	2694j_12h20m	;
reserver	Z	2696j_06h20m	X	2697j_08h20m	;
reserver	T	2699j_02h20m	H	2701j_00h20m	;
reserver	T	2702j_07h20m	S	2703j_00h20m	;
reserver	M	2704j_16h20m	V	2706j_03h20m	;
reserver	T	2706j_15h20m	L	2707j_19h20m	;
reserver	M	2709j_15h20m	C	2711j_03h20m	;
reserver	A	2712j_00h20m	H	2713j_11h20m	;
reserver	N	2714j_15h20m	P	2715j_22h20m	;
reserver	G	2717j_02h20m	R	2718j_08h20m	;
reserver	R	2718j_20h20m	G	2720j_19h20m	;
reserver	F	2722j_05h20m	S	2722j_23h20m	;
reserver	F	2724j_23h20m	C	2726j_13h20m	;
reserver	O	2727j_11h20m	H	2728j_18h20m	;
reserver	H	2729j_11h20m	X	2730j_22h20m	;
reserver	Q	2731j_09h20m	L	2732j_16h20m	;
reserver	R	2732j_21h20m	J	2734j_11h20m	;
reserver	D	2734j_17h20m	I	2735j_18h20m	;
reserver	B	2737j_07h20m	A	2738j_20h20m	;
reserver	F	2739j_15h20m	T	2740j_16h20m	;
reserver	Q	2741j_19h20m	C	2743j_09h20m	;
reserver	N	2744j_14h20m	B	2745j_11h20m	;
reserver	S	2746j_12h20m	D	2748j_08h20m	;
reserver	F	2750j_08h20m	Y	2751j_19h20m	;
reserver	W	2753j_10h20m	S	2754j_07h20m	;
reserver	R	2755j_15h20m	P	2756j_05h20m	;
reserver	W	2756j_05h20m	G	2756j_17h20m	;
reserver	H	2757j_19h20m	J	2759j_09h20m	;
reserver	Q	2761j_02h20m	H	2762j_10h20m	;
reserver	U	2763j_02h20m	I	2764j_11h20m	;
reserver	R	2766j_01h20m	X	2767j_19h20m	;
reserver	X	2769j_18h20m	V	2770j_21h20m	;
reserver	Y	2772j_16h20m	R	2773j_12h20m	;
reserver	F	2774j_06h20m	Y	2776j_00h20m	;
reserver	J	2777j_21h20m	I	2779j_20h20m	;
reserver	U	2780j_05h20m	D	2781j_23h20m	;
reserver	E	2783j_03h20m	X	2784j_20h20m	;
reserver	I	2786j_17h20m	W	2788j_06h20m	;
reserver	M	2788j_12h20m	V	2789j_21h20m	;
reserver	X	2790j_01h20m	N	2791j_01h20m	;
reserver	G	2791j_08h20m	M	2792j_11h20m	;
reserver	U	2793j_21h20m	Q	2794j_17h20m	;
reserver	J	2795j_16h20m	A	2796j_13h20m	;
reserver	D	2796j_17h20m	K	2797j_20h20m	;
reserver	L	2799j_06h20m	L	2800j_00h20m	;
reserver	D	2801j_04h20m	D	2803j_03h20m	;
reserver	R	2804j_10h20m	P	2805j_00h20m	;
reserver	J	2806j_20h20m	S	2807j_17h20m	;
reserver	X	2807j_23h20m	R	2808j_23h20m	;
reserver	J	2808j_23h20m	T	2810j_02h20m	;
reserver	P	2811j_03h20m	W	2812j_09h20m	;
reserver	O	2814j_02h20m	R	2815j_17h20m	;
reserver	T	2816j_14h20m	Z	2818j_12h20m	;
reserver	C	2819j_15h21m	D	2820j_13h21m	;
reserver	F	2821j_21h21m	Q	2823j_19h21m	;
reserver	E	2823j_20h21m	Q	2825j_10h21m	;
reserver	Y	2826j_20h21m	U	2827j_20h21m	;
reserver	V	2829j_07h21m	S	2829j_23h21m	;
reserver	I	2831j_07h21m	U	2833j_06h21m	;
reserver	A	2833j_15h21m	Z	2834j_16h21m	;
reserver	R	2835j_12h21m	F	2836j_14h21m	;
reserver	A	2837j_00h21m	E	2838j_13h21m	;
reserver	A	2839j_12h21m	I	2841j_05h21m	;
reserver	E	2842j_21h21m	C	2844j_18h21m	;
reserver	D	2846j_00h21m	E	2847j_15h21m	;
reserver	M	2849j_11h21m	T	2851j_06h21m	;
reserver	E	2851j_14h21m	L	2853j_13h21m	;
reserver	B	2854j_05h21m	D	2855j_16h21m	;
reserver	T	2856j_02h21m	R	2857j_11h21m	;
reserver	S	2858j_09h21m	E	2860j_06h21m	;
reserver	J	2861j_16h21m	B	2862j_16h21m	;
reserver	K	2862j_16h21m	Y	2863j_11h21m	;
reserver	D	2864j_16h21m	I	2865j_11h21m	;
reserver	L	2866j_10h21m	C	2868j_00h21m	;
reserver	K	2869j_08h21m	L	2870j_10h21m	;
reserver	M	2870j_19h21m	X	2871j_09h21m	;
reserver	S	2871j_14h21m	K	2872j_13h21m	;
reserver	W	2874j_00h21m	Q	2875j_21h21m	;
reserver	I	2876j_13h21m	C	2878j_10h21m	;
reserver	T	2878j_21h21m	E	2879j_19h21m	;
reserver	O	2880j_06h21m	T	2881j_22h21m	;
reserver	J	2882j_16h21m	C	2884j_08h21m	;
reserver	J	2885j_14h21m	D	2886j_17h21m	;
reserver	X	2887j_16h21m	Q	2889j_03h21m	;
reserver	F	2890j_01h21m	J	2891j_03h21m	;
reserver	U	2892j_22h21m	U	2893j_10h21m	;
reserver	F	2893j_12h21m	D	2894j_21h21m	;
reserver	I	2896j_17h21m	B	2898j_03h21m	;
reserver	S	2899j_12h21m	Q	2900j_17h21m	;
reserver	J	2902j_16h21m	J	2903j_18h21m	;
reserver	C	2903j_20h21m	V	2905j_03h21m	;
reserver	J	2906j_03h21m	X	2907j_10h21m	;
reserver	T	2908j_20h21m	G	2909j_21h21m	;
reserver	X	2911j_15h21m	V	2912j_13h21m	;
reserver	X	2914j_02h21m	C	2916j_00h21m	;
reserver	L	2916j_14h21m	U	2917j_21h21m	;
reserver	T	2919j_00h21m	C	2919j_14h21m	;
reserver	R	2919j_23h21m	H	2920j_18h21m	;
reserver	T	2921j_18h21m	Z	2922j_20h21m	;
reserver	W	2924j_04h21m	O	2925j_05h21m	;
reserver	K	2926j_16h21m	U	2927j_18h21m	;
reserver	M	2929j_10h21m	Z	2930j_09h21m	;
reserver	I	2931j_12h21m	J	2933j_03h21m	;
reserver	V	2934j_13h21m	J	2935j_18h21m	;
reserver	I	2936j_18h21m	Q	2937j_22h21m	;
reserver	A	2938j_05h21m	J	2939j_17h21m	;
reserver	U	2941j_16h21m	W	2942j_15h21m	;
reserver	Y	2943j_23h21m	R	2944j_18h21m	;
reserver	U	2946j_05h21m	I	2946j_21h21m	;
reserver	C	2947j_22h21m	F	2948j_23h21m	;
reserver	H	2950j_07h21m	C	2951j_06h21m	;
reserver	Q	2951j_18h21m	W	2952j_22h21m	;
reserver	H	2953j_22h21m	Q	2955j_00h21m	;
reserver	U	2955j_03h22m	Q	2955j_21h22m	;
reserver	R	2957j_09h22m	F	2958j_14h22m	;
reserver	S	2959j_21h22m	P	2960j_22h22m	;
reserver	K	2962j_20h22m	V	2964j_01h22m	;
reserver	F	2964j_10h22m	F	2965j_02h22m	;
reserver	Y	2965j_11h22m	U	2967j_05h22m	;
reserver	I	2967j_18h22m	F	2969j_17h22m	;
reserver	A	2971j_00h22m	J	2972j_06h22m	;
reserver	J	2972j_15h22m	L	2974j_02h22m	;
reserver	G	2974j_19h22m	P	2975j_07h22m	;
reserver	V	2976j_08h22m	V	2977j_13h22m	;
reserver	R	2977j_17h22m	M	2979j_10h22m	;
reserver	Y	2980j_03h22m	L	2980j_16h22m	;
reserver	M	2981j_07h22m	F	2982j_09h22m	;
reserver	H	2983j_01h22m	W	2983j_14h22m	;
reserver	I	2985j_10h22m	K	2987j_07h22m	;
reserver	U	2987j_20h22m	R	2988j_10h22m	;
reserver	Q	2989j_02h22m	Q	2990j_20h22m	;
reserver	O	2992j_14h22m	E	2993j_23h22m	;
reserver	Z	2995j_11h22m	Z	2996j_16h22m	;
reserver	Q	2997j_23h22m	S	2998j_14h22m	;
reserver	Q	2999j_05h22m	V	3000j_03h22m	;
reserver	Q	3001j_11h22m	H	3002j_22h22m	;
reserver	Y	3003j_05h22m	J	3004j_11h22m	;
reserver	Y	3006j_00h22m	D	3007j_18h22m	;
reserver	Z	3008j_23h22m	H	3010j_19h22m	;
reserver	P	3011j_09h22m	K	3013j_08h22m	;
reserver	L	3013j_16h22m	D	3015j_01h22m	;
reserver	B	3016j_17h22m	Q	3018j_15h22m	;
reserver	D	3020j_13h22m	A	3021j_10h22m	;
reserver	J	3021j_11h22m	Q	3022j_12h22m	;
reserver	W	3024j_11h22m	D	3026j_06h22m	;
reserver	Z	3026j_21h22m	Y	3028j_08h22m	;
reserver	A	3028j_19h22m	Y	3029j_08h22m	;
reserver	U	3030j_05h22m	O	3031j_15h22m	;
reserver	O	3032j_20h22m	J	3033j_14h22m	;
reserver	Y	3034j_20h22m	A	3036j_17h22m	;
reserver	N	3038j_02h22m	O	3039j_13h22m	;
reserver	E	3041j_06h22m	G	3042j_16h22m	;
reserver	D	3044j_00h22m	C	3044j_12h22m	;
reserver	B	3046j_08h22m	D	3047j_06h22m	;
reserver	G	3048j_18h22m	E	3050j_12h22m	;
reserver	L	3051j_15h22m	T	3053j_00h22m	;
reserver	W	3054j_17h22m	T	3056j_04h22m	;
reserver	W	3057j_19h22m	X	3058j_19h22m	;
reserver	Q	3058j_20h22m	T	3060j_09h22m	;
reserver	W	3061j_06h22m	C	3062j_04h22m	;
reserver	M	3063j_11h22m	G	3064j_05h22m	;
reserver	J	3065j_07h22m	Q	3066j_05h22m	;
reserver	E	3066j_15h22m	V	3068j_15h22m	;
reserver	E	3069j_22h22m	X	3070j_15h22m	;
reserver	O	3071j_09h22m	R	3072j_23h22m	;
reserver	B	3073j_23h22m	U	3075j_01h22m	;
reserver	I	3076j_13h22m	S	3078j_06h22m	;
reserver	X	3079j_16h22m	L	3081j_13h22m	;
reserver	K	3083j_07h22m	M	3083j_20h22m	;
reserver	P	3084j_22h22m	V	3085j_23h22m	;
reserver	T	3087j_13h22m	M	3089j_13h22m	;
reserver	T	3091j_05h22m	Y	3091j_21h22m	;
reserver	V	3092j_23h22m	B	3093j_17h22m	;
reserver	B	3095j_09h23m	J	3097j_02h23m	;
reserver	F	3098j_16h23m	B	3100j_04h23m	;
reserver	Z	3100j_18h23m	W	3101j_12h23m	;
reserver	U	3103j_02h23m	H	3103j_19h23m	;
reserver	K	3104j_14h23m	D	3106j_09h23m	;
reserver	G	3106j_15h23m	X	3108j_09h23m	;
reserver	T	3108j_22h23m	E	3109j_12h23m	;
reserver	J	3111j_11h23m	W	3112j_18h23m	;
reserver	Y	3114j_08h23m	D	3115j_06h23m	;
reserver	U	3117j_04h23m	A	3119j_03h23m	;
reserver	G	3120j_02h23m	M	3120j_17h23m	;
reserver	M	3120j_17h23m	O	3122j_06h23m	;
reserver	B	3122j_13h23m	J	3123j_07h23m	;
reserver	Y	3123j_20h23m	C	3124j_19h23m	;
reserver	T	3125j_13h23m	Z	3127j_13h23m	;
reserver	C	3127j_23h23m	G	3129j_20h23m	;
reserver	R	3131j_06h23m	S	3133j_02h23m	;
reserver	N	3133j_04h23m	X	3133j_22h23m	;
reserver	Z	3135j_18h23m	W	3136j_10h23m	;
reserver	P	3136j_20h23m	H	3138j_00h23m	;
reserver	Q	3139j_18h23m	U	3140j_13h23m	;
reserver	E	3141j_04h23m	R	3142j_15h23m	;
reserver	R	3143j_22h23m	F	3145j_04h23m	;
reserver	J	3145j_21h23m	V	3146j_09h23m	;
reserver	A	3147j_20h23m	F	3148j_15h23m	;
reserver	P	3150j_14h23m	C	3152j_01h23m	;
reserver	U	3152j_21h23m	U	3154j_03h23m	;
reserver	D	3155j_03h23m	N	3155j_17h23m	;
reserver	T	3156j_15h23m	B	3158j_04h23m	;
reserver	O	3159j_07h23m	G	3160j_17h23m	;
reserver	X	3160j_23h23m	B	3162j_17h23m	;
reserver	L	3164j_16h23m	P	3165j_09h23m	;
reserver	G	3166j_02h23m	N	3167j_09h23m	;
reserver	H	3167j_21h23m	T	3169j_21h23m	;
reserver	R	3171j_10h23m	Y	3173j_01h23m	;
reserver	B	3174j_03h23m	Q	3175j_14h23m	;
reserver	N	3175j_17h23m	C	3177j_05h23m	;
reserver	W	3178j_05h23m	J	3179j_06h23m	;
reserver	S	3179j_22h23m	R	3180j_22h23m	;
reserver	G	3181j_16h23m	P	3182j_11h23m	;
reserver	N	3183j_04h23m	X	3185j_01h23m	;
reserver	E	3187j_00h23m	U	3188j_02h23m	;
reserver	E	3188j_13h23m	W	3189j_12h23m	;
reserver	Z	3190j_02h23m	S	3190j_22h23m	;
reserver	O	3191j_07h23m	C	3192j_07h23m	;
reserver	O	3192j_11h23m	C	3193j_20h23m	;
reserver	R	3195j_04h23m	U	3196j_04h23m	;
reserver	P	3197j_11h23m	W	3198j_16h23m	;
reserver	B	3199j_19h23m	U	3201j_06h23m	;
reserver	J	3201j_07h23m	K	3203j_04h23m	;
reserver	P	3203j_05h23m	P	3204j_04h23m	;
reserver	X	3206j_02h23m	Z	3207j_15h23m	;
reserver	H	3208j_18h23m	B	3209j_16h23m	;
reserver	W	3210j_22h23m	F	3212j_09h23m	;
reserver	N	3213j_22h23m	P	3214j_15h23m	;
reserver	G	3215j_08h23m	S	3216j_01h23m	;
reserver	S	3216j_14h23m	J	3217j_18h23m	;
reserver	K	3218j_01h23m	F	3218j_23h23m	;
reserver	A	3220j_18h23m	D	3222j_08h23m	;
reserver	T	3223j_13h23m	J	3224j_18h23m	;
reserver	G	3225j_02h24m	N	3226j_09h24m	;
reserver	F	3226j_22h24m	T	3227j_19h24m	;
reserver	L	3229j_15h24m	U	3230j_12h24m	;
reserver	U	3232j_10h24m	F	3234j_09h24m	;
reserver	X	3234j_23h24m	X	3236j_16h24m	;
reserver	B	3238j_08h24m	U	3239j_04h24m	;
reserver	F	3240j_11h24m	A	3241j_07h24m	;
reserver	X	3242j_05h24m	S	3243j_23h24m	;
reserver	T	3245j_23h24m	V	3247j_04h24m	;
reserver	G	3248j_03h24m	L	3249j_07h24m	;
reserver	I	3250j_13h24m	Z	3252j_06h24m	;
reserver	Z	3253j_06h24m	Z	3255j_06h24m	;
reserver	L	3256j_22h24m	Y	3258j_10h24m	;
reserver	A	3258j_11h24m	R	3260j_11h24m	;
reserver	H	3261j_03h24m	I	3261j_22h24m	;
reserver	Q	3262j_07h24m	B	3264j_01h24m	;
reserver	R	3265j_19h24m	A	3266j_23h24m	;
reserver	X	3267j_09h24m	X	3268j_22h24m	;
reserver	H	3270j_16h24m	J	3272j_03h24m	;
reserver	Z	3273j_18h24m	G	3275j_07h24m	;
reserver	W	3276j_02h24m	N	3276j_22h24m	;
reserver	V	3278j_06h24m	X	3278j_19h24m	;
reserver	G	3279j_12h24m	H	3280j_00h24m	;
reserver	E	3280j_17h24m	J	3282j_11h24m	;
reserver	X	3283j_11h24m	A	3284j_00h24m	;
reserver	R	3284j_11h24m	B	3286j_10h24m	;
reserver	M	3287j_12h24m	I	3288j_23h24m	;
reserver	K	3289j_11h24m	O	3291j_09h24m	;
reserver	D	3291j_09h24m	T	3293j_06h24m	;
reserver	W	3294j_06h24m	D	3296j_03h24m	;
reserver	S	3296j_05h24m	D	3297j_20h24m	;
reserver	G	3299j_12h24m	U	3300j_11h24m	;
reserver	G	3302j_06h24m	F	3303j_13h24m	;
reserver	C	3304j_18h24m	S	3305j_06h24m	;
reserver	S	3306j_03h24m	S	3307j_07h24m	;
reserver	Z	3308j_18h24m	Z	3310j_13h24m	;
reserver	W	3311j_08h24m	L	3312j_21h24m	;
reserver	F	3314j_16h24m	A	3315j_16h24m	;
reserver	O	3317j_14h24m	D	3318j_22h24m	;
reserver	Q	3319j_17h24m	M	3320j_22h24m	;
reserver	C	3320j_22h24m	R	3322j_01h24m	;
reserver	E	3323j_09h24m	C	3325j_06h24m	;
reserver	P	3326j_19h24m	Z	3328j_08h24m	;
reserver	P	3329j_14h24m	X	3331j_04h24m	;
reserver	A	3331j_07h24m	K	3332j_12h24m	;
reserver	B	3332j_22h24m	V	3333j_18h24m	;
reserver	O	3334j_13h24m	L	3335j_06h24m	;
reserver	N	3335j_13h24m	L	3337j_10h24m	;
reserver	L	3338j_09h24m	A	3338j_22h24m	;
reserver	T	3340j_22h24m	R	3342j_00h24m	;
reserver	Z	3342j_13h24m	M	3343j_14h24m	;
reserver	X	3344j_17h24m	J	3346j_06h24m	;
reserver	Z	3347j_23h24m	Q	3349j_01h24m	;
reserver	C	3349j_20h24m	K	3351j_01h24m	;
reserver	N	3352j_02h24m	F	3353j_14h24m	;
reserver	Q	3354j_16h24m	O	3355j_13h24m	;
reserver	P	3355j_19h24m	L	3357j_16h24m	;
reserver	I	3358j_19h24m	C	3360j_11h24m	;
reserver	T	3362j_05h24m	L	3363j_13h24m	;
reserver	I	3364j_18h24m	H	3366j_14h24m	;
reserver	R	3366j_23h25m	S	3368j_20h25m	;
reserver	Y	3369j_02h25m	D	3370j_16h25m	;
reserver	B	3371j_03h25m	Z	3372j_10h25m	;
reserver	G	3373j_08h25m	O	3374j_10h25m	;
reserver	H	3375j_02h25m	P	3376j_21h25m	;
reserver	P	3378j_09h25m	Z	3379j_05h25m	;
reserver	A	3379j_22h25m	I	3381j_16h25m	;
reserver	R	3381j_20h25m	H	3383j_15h25m	;
reserver	F	3383j_20h25m	B	3385j_04h25m	;
reserver	I	3385j_17h25m	G	3387j_09h25m	;
reserver	U	3388j_23h25m	J	3390j_20h25m	;
reserver	M	3392j_03h25m	M	3393j_04h25m	;
reserver	L	3394j_16h25m	L	3395j_05h25m	;
reserver	Y	3396j_21h25m	N	3398j_19h25m	;
reserver	I	3399j_15h25m	O	3400j_23h25m	;
reserver	W	3401j_11h25m	N	3403j_05h25m	;
reserver	X	3404j_13h25m	T	3405j_06h25m	;
reserver	M	3405j_07h25m	I	3407j_03h25m	;
reserver	W	3407j_12h25m	L	3408j_07h25m	;
reserver	T	3408j_16h25m	A	3409j_11h25m	;
reserver	W	3411j_08h25m	J	3412j_17h25m	;
reserver	Z	3413j_14h25m	W	3414j_05h25m	;
reserver	K	3414j_06h25m	I	3415j_22h25m	;
reserver	Y	3416j_02h25m	C	3416j_22h25m	;
reserver	O	3416j_22h25m	D	3418j_03h25m	;
reserver	E	3419j_02h25m	H	3421j_01h25m	;
reserver	S	3421j_23h25m	K	3423j_09h25m	;
reserver	P	3424j_13h25m	V	3426j_10h25m	;
reserver	Y	3427j_05h25m	O	3428j_19h25m	;
reserver	A	3430j_07h25m	R	3431j_03h25m	;
reserver	U	3432j_02h25m	J	3432j_18h25m	;
reserver	R	3432j_19h25m	R	3433j_18h25m	;
reserver	Z	3435j_05h25m	R	3436j_08h25m	;
reserver	F	3436j_10h25m	Q	3437j_01h25m	;
reserver	R	3438j_00h25m	B	3440j_00h25m	;
reserver	B	3440j_04h25m	O	3441j_23h25m	;
reserver	L	3443j_02h25m	E	3443j_21h25m	;
reserver	Q	3444j_17h25m	D	3445j_20h25m	;
reserver	J	3447j_19h25m	E	3448j_10h25m	;
reserver	D	3449j_14h25m	B	3451j_04h25m	;
reserver	B	3452j_05h25m	N	3453j_11h25m	;
reserver	A	3454j_18h25m	C	3456j_15h25m	;
reserver	B	3456j_15h25m	W	3457j_08h25m	;
reserver	M	3458j_13h25m	O	3459j_05h25m	;
reserver	E	3460j_01h25m	H	3460j_13h25m	;
reserver	T	3461j_19h25m	D	3463j_12h25m	;
reserver	D	3465j_06h25m	W	3466j_05h25m	;
reserver	S	3467j_03h25m	M	3468j_22h25m	;
reserver	V	3468j_23h25m	C	3469j_19h25m	;
reserver	S	3469j_21h25m	K	3470j_13h25m	;
reserver	P	3471j_07h25m	R	3473j_01h25m	;
reserver	S	3474j_17h25m	L	3476j_03h25m	;
reserver	J	3476j_08h25m	S	3477j_14h25m	;
reserver	N	3479j_11h25m	Y	3480j_04h25m	;
reserver	B	3480j_04h25m	P	3482j_02h25m	;
reserver	K	3483j_08h25m	G	3484j_23h25m	;
reserver	Y	3485j_22h25m	W	3487j_06h25m	;
reserver	X	3487j_20h25m	A	3488j_15h25m	;
reserver	M	3490j_06h25m	V	3491j_13h25m	;
reserver	K	3493j_01h25m	N	3493j_16h25m	;
reserver	P	3494j_18h26m	V	3496j_12h26m	;
reserver	X	3497j_20h26m	L	3499j_09h26m	;
reserver	Q	3499j_19h26m	L	3501j_12h26m	;
reserver	B	3502j_18h26m	F	3504j_07h26m	;
reserver	D	3505j_04h26m	Q	3505j_20h26m	;
reserver	O	3506j_02h26m	G	3507j_22h26m	;
reserver	S	3509j_07h26m	O	3510j_09h26m	;
reserver	E	3511j_02h26m	W	3511j_21h26m	;
reserver	C	3512j_00h26m	V	3513j_06h26m	;
reserver	R	3513j_08h26m	R	3514j_00h26m	;
reserver	H	3515j_18h26m	A	3516j_18h26m	;
reserver	Z	3516j_21h26m	U	3518j_20h26m	;
reserver	J	3519j_02h26m	V	3519j_14h26m	;
reserver	E	3520j_07h26m	Q	3521j_05h26m	;
reserver	N	3522j_20h26m	C	3524j_11h26m	;
reserver	R	3524j_22h26m	P	3526j_16h26m	;
reserver	A	3527j_19h26m	V	3528j_10h26m	;
reserver	N	3530j_03h26m	I	3531j_11h26m	;
reserver	N	3533j_06h26m	F	3533j_23h26m	;
reserver	U	3534j_06h26m	T	3535j_09h26m	;
reserver	A	3535j_15h26m	C	3536j_22h26m	;
reserver	F	3537j_07h26m	B	3538j_12h26m	;
reserver	B	3539j_11h26m	B	3540j_14h26m	;
reserver	U	3540j_22h26m	O	3542j_08h26m	;
reserver	H	3543j_09h26m	V	3544j_09h26m	;
reserver	N	3546j_08h26m	F	3547j_11h26m	;
reserver	I	3549j_07h26m	Z	3549j_19h26m	;
reserver	E	3551j_19h26m	Q	3553j_06h26m	;
reserver	O	3554j_05h26m	Z	3554j_19h26m	;
reserver	F	3555j_00h26m	C	3556j_15h26m	;
reserver	R	3557j_23h26m	W	3558j_20h26m	;
reserver	N	3559j_04h26m	O	3559j_23h26m	;
reserver	A	3560j_07h26m	Q	3562j_06h26m	;
reserver	C	3563j_23h26m	S	3565j_23h26m	;
reserver	Y	3567j_04h26m	E	3569j_03h26m	;
reserver	M	3570j_23h26m	N	3572j_17h26m	;
reserver	V	3574j_12h26m	C	3575j_02h26m	;
reserver	U	3576j_15h26m	L	3577j_11h26m	;
reserver	U	3578j_14h26m	R	3580j_07h26m	;
reserver	R	3582j_02h26m	T	3583j_02h26m	;
reserver	M	3583j_03h26m	L	3583j_20h26m	;
reserver	R	3584j_03h26m	U	3584j_21h26m	;
reserver	S	3585j_20h26m	Q	3586j_14h26m	;
reserver	E	3586j_20h26m	V	3588j_14h26m	;
reserver	H	3590j_13h26m	B	3591j_03h26m	;
reserver	E	3591j_18h26m	R	3592j_12h26m	;
reserver	O	3593j_01h26m	I	3593j_20h26m	;
reserver	K	3594j_03h26m	N	3595j_12h26m	;
reserver	P	3597j_05h26m	K	3598j_07h26m	;
reserver	A	3599j_15h26m	V	3600j_06h26m	;
reserver	R	3601j_14h26m	K	3602j_12h26m	;
reserver	N	3602j_22h26m	R	3603j_12h26m	;
reserver	E	3604j_08h26m	K	3605j_08h26m	;
reserver	R	3606j_13h26m	Z	3608j_06h26m	;
reserver	E	3609j_05h26m	K	3609j_23h26m	;
reserver	G	3611j_07h26m	J	3612j_03h26m	;
reserver	Z	3612j_03h26m	Y	3612j_22h26m	;
reserver	S	3613j_16h26m	M	3614j_07h26m	;
reserver	Y	3614j_19h26m	Z	3615j_15h26m	;
reserver	R	3617j_06h26m	N	3619j_03h26m	;
reserver	C	3619j_09h27m	D	3620j_21h27m	;
reserver	C	3622j_20h27m	M	3624j_01h27m	;
reserver	U	3624j_09h27m	Z	3625j_10h27m	;
reserver	E	3627j_06h27m	I	3628j_23h27m	;
reserver	E	3630j_18h27m	L	3632j_03h27m	;
reserver	K	3632j_09h27m	S	3634j_01h27m	;
reserver	F	3635j_08h27m	G	3636j_01h27m	;
reserver	U	3636j_16h27m	Z	3637j_23h27m	;
reserver	I	3639j_08h27m	W	3640j_02h27m	;
reserver	R	3641j_04h27m	I	3642j_22h27m	;
reserver	L	3644j_02h27m	Z	3645j_18h27m	;
reserver	A	3647j_16h27m	K	3648j_21h27m	;
reserver	C	3650j_15h27m	O	3651j_07h27m	;
reserver	D	3652j_20h27m	M	3654j_18h27m	;
reserver	Z	3655j_14h27m	M	3657j_04h27m	;
reserver	A	3658j_11h27m	Z	3660j_06h27m	;
reserver	D	3661j_19h27m	S	3662j_13h27m	;
reserver	B	3663j_20h27m	Y	3665j_14h27m	;
reserver	N	3666j_22h27m	K	3668j_00h27m	;
reserver	C	3669j_03h27m	J	3670j_02h27m	;
reserver	Q	3670j_11h27m	A	3672j_03h27m	;
reserver	V	3673j_17h27m	C	3675j_05h27m	;
reserver	Y	3676j_18h27m	N	3678j_13h27m	;
reserver	W	3679j_20h27m	D	3680j_22h27m	;
reserver	C	3681j_04h27m	U	3682j_05h27m	;
reserver	B	3682j_15h27m	G	3683j_18h27m	;
reserver	D	3684j_16h27m	N	3685j_05h27m	;
reserver	R	3685j_17h27m	D	3687j_06h27m	;
reserver	S	3687j_17h27m	O	3689j_04h27m	;
reserver	D	3690j_04h27m	R	3691j_06h27m	;
reserver	I	3692j_07h27m	Z	3692j_22h27m	;
reserver	F	3693j_22h27m	C	3695j_16h27m	;
reserver	W	3695j_17h27m	H	3697j_10h27m	;
reserver	Y	3697j_19h27m	V	3699j_14h27m	;
reserver	S	3701j_04h27m	G	3703j_02h27m	;
reserver	N	3704j_04h27m	U	3705j_22h27m	;
reserver	G	3707j_13h27m	W	3708j_09h27m	;
reserver	N	3709j_05h27m	B	3710j_01h27m	;
reserver	U	3710j_14h27m	Y	3712j_01h27m	;
reserver	M	3712j_23h27m	A	3714j_23h27m	;
reserver	Z	3715j_08h27m	Z	3716j_18h27m	;
reserver	X	3717j_15h27m	B	3718j_14h27m	;
reserver	F	3720j_08h27m	T	3721j_03h27m	;
reserver	Y	3721j_22h27m	L	3723j_03h27m	;
reserver	Q	3725j_03h27m	C	3726j_02h27m	;
reserver	V	3727j_02h27m	A	3727j_17h27m	;
reserver	D	3728j_02h27m	A	3729j_05h27m	;
reserver	C	3730j_10h27m	L	3731j_11h27m	;
reserver	Y	3732j_11h27m	P	3734j_07h27m	;
reserver	N	3736j_02h27m	K	3736j_14h27m	;
reserver	P	3738j_06h27m	C	3739j_19h27m	;
reserver	Y	3739j_19h27m	S	3741j_09h27m	;
reserver	E	3742j_14h27m	H	3743j_06h27m	;
reserver	F	3743j_15h27m	L	3744j_15h27m	;
reserver	A	3745j_04h27m	R	3746j_01h27m	;
reserver	Z	3747j_09h27m	F	3749j_05h27m	;
reserver	R	3750j_07h27m	A	3750j_22h27m	;
reserver	A	3752j_15h27m	F	3753j_18h27m	;
reserver	M	3754j_14h27m	T	3755j_16h27m	;
reserver	Z	3756j_16h27m	U	3757j_09h27m	;
reserver	C	3757j_22h28m	V	3758j_14h28m	;
reserver	D	3758j_21h28m	U	3760j_01h28m	;
reserver	H	3761j_05h28m	A	3762j_22h28m	;
reserver	R	3763j_10h28m	M	3763j_22h28m	;
reserver	T	3765j_01h28m	N	3766j_15h28m	;
reserver	C	3766j_21h28m	Y	3768j_08h28m	;
reserver	T	3769j_15h28m	S	3770j_03h28m	;
reserver	Q	3770j_08h28m	C	3771j_12h28m	;
reserver	P	3772j_00h28m	P	3773j_12h28m	;
reserver	M	3774j_23h28m	E	3776j_07h28m	;
reserver	H	3778j_02h28m	N	3779j_09h28m	;
reserver	B	3781j_04h28m	E	3781j_20h28m	;
reserver	W	3782j_13h28m	I	3783j_03h28m	;
reserver	N	3783j_09h28m	T	3784j_06h28m	;
reserver	A	3784j_20h28m	E	3786j_08h28m	;
reserver	M	3787j_12h28m	K	3789j_06h28m	;
reserver	S	3789j_22h28m	E	3791j_03h28m	;
reserver	J	3791j_12h28m	K	3793j_03h28m	;
reserver	D	3793j_11h28m	D	3795j_07h28m	;
reserver	S	3795j_14h28m	A	3797j_12h28m	;
reserver	C	3798j_12h28m	S	3799j_07h28m	;
reserver	C	3800j_11h28m	W	3802j_09h28m	;
reserver	N	3802j_16h28m	M	3803j_10h28m	;
reserver	M	3803j_11h28m	R	3804j_20h28m	;
reserver	T	3806j_12h28m	Z	3807j_10h28m	;
reserver	C	3808j_15h28m	Z	3810j_00h28m	;
reserver	H	3810j_03h28m	N	3811j_15h28m	;
reserver	K	3812j_04h28m	P	3813j_23h28m	;
reserver	T	3815j_11h28m	U	3816j_00h28m	;
reserver	M	3816j_07h28m	C	3816j_20h28m	;
reserver	M	3816j_20h28m	D	3818j_13h28m	;
reserver	T	3819j_22h28m	B	3821j_06h28m	;
reserver	L	3823j_02h28m	S	3823j_18h28m	;
reserver	E	3824j_18h28m	Y	3825j_16h28m	;
reserver	P	3826j_07h28m	V	3827j_18h28m	;
reserver	M	3828j_14h28m	F	3830j_10h28m	;
reserver	E	3832j_02h28m	T	3833j_03h28m	;
reserver	Z	3833j_18h28m	P	3834j_09h28m	;
reserver	G	3835j_08h28m	C	3836j_17h28m	;
reserver	X	3837j_14h28m	G	3838j_23h28m	;
reserver	T	3839j_01h28m	X	3840j_10h28m	;
reserver	S	3841j_17h28m	V	3842j_13h28m	;
reserver	C	3844j_04h28m	I	3845j_20h28m	;
reserver	V	3846j_22h28m	G	3848j_07h28m	;
reserver	R	3850j_03h28m	E	3850j_19h28m	;
reserver	Q	3851j_12h28m	X	3852j_19h28m	;
reserver	M	3853j_00h28m	D	3853j_13h28m	;
reserver	R	3853j_19h28m	R	3854j_09h28m	;
reserver	R	3855j_14h28m	R	3857j_08h28m	;
reserver	K	3859j_06h28m	J	3859j_22h28m	;
reserver	F	3861j_21h28m	R	3862j_21h28m	;
reserver	X	3864j_19h28m	W	3866j_16h28m	;
reserver	E	3867j_08h28m	V	3868j_11h28m	;
reserver	L	3869j_12h28m	I	3870j_14h28m	;
reserver	X	3872j_10h28m	S	3874j_08h28m	;
reserver	J	3875j_00h28m	J	3876j_02h28m	;
reserver	X	3877j_16h28m	A	3878j_15h28m	;
reserver	L	3878j_21h28m	C	3880j_07h28m	;
reserver	L	3881j_05h28m	D	3883j_05h28m	;
reserver	Z	3883j_14h28m	O	3885j_03h28m	;
reserver	H	3886j_04h29m	D	3887j_20h29m	;
reserver	K	3889j_10h29m	C	3891j_04h29m	;
reserver	J	3892j_18h29m	G	3893j_09h29m	;
reserver	J	3894j_09h29m	W	3896j_09h29m	;
reserver	Q	3898j_06h29m	G	3899j_00h29m	;
reserver	E	3899j_06h29m	U	3901j_06h29m	;
reserver	F	3901j_12h29m	G	3903j_11h29m	;
reserver	Q	3904j_12h29m	X	3906j_10h29m	;
reserver	Y	3907j_14h29m	E	3908j_07h29m	;
reserver	H	3908j_17h29m	E	3909j_05h29m	;
reserver	L	3909j_05h29m	P	3910j_15h29m	;
reserver	V	3911j_16h29m	W	3913j_06h29m	;
reserver	L	3915j_03h29m	U	3916j_06h29m	;
reserver	R	3917j_08h29m	I	3917j_21h29m	;
reserver	I	3919j_00h29m	Z	3919j_19h29m	;
reserver	D	3919j_20h29m	F	3921j_14h29m	;
reserver	I	3923j_05h29m	O	3924j_12h29m	;
reserver	B	3925j_13h29m	B	3926j_21h29m	;
reserver	B	3927j_00h29m	X	3928j_05h29m	;
reserver	S	3930j_03h29m	N	3931j_16h29m	;
reserver	X	3932j_10h29m	A	3933j_06h29m	;
reserver	R	3933j_11h29m	Z	3934j_00h29m	;
reserver	N	3934j_13h29m	H	3935j_11h29m	;
reserver	I	3937j_06h29m	K	3939j_04h29m	;
reserver	Q	3940j_03h29m	O	3941j_04h29m	;
reserver	X	3941j_20h29m	M	3943j_19h29m	;
reserver	D	3945j_07h29m	N	3946j_04h29m	;
reserver	I	3947j_19h29m	B	3949j_19h29m	;
reserver	B	3951j_14h29m	I	3952j_12h29m	;
reserver	T	3953j_13h29m	X	3955j_05h29m	;
reserver	H	3957j_03h29m	W	3958j_15h29m	;
reserver	J	3959j_15h29m	E	3960j_10h29m	;
reserver	V	3960j_18h29m	J	3962j_17h29m	;
reserver	S	3963j_18h29m	O	3964j_21h29m	;
reserver	R	3965j_20h29m	N	3967j_01h29m	;
reserver	Y	3968j_05h29m	N	3969j_17h29m	;
reserver	B	3971j_05h29m	G	3972j_17h29m	;
reserver	H	3973j_07h29m	W	3973j_20h29m	;
reserver	Y	3974j_21h29m	E	3976j_15h29m	;
reserver	R	3977j_06h29m	V	3978j_16h29m	;
reserver	R	3978j_22h29m	Q	3979j_11h29m	;
reserver	T	3979j_21h29m	Q	3981j_14h29m	;
reserver	S	3982j_06h29m	U	3983j_14h29m	;
reserver	H	3984j_22h29m	T	3985j_11h29m	;
reserver	Y	3987j_11h29m	N	3989j_05h29m	;
reserver	L	3990j_20h29m	Z	3991j_13h29m	;
reserver	O	3992j_12h29m	R	3994j_04h29m	;
reserver	G	3996j_02h29m	W	3997j_11h29m	;
reserver	H	3998j_09h29m	C	3999j_11h29m	;
reserver	N	4000j_16h29m	X	4001j_20h29m	;
reserver	B	4003j_17h29m	Y	4005j_10h29m	;
reserver	Y	4006j_08h29m	L	4007j_09h29m	;
reserver	T	4008j_02h29m	X	4009j_03h29m	;
reserver	C	4009j_11h29m	C	4011j_02h29m	;
reserver	L	4012j_12h29m	W	4013j_03h29m	;
reserver	H	4015j_03h29m	R	4016j_19h29m	;
reserver	W	4016j_20h29m	Z	4017j_08h29m	;
reserver	A	4017j_16h29m	H	4018j_07h29m	;
reserver	R	4018j_09h29m	V	4018j_23h29m	;
reserver	X	4020j_02h29m	D	4020j_17h29m	;
reserver	N	4020j_23h30m	T	4021j_23h30m	;
reserver	X	4022j_12h30m	D	4023j_01h30m	;
reserver	T	4023j_22h30m	Q	4025j_18h30m	;
reserver	X	4025j_22h30m	O	4026j_10h30m	;
reserver	I	4028j_09h30m	T	4029j_21h30m	;
reserver	D	4030j_08h30m	E	4030j_23h30m	;
reserver	I	4032j_01h30m	L	4033j_15h30m	;
reserver	G	4034j_17h30m	E	4035j_05h30m	;
reserver	P	4036j_10h30m	U	4037j_23h30m	;
reserver	P	4038j_04h30m	S	4039j_03h30m	;
reserver	G	4039j_10h30m	M	4040j_08h30m	;
reserver	J	4040j_23h30m	A	4042j_03h30m	;
reserver	G	4043j_04h30m	F	4044j_00h30m	;
reserver	R	4045j_11h30m	P	4047j_01h30m	;
reserver	N	4048j_08h30m	Y	4050j_07h30m	;
reserver	F	4050j_15h30m	M	4052j_04h30m	;
reserver	I	4053j_01h30m	U	4054j_09h30m	;
reserver	P	4054j_17h30m	R	4056j_12h30m	;
reserver	V	4057j_04h30m	X	4058j_12h30m	;
reserver	N	4060j_01h30m	N	4061j_19h30m	;
reserver	G	4063j_03h30m	X	4064j_02h30m	;
reserver	P	4065j_19h30m	O	4067j_11h30m	;
reserver	W	4067j_18h30m	C	4069j_17h30m	;
reserver	Z	4070j_06h30m	M	4071j_12h30m	;
reserver	I	4071j_14h30m	O	4073j_03h30m	;
reserver	T	4073j_09h30m	D	4074j_08h30m	;
reserver	B	4075j_08h30m	K	4077j_06h30m	;
reserver	Q	4078j_08h30m	R	4079j_21h30m	;
reserver	F	4080j_17h30m	P	4081j_09h30m	;
reserver	A	4081j_11h30m	R	4082j_14h30m	;
reserver	J	4083j_18h30m	J	4085j_11h30m	;
reserver	W	4086j_05h30m	N	4087j_22h30m	;
reserver	Z	4088j_09h30m	K	4090j_04h30m	;
reserver	O	4090j_09h30m	O	4091j_01h30m	;
reserver	R	4091j_18h30m	X	4093j_17h30m	;
reserver	I	4094j_03h30m	S	4094j_22h30m	;
reserver	P	4095j_08h30m	B	4097j_03h30m	;
reserver	H	4097j_09h30m	X	4098j_05h30m	;
reserver	D	4098j_19h30m	Z	4100j_18h30m	;
reserver	Q	4102j_00h30m	V	4103j_03h30m	;
reserver	I	4103j_21h30m	U	4104j_16h30m	;
reserver	H	4106j_15h30m	C	4107j_12h30m	;
reserver	D	4109j_09h30m	O	4110j_16h30m	;
reserver	G	4111j_15h30m	K	4112j_20h30m	;
reserver	A	4114j_12h30m	G	4116j_07h30m	;
reserver	B	4118j_03h30m	S	4119j_22h30m	;
reserver	N	4121j_14h30m	V	4122j_20h30m	;
reserver	F	4124j_08h30m	D	4125j_12h30m	;
reserver	I	4126j_04h30m	Q	4127j_21h30m	;
reserver	W	4129j_19h30m	G	4130j_20h30m	;
reserver	Y	4132j_17h30m	B	4134j_06h30m	;
reserver	M	4135j_03h30m	J	4135j_19h30m	;
reserver	Z	4137j_18h30m	U	4138j_12h30m	;
reserver	O	4139j_00h30m	O	4140j_11h30m	;
reserver	X	4141j_03h30m	J	4141j_15h30m	;
reserver	P	4143j_06h30m	S	4144j_18h30m	;
reserver	T	4145j_17h30m	T	4147j_03h30m	;
reserver	Y	4148j_01h30m	A	4148j_21h30m	;
reserver	E	4150j_02h30m	G	4151j_02h30m	;
reserver	E	4152j_00h30m	Q	4152j_15h30m	;
reserver	X	4154j_09h31m	J	4155j_20h31m	;
reserver	T	4156j_10h31m	Y	4158j_01h31m	;
reserver	U	4159j_09h31m	W	4161j_07h31m	;
reserver	D	4163j_04h31m	B	4164j_06h31m	;
reserver	N	4165j_05h31m	G	4166j_23h31m	;
reserver	Z	4167j_00h31m	Z	4168j_23h31m	;
reserver	R	4169j_02h31m	K	4169j_19h31m	;
reserver	F	4171j_19h31m	G	4173j_10h31m	;
reserver	R	4174j_18h31m	W	4176j_11h31m	;
reserver	Y	4177j_18h31m	P	4179j_06h31m	;
reserver	S	4180j_19h31m	A	4182j_18h31m	;
reserver	M	4184j_05h31m	D	4184j_19h31m	;
reserver	T	4184j_21h31m	Z	4185j_20h31m	;
reserver	Y	4187j_12h31m	D	4189j_08h31m	;
reserver	P	4191j_01h31m	U	4192j_09h31m	;
reserver	W	4193j_15h31m	A	4195j_12h31m	;
reserver	T	4195j_22h31m	L	4196j_12h31m	;
reserver	Q	4197j_06h31m	Z	4198j_17h31m	;
reserver	R	4200j_04h31m	F	4202j_01h31m	;
reserver	X	4203j_03h31m	W	4204j_03h31m	;
reserver	P	4205j_08h31m	X	4206j_18h31m	;
reserver	R	4207j_16h31m	G	4208j_12h31m	;
reserver	M	4209j_18h31m	U	4211j_18h31m	;
reserver	S	4213j_01h31m	B	4214j_13h31m	;
reserver	I	4215j_22h31m	W	4216j_23h31m	;
reserver	K	4218j_16h31m	O	4220j_15h31m	;
reserver	E	4221j_02h31m	C	4222j_06h31m	;
reserver	H	4223j_05h31m	S	4225j_04h31m	;
reserver	U	4225j_15h31m	Y	4226j_03h31m	;
reserver	Z	4227j_00h31m	J	4227j_14h31m	;
reserver	W	4229j_01h31m	H	4230j_17h31m	;
reserver	P	4231j_01h31m	R	4231j_15h31m	;
reserver	L	4233j_02h31m	A	4234j_17h31m	;
reserver	E	4234j_22h31m	F	4236j_16h31m	;
reserver	Y	4238j_09h31m	Q	4239j_12h31m	;
reserver	R	4240j_19h31m	H	4242j_12h31m	;
reserver	V	4243j_19h31m	T	4245j_18h31m	;
reserver	E	4247j_14h31m	J	4248j_12h31m	;
reserver	S	4248j_20h31m	B	4250j_07h31m	;
reserver	V	4251j_02h31m	I	4251j_16h31m	;
reserver	M	4253j_13h31m	D	4254j_04h31m	;
reserver	T	4254j_13h31m	T	4256j_03h31m	;
reserver	V	4256j_18h31m	T	4257j_07h31m	;
reserver	X	4257j_14h31m	I	4258j_15h31m	;
reserver	F	4259j_21h31m	X	4260j_16h31m	;
reserver	A	4260j_17h31m	G	4262j_14h31m	;
reserver	B	4262j_18h31m	U	4263j_13h31m	;
reserver	W	4264j_14h31m	P	4265j_23h31m	;
reserver	Q	4266j_14h31m	C	4267j_16h31m	;
reserver	Y	4267j_18h31m	U	4268j_06h31m	;
reserver	F	4268j_19h31m	U	4269j_15h31m	;
reserver	U	4271j_00h31m	V	4271j_14h31m	;
reserver	X	4272j_00h31m	N	4274j_00h31m	;
reserver	M	4275j_12h31m	X	4276j_23h31m	;
reserver	Y	4277j_02h31m	O	4277j_17h31m	;
reserver	N	4279j_16h31m	D	4280j_11h31m	;
reserver	K	4281j_14h31m	P	4282j_19h31m	;
reserver	K	4283j_18h31m	P	4284j_21h31m	;
reserver	E	4285j_23h31m	C	4286j_18h31m	;
reserver	E	4287j_15h31m	B	4289j_13h31m	;
reserver	M	4291j_11h32m	Y	4293j_09h32m	;
reserver	W	4294j_04h32m	G	4296j_00h32m	;
reserver	L	4296j_10h32m	Y	4298j_08h32m	;
reserver	O	4298j_14h32m	H	4300j_01h32m	;
reserver	O	4301j_12h32m	C	4302j_03h32m	;
reserver	G	4303j_19h32m	C	4304j_10h32m	;
reserver	K	4305j_22h32m	F	4306j_12h32m	;
reserver	V	4306j_16h32m	N	4308j_05h32m	;
reserver	A	4310j_01h32m	H	4311j_15h32m	;
reserver	V	4313j_13h32m	V	4314j_05h32m	;
reserver	B	4315j_15h32m	T	4317j_08h32m	;
reserver	V	4318j_16h32m	V	4320j_12h32m	;
reserver	D	4320j_19h32m	P	4321j_23h32m	;
reserver	M	4323j_05h32m	L	4325j_03h32m	;
reserver	Y	4325j_03h32m	V	4325j_23h32m	;
reserver	D	4326j_00h32m	T	4327j_04h32m	;
reserver	J	4327j_17h32m	P	4329j_14h32m	;
reserver	Q	4330j_00h32m	G	4331j_14h32m	;
reserver	I	4332j_16h32m	U	4333j_09h32m	;
reserver	R	4333j_12h32m	J	4334j_20h32m	;
reserver	Y	4335j_10h32m	C	4337j_06h32m	;
reserver	Z	4338j_04h32m	T	4339j_01h32m	;
reserver	G	4340j_06h32m	T	4341j_00h32m	;
reserver	J	4342j_20h32m	C	4343j_11h32m	;
reserver	J	4344j_06h32m	Z	4345j_20h32m	;
reserver	B	4347j_05h32m	V	4349j_05h32m	;
reserver	W	4350j_19h32m	I	4351j_14h32m	;
reserver	W	4351j_14h32m	Q	4352j_08h32m	;
reserver	Q	4353j_21h32m	U	4355j_15h32m	;
reserver	P	4355j_19h32m	U	4357j_02h32m	;
reserver	T	4357j_20h32m	P	4358j_13h32m	;
reserver	C	4360j_13h32m	S	4362j_05h32m	;
reserver	S	4363j_00h32m	S	4364j_06h32m	;
reserver	V	4365j_04h32m	T	4366j_09h32m	;
reserver	P	4368j_05h32m	F	4369j_20h32m	;
reserver	B	4371j_01h32m	T	4372j_02h32m	;
reserver	Y	4373j_17h32m	X	4374j_11h32m	;
reserver	A	4375j_17h32m	W	4376j_05h32m	;
reserver	T	4377j_03h32m	W	4378j_05h32m	;
reserver	P	4379j_11h32m	P	4380j_10h32m	;
reserver	N	4382j_07h32m	U	4384j_02h32m	;
reserver	N	4385j_05h32m	G	4386j_06h32m	;
reserver	N	4386j_15h32m	E	4387j_14h32m	;
reserver	R	4387j_23h32m	P	4389j_06h32m	;
reserver	X	4390j_12h32m	R	4392j_03h32m	;
reserver	V	4393j_12h32m	F	4394j_03h32m	;
reserver	H	4395j_12h32m	O	4396j_18h32m	;
reserver	L	4396j_19h32m	U	4398j_13h32m	;
reserver	V	4398j_23h32m	Z	4400j_19h32m	;
reserver	D	4402j_06h32m	I	4402j_23h32m	;
reserver	E	4404j_04h32m	X	4404j_18h32m	;
reserver	H	4406j_03h32m	Z	4406j_18h32m	;
reserver	A	4408j_15h32m	Q	4409j_03h32m	;
reserver	Q	4410j_09h32m	B	4411j_14h32m	;
reserver	L	4411j_19h32m	B	4413j_16h32m	;
reserver	T	4414j_10h32m	Y	4415j_20h32m	;
reserver	U	4417j_16h32m	Y	4419j_15h32m	;
reserver	G	4420j_08h32m	C	4421j_20h32m	;
reserver	C	4421j_22h32m	J	4422j_15h32m	;
reserver	P	4423j_10h32m	T	4425j_02h32m	;
reserver	U	4426j_16h33m	G	4428j_12h33m	;
reserver	K	4429j_07h33m	Y	4430j_09h33m	;
reserver	H	4432j_05h33m	G	4432j_17h33m	;
reserver	Q	4432j_21h33m	I	4434j_18h33m	;
reserver	L	4435j_14h33m	A	4436j_13h33m	;
reserver	A	4438j_02h33m	B	4439j_12h33m	;
reserver	C	4440j_09h33m	F	4440j_23h33m	;
reserver	B	4441j_12h33m	R	4443j_01h33m	;
reserver	H	4444j_13h33m	L	4445j_08h33m	;
reserver	I	4447j_03h33m	Y	4448j_13h33m	;
reserver	R	4448j_15h33m	W	4449j_04h33m	;
reserver	W	4451j_00h33m	V	4452j_10h33m	;
reserver	X	4453j_14h33m	U	4454j_21h33m	;
reserver	B	4455j_19h33m	F	4456j_14h33m	;
reserver	G	4456j_19h33m	F	4458j_15h33m	;
reserver	E	4460j_15h33m	T	4461j_21h33m	;
reserver	Y	4461j_21h33m	Y	4462j_21h33m	;
reserver	V	4464j_06h33m	R	4464j_20h33m	;
reserver	U	4465j_10h33m	G	4466j_22h33m	;
reserver	F	4467j_04h33m	V	4467j_19h33m	;
