1 : Creee
2 : Creee
3 : Creee
4 : Creee
5 : Creee
6 : NonDispo
7 : NonDispo
8 : Acceptee
9 : NonDispo
10 : NonDispo
11 : Acceptee
12 : Acceptee
13 : Acceptee
14 : Acceptee
15 : Acceptee
16 : NonDispo
17 : Acceptee
