creer	UQAM	(45.509415,-73.568122)	1	1	;
creer	ULaval	(46.779344,-71.276443)	0	0	;
creer	USherbrooke	(45.380947,-71.923853)	0	0 ;
creer	UQTR	(46.347809,-72.578216)	0	0	;
creer	UQAC	(48.420928,-71.053798)	0	0	;

suggerer (45.50,-73.56) 1j_00h00m (45.50,-73.56) 2j_00h00m ;
suggerer (46.34,-73.56) 1j_00h00m (45.38,-71.92) 2j_00h00m ;

