1 : Creee
2 : Creee
3 : Creee
4 : Creee
5 : Creee
6 : Acceptee
7 : Acceptee
8 : Acceptee
9 : NonDispo
10 : NonDispo
11 : Acceptee
12 : Acceptee
13 : Acceptee
14 : Acceptee
15 : Acceptee
16 : NonDispo
17 : Acceptee
18 : Acceptee
19 : Acceptee
20 : Acceptee
21 : NonDispo
22 : NonDispo
23 : NonDispo
24 : Acceptee
25 : Acceptee
26 : NonDispo
27 : Acceptee
28 : NonDispo
29 : NonDispo
30 : Acceptee
31 : Acceptee
32 : Acceptee
33 : Acceptee
34 : NonDispo
35 : NonDispo
36 : NonDispo
37 : Acceptee
38 : Acceptee
39 : NonDispo
40 : Acceptee
41 : NonDispo
42 : NonDispo
43 : Acceptee
44 : Acceptee
