creer	UQAM	(45.509415,-73.568122)	2	0	;
creer	ULaval	(46.779344,-71.276443)	1	1	;
creer	USherbrooke	(45.380947,-71.923853)	1	1 ;
creer	UQTR	(46.347809,-72.578216)	0	2	;
creer	UQAC	(48.420928,-71.053798)	0	0	;

reserver	UQAM	0j_06h00m	UQAM	0j_18h00m	;
reserver	UQAM	0j_04h00m	UQAM	0j_05h00m	;
reserver	UQAM	0j_03h00m	UQAM	0j_19h00m	;
reserver	UQAM	0j_02h00m	UQAM	0j_20h00m	;
reserver	UQAM	0j_17h59m	UQAM	0j_21h00m	;
reserver	UQAM	0j_18h00m	UQAM	0j_21h00m	;
reserver	UQAM	0j_21h00m	UQAM	0j_23h00m	;
reserver	UQAM	0j_22h00m	UQAM	0j_23h10m	;
reserver	UQAM	0j_23h00m	UQAM	0j_23h20m	;
reserver	UQAM	0j_23h10m	UQAM	0j_23h30m	;
reserver	UQAM	0j_05h00m	UQAM	0j_17h00m	;
reserver	UQAM	1j_00h00m	UQAM	2j_00h00m	;
reserver	UQAM	2j_00h00m	UQAM	3j_00h00m	;

reserver	USherbrooke	0j_06h00m	USherbrooke	0j_18h00m	;
reserver	USherbrooke	0j_04h00m	USherbrooke	0j_05h00m	;
reserver	USherbrooke	0j_03h00m	USherbrooke	0j_19h00m	;
reserver	USherbrooke	0j_02h00m	USherbrooke	0j_20h00m	;
reserver	USherbrooke	0j_17h59m	USherbrooke	0j_21h00m	;
reserver	USherbrooke	0j_18h00m	USherbrooke	0j_21h00m	;
reserver	USherbrooke	0j_21h00m	USherbrooke	0j_23h00m	;
reserver	USherbrooke	0j_22h00m	USherbrooke	0j_23h10m	;
reserver	USherbrooke	0j_23h00m	USherbrooke	0j_23h20m	;
reserver	USherbrooke	0j_23h10m	USherbrooke	0j_23h30m	;
reserver	USherbrooke	0j_05h00m	USherbrooke	0j_17h00m	;
reserver	USherbrooke	1j_00h00m	USherbrooke	2j_00h00m	;
reserver	USherbrooke	2j_00h00m	USherbrooke	3j_00h00m	;

reserver	ULaval	0j_06h00m	ULaval	0j_18h00m	;
reserver	ULaval	0j_04h00m	ULaval	0j_05h00m	;
reserver	ULaval	0j_03h00m	ULaval	0j_19h00m	;
reserver	ULaval	0j_02h00m	ULaval	0j_20h00m	;
reserver	ULaval	0j_17h59m	ULaval	0j_21h00m	;
reserver	ULaval	0j_18h00m	ULaval	0j_21h00m	;
reserver	ULaval	0j_21h00m	ULaval	0j_23h00m	;
reserver	ULaval	0j_22h00m	ULaval	0j_23h10m	;
reserver	ULaval	0j_23h00m	ULaval	0j_23h20m	;
reserver	ULaval	0j_23h10m	ULaval	0j_23h30m	;
reserver	ULaval	0j_05h00m	ULaval	0j_17h00m	;
reserver	ULaval	1j_00h00m	ULaval	2j_00h00m	;
reserver	ULaval	2j_00h00m	ULaval	3j_00h00m	;
