1 : Creee
2 : Creee
3 : Creee
4 : Creee
5 : Creee
6 : Creee
7 : Creee
8 : Creee
9 : Creee
10 : Creee
11 : Creee
12 : Creee
13 : Creee
14 : Creee
15 : Creee
16 : Creee
17 : Creee
18 : Creee
19 : Creee
20 : Creee
21 : Creee
22 : Creee
23 : Creee
24 : Creee
25 : Creee
26 : Creee
27 : Acceptee
28 : Acceptee
29 : Acceptee
30 : Acceptee
31 : Acceptee
32 : Acceptee
33 : Acceptee
34 : NonDispo
35 : Acceptee
36 : Acceptee
37 : Acceptee
38 : Acceptee
39 : Acceptee
40 : Acceptee
41 : Acceptee
42 : Acceptee
43 : Acceptee
44 : Acceptee
45 : Acceptee
46 : Acceptee
47 : Acceptee
48 : Acceptee
49 : Acceptee
50 : Acceptee
51 : Acceptee
52 : Acceptee
53 : Acceptee
54 : Acceptee
55 : Acceptee
56 : Acceptee
57 : Acceptee
58 : Acceptee
59 : Acceptee
60 : Acceptee
61 : Acceptee
62 : Acceptee
63 : Acceptee
64 : Acceptee
65 : Acceptee
66 : Acceptee
67 : Acceptee
68 : Acceptee
69 : Acceptee
70 : Acceptee
71 : Acceptee
72 : Acceptee
73 : Acceptee
74 : Acceptee
75 : NonDispo
76 : Acceptee
77 : Acceptee
78 : Acceptee
79 : Acceptee
80 : Acceptee
81 : Acceptee
82 : Acceptee
83 : Acceptee
84 : Acceptee
85 : Acceptee
86 : Acceptee
87 : Acceptee
88 : Acceptee
89 : Acceptee
90 : Acceptee
91 : Acceptee
92 : Acceptee
93 : Acceptee
94 : Acceptee
95 : Acceptee
96 : Acceptee
97 : Acceptee
98 : Acceptee
99 : Acceptee
100 : Acceptee
101 : Acceptee
102 : Acceptee
103 : Acceptee
104 : Acceptee
105 : Acceptee
106 : Acceptee
107 : Acceptee
108 : Acceptee
109 : Acceptee
110 : Acceptee
111 : Acceptee
112 : Acceptee
113 : Acceptee
114 : Acceptee
115 : Acceptee
116 : Acceptee
117 : Acceptee
118 : NonDispo
119 : Acceptee
120 : Acceptee
121 : Acceptee
122 : Acceptee
123 : Acceptee
124 : Acceptee
125 : Acceptee
126 : Acceptee
