creer	A	(45.509415,-73.568122)	5	9	;
creer	B	(46.779344,-71.276443)	5	5	;
creer	C	(45.380947,-71.923853)	2	7	;
creer	D	(46.347809,-72.578216)	7	2	;
creer	E	(48.420928,-71.053798)	1	2	;
creer	F	(45.421874,-75.738523)	2	6	;
creer	G	(45.880628,-72.526932)	4	5	;
creer	H	(45.617069,-72.97368)	4	4	;
creer	I	(45.399768,-72.730458)	6	7	;
creer	J	(45.296928,-73.26853)	5	6	;
creer	K	(46.107413,-71.279233)	5	4	;
creer	L	(47.82739,-69.539208)	0	7	;
creer	M	(48.4533,-68.512727)	7	4	;
creer	N	(48.833142,-64.483738)	8	5	;
creer	O	(47.622082,-70.144529)	7	2	;
creer	P	(45.589567,-70.903755)	4	3	;
creer	Q	(45.134041,-71.807113)	3	4	;
creer	R	(45.107681,-72.615584)	8	10	;
creer	S	(45.516903,-73.429785)	4	4	;
creer	T	(45.744527,-73.589001)	7	9	;
creer	U	(45.543028,-73.913655)	6	7	;
creer	V	(46.550199,-75.488241)	5	3	;
creer	W	(48.230805,-79.009509)	7	3	;
creer	X	(48.573143,-78.124123)	8	2	;
creer	Y	(48.466747,-67.426915)	3	6	;
creer	Z	(49.211654,-68.174887)	3	6	;
reserver	O	1j_02h00m	R	2j_14h00m	;
reserver	A	3j_03h00m	Q	4j_22h00m	;
reserver	B	5j_15h00m	X	6j_10h00m	;
reserver	R	6j_11h00m	H	7j_13h00m	;
reserver	E	9j_03h00m	X	10j_01h00m	;
reserver	K	10j_09h00m	S	11j_20h00m	;
reserver	E	13j_16h00m	D	14j_07h00m	;
reserver	R	15j_19h00m	R	17j_00h00m	;
reserver	F	17j_11h00m	Q	19j_02h00m	;
reserver	R	19j_04h00m	D	21j_00h00m	;
reserver	H	22j_17h00m	A	23j_14h00m	;
reserver	N	23j_22h00m	T	24j_12h00m	;
reserver	A	26j_01h00m	U	27j_11h00m	;
reserver	G	29j_01h00m	P	29j_15h00m	;
reserver	M	30j_09h00m	T	32j_05h00m	;
reserver	M	34j_00h00m	I	35j_14h00m	;
reserver	C	37j_12h00m	U	39j_06h00m	;
reserver	G	39j_09h00m	S	40j_18h00m	;
reserver	B	40j_21h00m	P	42j_21h00m	;
reserver	C	44j_19h00m	I	46j_08h00m	;
reserver	H	46j_23h00m	P	47j_18h00m	;
reserver	R	48j_00h00m	Y	49j_21h00m	;
reserver	M	51j_21h00m	G	53j_09h00m	;
reserver	W	54j_05h00m	R	55j_20h00m	;
reserver	D	56j_03h00m	C	56j_18h00m	;
reserver	R	57j_02h00m	X	59j_01h00m	;
reserver	G	59j_23h00m	E	61j_11h00m	;
reserver	O	62j_11h00m	L	63j_15h00m	;
reserver	F	65j_13h00m	M	67j_04h00m	;
reserver	E	67j_15h00m	P	69j_05h00m	;
reserver	N	70j_07h00m	T	71j_09h00m	;
reserver	U	71j_15h00m	H	73j_08h00m	;
reserver	B	73j_19h00m	T	75j_06h00m	;
reserver	E	76j_04h00m	H	77j_12h00m	;
reserver	J	77j_20h00m	Y	79j_10h00m	;
reserver	H	80j_02h00m	Z	81j_07h00m	;
reserver	U	81j_07h00m	F	82j_14h00m	;
reserver	A	83j_18h00m	K	84j_21h00m	;
reserver	D	86j_13h00m	W	88j_09h00m	;
reserver	I	89j_20h00m	V	91j_15h00m	;
reserver	T	93j_00h00m	L	93j_18h00m	;
reserver	M	95j_04h00m	T	97j_01h00m	;
reserver	L	98j_00h00m	G	98j_17h00m	;
reserver	V	98j_18h00m	M	99j_19h00m	;
reserver	B	100j_03h00m	F	101j_21h00m	;
reserver	R	102j_06h00m	Y	103j_17h00m	;
reserver	D	104j_07h00m	Q	105j_17h00m	;
reserver	Z	107j_05h00m	P	107j_19h00m	;
reserver	U	109j_08h00m	V	111j_02h00m	;
reserver	E	112j_06h00m	D	112j_22h00m	;
reserver	M	114j_04h00m	A	115j_22h00m	;
reserver	P	117j_03h00m	P	118j_06h00m	;
reserver	P	118j_15h00m	W	120j_14h00m	;
reserver	T	121j_21h00m	I	123j_13h00m	;
reserver	P	124j_09h00m	P	125j_07h00m	;
reserver	I	126j_21h00m	V	127j_14h00m	;
reserver	R	128j_03h00m	Z	128j_22h00m	;
reserver	Z	130j_05h00m	O	130j_21h00m	;
reserver	X	132j_10h00m	H	134j_06h00m	;
reserver	L	135j_23h00m	B	136j_16h00m	;
reserver	P	138j_02h01m	L	140j_01h01m	;
reserver	T	141j_02h01m	H	142j_05h01m	;
reserver	U	143j_00h01m	A	144j_13h01m	;
reserver	Y	144j_19h01m	J	145j_12h01m	;
reserver	N	147j_02h01m	H	148j_14h01m	;
reserver	V	150j_09h01m	C	151j_11h01m	;
reserver	D	151j_18h01m	W	152j_19h01m	;
reserver	L	153j_19h01m	F	154j_17h01m	;
reserver	H	155j_20h01m	B	157j_04h01m	;
reserver	Y	157j_14h01m	M	158j_15h01m	;
reserver	A	159j_01h01m	E	159j_21h01m	;
reserver	Q	161j_03h01m	R	163j_01h01m	;
reserver	C	164j_16h01m	J	166j_11h01m	;
reserver	N	168j_05h01m	E	169j_20h01m	;
reserver	A	170j_06h01m	T	171j_01h01m	;
reserver	S	172j_01h01m	O	173j_04h01m	;
reserver	G	173j_22h01m	B	175j_15h01m	;
reserver	B	176j_19h01m	I	177j_22h01m	;
reserver	O	179j_13h01m	Z	180j_05h01m	;
reserver	K	181j_14h01m	L	182j_05h01m	;
reserver	K	184j_05h01m	Z	185j_04h01m	;
reserver	Z	187j_04h01m	Q	188j_15h01m	;
reserver	R	190j_06h01m	T	191j_15h01m	;
reserver	X	191j_20h01m	J	193j_17h01m	;
reserver	S	194j_13h01m	S	196j_09h01m	;
reserver	S	197j_10h01m	J	199j_06h01m	;
reserver	F	199j_16h01m	F	200j_10h01m	;
reserver	P	201j_03h01m	F	201j_16h01m	;
reserver	K	202j_22h01m	J	204j_10h01m	;
reserver	M	206j_05h01m	Z	206j_23h01m	;
reserver	S	207j_20h01m	X	208j_09h01m	;
reserver	X	210j_07h01m	T	211j_18h01m	;
reserver	O	212j_17h01m	A	214j_04h01m	;
reserver	C	214j_10h01m	M	216j_03h01m	;
reserver	H	217j_08h01m	N	219j_06h01m	;
reserver	T	220j_04h01m	G	221j_20h01m	;
reserver	W	223j_15h01m	Z	224j_18h01m	;
reserver	L	225j_12h01m	C	226j_03h01m	;
reserver	M	227j_09h01m	H	228j_17h01m	;
reserver	L	230j_05h01m	J	230j_18h01m	;
reserver	T	232j_15h01m	I	233j_13h01m	;
reserver	U	235j_13h01m	P	236j_13h01m	;
reserver	X	237j_04h01m	Z	239j_00h01m	;
reserver	N	240j_09h01m	C	242j_03h01m	;
reserver	N	244j_03h01m	W	245j_22h01m	;
reserver	C	247j_08h01m	D	248j_09h01m	;
reserver	O	249j_05h01m	D	250j_08h01m	;
reserver	F	251j_01h01m	K	252j_22h01m	;
reserver	K	253j_21h01m	W	255j_17h01m	;
reserver	G	256j_11h01m	Y	258j_05h01m	;
reserver	O	259j_00h01m	N	260j_08h01m	;
reserver	I	261j_09h01m	G	263j_03h01m	;
reserver	G	264j_14h01m	K	266j_08h01m	;
reserver	T	267j_05h01m	C	268j_02h01m	;
reserver	E	268j_19h01m	L	269j_20h01m	;
reserver	A	271j_06h01m	C	271j_22h01m	;
reserver	B	272j_22h01m	C	273j_12h01m	;
reserver	Z	273j_18h01m	J	275j_13h01m	;
reserver	Q	276j_08h01m	I	277j_06h01m	;
reserver	G	277j_19h01m	M	278j_20h01m	;
reserver	V	278j_23h02m	I	280j_23h02m	;
reserver	K	282j_21h02m	Q	283j_22h02m	;
reserver	G	284j_21h02m	J	286j_04h02m	;
reserver	R	287j_06h02m	I	288j_10h02m	;
reserver	N	289j_13h02m	H	290j_23h02m	;
reserver	G	292j_21h02m	J	293j_22h02m	;
reserver	J	295j_11h02m	I	296j_17h02m	;
reserver	I	298j_14h02m	B	299j_22h02m	;
reserver	I	300j_09h02m	Y	302j_06h02m	;
reserver	Y	303j_18h02m	L	305j_10h02m	;
reserver	V	306j_19h02m	B	308j_19h02m	;
reserver	A	308j_19h02m	J	310j_17h02m	;
reserver	Z	311j_18h02m	H	313j_13h02m	;
reserver	N	313j_18h02m	H	314j_17h02m	;
reserver	I	314j_22h02m	C	315j_14h02m	;
reserver	S	317j_09h02m	U	318j_00h02m	;
reserver	A	319j_07h02m	H	320j_06h02m	;
reserver	C	322j_00h02m	A	323j_13h02m	;
reserver	M	323j_19h02m	K	324j_08h02m	;
reserver	L	325j_01h02m	G	325j_20h02m	;
reserver	Q	327j_12h02m	W	329j_01h02m	;
reserver	R	329j_16h02m	J	331j_12h02m	;
reserver	P	333j_07h02m	M	335j_06h02m	;
reserver	F	336j_08h02m	J	337j_10h02m	;
reserver	Q	339j_01h02m	W	339j_19h02m	;
reserver	N	340j_00h02m	N	341j_04h02m	;
reserver	W	342j_20h02m	T	343j_22h02m	;
reserver	Y	345j_10h02m	Z	346j_10h02m	;
reserver	L	347j_08h02m	G	348j_06h02m	;
reserver	Q	348j_14h02m	O	349j_02h02m	;
reserver	T	349j_14h02m	O	350j_13h02m	;
reserver	G	351j_05h02m	F	352j_04h02m	;
reserver	U	353j_00h02m	K	354j_17h02m	;
reserver	M	356j_17h02m	R	357j_19h02m	;
reserver	L	358j_20h02m	W	360j_03h02m	;
reserver	X	360j_18h02m	U	361j_20h02m	;
reserver	N	361j_23h02m	A	362j_23h02m	;
reserver	A	363j_04h02m	D	364j_03h02m	;
reserver	N	364j_17h02m	G	366j_10h02m	;
reserver	Z	367j_12h02m	B	369j_05h02m	;
reserver	T	371j_05h02m	N	373j_00h02m	;
reserver	H	374j_17h02m	N	376j_04h02m	;
reserver	A	376j_15h02m	X	378j_00h02m	;
reserver	V	378j_23h02m	X	380j_02h02m	;
reserver	D	381j_04h02m	I	382j_03h02m	;
reserver	Y	383j_17h02m	P	384j_08h02m	;
reserver	C	386j_02h02m	O	387j_21h02m	;
reserver	R	389j_05h02m	B	390j_18h02m	;
reserver	U	392j_10h02m	I	393j_03h02m	;
reserver	A	394j_09h02m	M	395j_12h02m	;
reserver	P	395j_20h02m	T	397j_06h02m	;
reserver	N	397j_19h02m	D	398j_17h02m	;
reserver	L	399j_20h02m	J	401j_13h02m	;
reserver	B	402j_01h02m	A	403j_12h02m	;
reserver	L	404j_21h02m	N	406j_02h02m	;
reserver	V	407j_10h02m	P	408j_03h02m	;
reserver	S	408j_19h02m	W	410j_15h02m	;
reserver	F	410j_16h02m	Q	412j_03h02m	;
reserver	J	413j_07h02m	B	414j_06h02m	;
reserver	U	415j_13h02m	K	416j_05h02m	;
reserver	N	416j_12h03m	E	417j_23h03m	;
reserver	H	418j_05h03m	M	419j_15h03m	;
reserver	L	421j_07h03m	Z	422j_05h03m	;
reserver	W	423j_07h03m	Z	424j_11h03m	;
reserver	G	424j_23h03m	W	425j_12h03m	;
reserver	R	427j_09h03m	K	428j_07h03m	;
reserver	B	428j_13h03m	W	430j_00h03m	;
reserver	V	430j_16h03m	N	432j_10h03m	;
reserver	H	433j_02h03m	W	433j_15h03m	;
reserver	S	434j_01h03m	R	435j_22h03m	;
reserver	R	436j_07h03m	K	437j_15h03m	;
reserver	I	437j_15h03m	E	438j_07h03m	;
reserver	C	440j_04h03m	Z	441j_23h03m	;
reserver	J	443j_08h03m	A	444j_11h03m	;
reserver	B	445j_04h03m	L	446j_21h03m	;
reserver	C	447j_18h03m	Y	448j_19h03m	;
reserver	T	449j_17h03m	W	451j_08h03m	;
reserver	D	452j_08h03m	R	453j_07h03m	;
reserver	Z	453j_10h03m	Y	455j_09h03m	;
reserver	S	456j_06h03m	B	458j_04h03m	;
reserver	F	460j_01h03m	C	461j_06h03m	;
reserver	R	463j_02h03m	S	463j_16h03m	;
reserver	K	465j_04h03m	M	466j_18h03m	;
reserver	V	468j_02h03m	E	469j_13h03m	;
reserver	W	470j_03h03m	X	471j_07h03m	;
reserver	O	472j_01h03m	J	473j_17h03m	;
reserver	Q	474j_08h03m	Q	475j_12h03m	;
reserver	T	477j_11h03m	G	478j_11h03m	;
reserver	D	479j_15h03m	T	481j_11h03m	;
reserver	Z	481j_11h03m	E	482j_19h03m	;
reserver	S	483j_16h03m	D	485j_15h03m	;
reserver	X	486j_14h03m	J	487j_03h03m	;
reserver	B	487j_18h03m	J	488j_12h03m	;
reserver	C	490j_02h03m	C	491j_02h03m	;
reserver	L	492j_18h03m	A	493j_18h03m	;
reserver	F	495j_17h03m	W	496j_15h03m	;
reserver	B	497j_06h03m	U	498j_20h03m	;
reserver	P	499j_07h03m	L	501j_05h03m	;
reserver	S	503j_02h03m	Y	504j_12h03m	;
reserver	M	505j_04h03m	M	507j_00h03m	;
reserver	G	508j_18h03m	J	510j_10h03m	;
reserver	B	510j_23h03m	Z	511j_19h03m	;
reserver	R	511j_21h03m	Z	513j_15h03m	;
reserver	H	513j_15h03m	Y	514j_03h03m	;
reserver	Y	514j_17h03m	C	515j_15h03m	;
reserver	M	516j_20h03m	R	518j_20h03m	;
reserver	T	518j_21h03m	G	520j_11h03m	;
reserver	H	522j_11h03m	N	523j_00h03m	;
reserver	L	523j_23h03m	G	525j_18h03m	;
reserver	F	526j_00h03m	B	527j_00h03m	;
reserver	R	527j_09h03m	F	528j_18h03m	;
reserver	L	528j_20h03m	P	529j_11h03m	;
reserver	D	529j_18h03m	Y	530j_21h03m	;
reserver	R	532j_21h03m	B	533j_19h03m	;
reserver	W	534j_21h03m	P	536j_06h03m	;
reserver	P	536j_18h03m	Q	537j_15h03m	;
reserver	R	539j_03h03m	A	540j_12h03m	;
reserver	B	540j_21h03m	W	542j_05h03m	;
reserver	J	543j_19h03m	Y	545j_10h03m	;
reserver	O	546j_22h03m	Y	547j_23h03m	;
reserver	F	549j_17h04m	V	550j_07h04m	;
reserver	E	551j_12h04m	P	553j_04h04m	;
reserver	T	553j_09h04m	F	554j_00h04m	;
reserver	D	556j_00h04m	I	557j_19h04m	;
reserver	H	559j_13h04m	J	560j_17h04m	;
reserver	U	562j_10h04m	G	563j_22h04m	;
reserver	Z	564j_03h04m	M	565j_09h04m	;
reserver	F	567j_00h04m	F	567j_18h04m	;
reserver	Y	567j_23h04m	J	568j_16h04m	;
reserver	U	569j_15h04m	P	570j_05h04m	;
reserver	F	571j_18h04m	W	572j_08h04m	;
reserver	Q	572j_20h04m	K	573j_21h04m	;
reserver	P	574j_15h04m	E	575j_08h04m	;
reserver	T	577j_07h04m	D	577j_23h04m	;
reserver	Q	579j_18h04m	A	581j_14h04m	;
reserver	D	582j_03h04m	K	583j_03h04m	;
reserver	A	584j_20h04m	G	585j_20h04m	;
reserver	D	586j_19h04m	G	587j_13h04m	;
reserver	H	588j_03h04m	V	588j_20h04m	;
reserver	G	589j_01h04m	Z	589j_23h04m	;
reserver	D	590j_15h04m	L	591j_16h04m	;
reserver	N	592j_12h04m	R	593j_18h04m	;
reserver	V	595j_03h04m	V	596j_00h04m	;
reserver	V	597j_01h04m	Y	598j_21h04m	;
reserver	O	600j_13h04m	P	602j_04h04m	;
reserver	B	603j_04h04m	H	604j_09h04m	;
reserver	A	604j_22h04m	R	605j_16h04m	;
reserver	C	607j_08h04m	U	609j_04h04m	;
reserver	B	609j_10h04m	J	611j_00h04m	;
reserver	N	611j_00h04m	T	611j_14h04m	;
reserver	D	612j_20h04m	T	614j_13h04m	;
reserver	R	615j_05h04m	U	615j_23h04m	;
reserver	J	616j_11h04m	L	617j_22h04m	;
reserver	G	618j_19h04m	M	620j_08h04m	;
reserver	F	621j_18h04m	N	623j_13h04m	;
reserver	E	624j_19h04m	B	626j_03h04m	;
reserver	A	627j_06h04m	I	628j_17h04m	;
reserver	K	630j_05h04m	F	631j_17h04m	;
reserver	S	633j_13h04m	C	634j_10h04m	;
reserver	J	635j_15h04m	O	636j_11h04m	;
reserver	M	637j_07h04m	L	639j_05h04m	;
reserver	E	641j_02h04m	R	642j_12h04m	;
reserver	W	644j_06h04m	N	645j_06h04m	;
reserver	C	647j_05h04m	N	648j_05h04m	;
reserver	Y	649j_09h04m	D	650j_22h04m	;
reserver	Q	651j_21h04m	C	653j_11h04m	;
reserver	F	654j_10h04m	Z	655j_21h04m	;
reserver	W	656j_17h04m	I	658j_13h04m	;
reserver	P	659j_05h04m	U	659j_20h04m	;
reserver	Q	659j_22h04m	J	660j_21h04m	;
reserver	D	662j_10h04m	Q	662j_23h04m	;
reserver	L	664j_23h04m	R	666j_12h04m	;
reserver	O	667j_09h04m	M	668j_11h04m	;
reserver	L	669j_22h04m	A	670j_19h04m	;
reserver	H	671j_08h04m	V	671j_21h04m	;
reserver	F	672j_03h04m	J	673j_05h04m	;
reserver	A	674j_03h04m	S	675j_20h04m	;
reserver	Z	676j_04h04m	M	677j_05h04m	;
reserver	U	677j_14h04m	F	678j_13h04m	;
reserver	G	679j_01h04m	K	680j_06h04m	;
reserver	X	681j_18h05m	E	682j_23h05m	;
reserver	G	684j_15h05m	Z	686j_09h05m	;
reserver	S	687j_07h05m	C	689j_04h05m	;
reserver	M	690j_19h05m	B	691j_10h05m	;
reserver	W	692j_02h05m	D	693j_03h05m	;
reserver	B	693j_18h05m	X	695j_11h05m	;
reserver	B	697j_04h05m	G	697j_18h05m	;
reserver	L	697j_20h05m	T	698j_21h05m	;
reserver	X	699j_04h05m	F	700j_14h05m	;
reserver	I	701j_20h05m	V	703j_07h05m	;
reserver	F	704j_18h05m	R	705j_18h05m	;
reserver	Z	706j_03h05m	G	707j_05h05m	;
reserver	P	709j_05h05m	I	711j_03h05m	;
reserver	Q	713j_03h05m	V	714j_02h05m	;
reserver	X	715j_23h05m	E	717j_23h05m	;
reserver	W	719j_17h05m	I	720j_07h05m	;
reserver	Z	721j_21h05m	F	723j_14h05m	;
reserver	D	724j_00h05m	Y	725j_01h05m	;
reserver	O	725j_15h05m	X	727j_11h05m	;
reserver	M	728j_07h05m	L	729j_19h05m	;
reserver	F	731j_07h05m	O	732j_23h05m	;
reserver	N	734j_19h05m	D	735j_12h05m	;
reserver	I	736j_01h05m	Y	736j_16h05m	;
reserver	F	738j_14h05m	Q	740j_02h05m	;
reserver	D	741j_06h05m	P	741j_18h05m	;
reserver	B	743j_07h05m	V	744j_02h05m	;
reserver	M	745j_00h05m	S	745j_19h05m	;
reserver	U	747j_19h05m	S	749j_11h05m	;
reserver	Y	750j_00h05m	S	751j_20h05m	;
reserver	V	751j_20h05m	K	753j_15h05m	;
reserver	D	754j_00h05m	I	756j_00h05m	;
reserver	I	757j_08h05m	G	759j_03h05m	;
reserver	B	760j_06h05m	A	761j_14h05m	;
reserver	U	761j_23h05m	C	762j_18h05m	;
reserver	X	763j_22h05m	U	765j_04h05m	;
reserver	F	766j_07h05m	T	767j_13h05m	;
reserver	T	768j_19h05m	T	769j_09h05m	;
reserver	D	769j_12h05m	M	770j_19h05m	;
reserver	J	772j_16h05m	I	773j_04h05m	;
reserver	P	774j_10h05m	W	776j_00h05m	;
reserver	T	776j_05h05m	K	777j_15h05m	;
reserver	Y	778j_23h05m	Q	779j_18h05m	;
reserver	I	781j_04h05m	E	782j_12h05m	;
reserver	O	784j_10h05m	O	786j_00h05m	;
reserver	K	786j_20h05m	N	787j_21h05m	;
reserver	N	788j_02h05m	W	789j_15h05m	;
reserver	Y	790j_12h05m	Y	791j_15h05m	;
reserver	Z	792j_01h05m	T	792j_16h05m	;
reserver	Q	793j_21h05m	U	794j_11h05m	;
reserver	F	795j_07h05m	V	796j_16h05m	;
reserver	F	798j_00h05m	J	799j_17h05m	;
reserver	C	801j_08h05m	S	802j_17h05m	;
reserver	Q	803j_20h05m	W	805j_15h05m	;
reserver	M	807j_06h05m	S	807j_21h05m	;
reserver	U	808j_07h05m	I	810j_07h05m	;
reserver	Q	810j_18h05m	S	812j_01h05m	;
reserver	O	812j_02h05m	Z	813j_05h05m	;
reserver	I	814j_19h05m	T	816j_06h05m	;
reserver	L	817j_14h05m	T	819j_07h05m	;
reserver	G	821j_04h05m	R	822j_12h05m	;
reserver	J	824j_10h06m	F	826j_04h06m	;
reserver	J	826j_09h06m	H	828j_03h06m	;
reserver	J	829j_16h06m	L	830j_09h06m	;
reserver	J	832j_03h06m	Y	832j_18h06m	;
reserver	A	834j_06h06m	A	835j_01h06m	;
reserver	G	835j_04h06m	X	836j_02h06m	;
reserver	N	836j_07h06m	U	836j_22h06m	;
reserver	T	837j_16h06m	A	838j_08h06m	;
reserver	J	838j_08h06m	G	839j_03h06m	;
reserver	S	840j_03h06m	E	841j_22h06m	;
reserver	H	843j_19h06m	K	845j_14h06m	;
reserver	Z	847j_13h06m	M	848j_08h06m	;
reserver	L	849j_20h06m	Q	851j_00h06m	;
reserver	P	852j_10h06m	H	853j_12h06m	;
reserver	K	854j_21h06m	H	856j_14h06m	;
reserver	S	857j_04h06m	S	858j_15h06m	;
reserver	N	860j_15h06m	T	861j_03h06m	;
reserver	W	861j_09h06m	X	862j_09h06m	;
reserver	J	864j_04h06m	V	865j_06h06m	;
reserver	P	865j_10h06m	M	866j_02h06m	;
reserver	W	866j_05h06m	Q	867j_15h06m	;
reserver	D	868j_13h06m	D	870j_04h06m	;
reserver	P	871j_13h06m	B	872j_12h06m	;
reserver	R	874j_05h06m	V	875j_10h06m	;
reserver	F	875j_14h06m	V	877j_07h06m	;
reserver	Z	877j_19h06m	X	879j_07h06m	;
reserver	R	880j_09h06m	G	881j_14h06m	;
reserver	R	882j_23h06m	V	883j_12h06m	;
reserver	V	885j_09h06m	W	887j_08h06m	;
reserver	L	887j_18h06m	W	888j_23h06m	;
reserver	C	890j_17h06m	Z	892j_12h06m	;
reserver	S	893j_09h06m	Z	894j_03h06m	;
reserver	E	894j_10h06m	A	895j_07h06m	;
reserver	P	895j_16h06m	F	897j_12h06m	;
reserver	Y	898j_11h06m	C	899j_09h06m	;
reserver	X	899j_11h06m	F	899j_23h06m	;
reserver	A	900j_01h06m	R	900j_21h06m	;
reserver	R	902j_05h06m	U	902j_17h06m	;
reserver	L	904j_12h06m	W	905j_14h06m	;
reserver	U	907j_09h06m	X	908j_09h06m	;
reserver	B	910j_04h06m	G	911j_06h06m	;
reserver	N	911j_11h06m	Z	912j_12h06m	;
reserver	B	912j_19h06m	R	914j_12h06m	;
reserver	O	916j_02h06m	H	916j_19h06m	;
reserver	O	916j_23h06m	T	917j_23h06m	;
reserver	J	918j_16h06m	W	920j_11h06m	;
reserver	Z	921j_13h06m	N	922j_11h06m	;
reserver	W	923j_11h06m	C	925j_11h06m	;
reserver	U	926j_22h06m	R	927j_11h06m	;
reserver	I	928j_09h06m	U	929j_03h06m	;
reserver	B	930j_07h06m	J	931j_12h06m	;
reserver	Q	933j_02h06m	U	934j_23h06m	;
reserver	V	936j_15h06m	N	937j_06h06m	;
reserver	K	937j_12h06m	Y	938j_05h06m	;
reserver	C	938j_17h06m	H	940j_08h06m	;
reserver	I	940j_20h06m	C	942j_12h06m	;
reserver	K	943j_18h06m	F	945j_02h06m	;
reserver	L	946j_17h06m	N	947j_08h06m	;
reserver	S	948j_19h06m	V	950j_09h06m	;
reserver	B	952j_03h06m	Q	953j_02h06m	;
reserver	K	953j_17h07m	F	955j_17h07m	;
reserver	N	957j_07h07m	K	958j_06h07m	;
reserver	O	958j_13h07m	W	960j_00h07m	;
reserver	C	960j_01h07m	P	961j_22h07m	;
reserver	L	963j_21h07m	Y	964j_22h07m	;
reserver	D	965j_15h07m	Y	966j_15h07m	;
reserver	G	967j_10h07m	G	968j_17h07m	;
reserver	M	969j_04h07m	L	970j_04h07m	;
reserver	O	970j_06h07m	W	971j_20h07m	;
reserver	L	972j_16h07m	O	973j_23h07m	;
reserver	O	975j_06h07m	R	977j_06h07m	;
reserver	N	977j_09h07m	G	977j_23h07m	;
reserver	C	978j_05h07m	Z	978j_23h07m	;
reserver	R	979j_14h07m	U	980j_04h07m	;
reserver	L	980j_04h07m	T	980j_17h07m	;
reserver	B	981j_10h07m	L	982j_18h07m	;
reserver	V	984j_04h07m	R	985j_22h07m	;
reserver	N	986j_21h07m	M	988j_16h07m	;
reserver	A	989j_03h07m	B	990j_14h07m	;
reserver	E	991j_12h07m	T	992j_21h07m	;
reserver	O	993j_08h07m	P	994j_02h07m	;
reserver	L	995j_20h07m	C	997j_00h07m	;
reserver	C	998j_02h07m	O	999j_09h07m	;
reserver	Z	1000j_20h07m	W	1001j_18h07m	;
reserver	I	1001j_23h07m	A	1002j_21h07m	;
reserver	C	1003j_00h07m	U	1004j_01h07m	;
reserver	N	1004j_13h07m	F	1006j_13h07m	;
reserver	Z	1008j_10h07m	N	1009j_08h07m	;
reserver	Y	1011j_04h07m	R	1011j_23h07m	;
reserver	E	1012j_13h07m	I	1013j_14h07m	;
reserver	S	1014j_01h07m	P	1016j_00h07m	;
reserver	U	1017j_12h07m	H	1019j_05h07m	;
reserver	Z	1021j_03h07m	M	1022j_00h07m	;
reserver	N	1023j_05h07m	X	1024j_21h07m	;
reserver	C	1026j_09h07m	S	1027j_19h07m	;
reserver	R	1029j_11h07m	L	1030j_05h07m	;
reserver	V	1031j_14h07m	T	1033j_00h07m	;
reserver	C	1035j_00h07m	L	1036j_12h07m	;
reserver	W	1037j_08h07m	A	1039j_02h07m	;
reserver	F	1039j_23h07m	D	1041j_07h07m	;
reserver	X	1042j_23h07m	W	1044j_01h07m	;
reserver	G	1045j_17h07m	D	1046j_21h07m	;
reserver	G	1046j_23h07m	I	1048j_05h07m	;
reserver	U	1049j_20h07m	J	1050j_21h07m	;
reserver	T	1051j_02h07m	K	1051j_21h07m	;
reserver	X	1052j_03h07m	W	1053j_21h07m	;
reserver	Z	1053j_22h07m	H	1055j_14h07m	;
reserver	F	1056j_07h07m	D	1057j_22h07m	;
reserver	Q	1059j_08h07m	P	1059j_21h07m	;
reserver	T	1060j_21h07m	Z	1062j_08h07m	;
reserver	H	1062j_22h07m	K	1064j_08h07m	;
reserver	Q	1064j_13h07m	R	1065j_04h07m	;
reserver	F	1066j_07h07m	C	1067j_14h07m	;
reserver	A	1068j_22h07m	N	1069j_14h07m	;
reserver	L	1070j_10h07m	Q	1072j_07h07m	;
reserver	F	1074j_05h07m	H	1076j_04h07m	;
reserver	Z	1077j_16h07m	C	1079j_11h07m	;
reserver	H	1080j_05h07m	Y	1082j_03h07m	;
reserver	Q	1084j_03h07m	A	1085j_11h07m	;
reserver	D	1086j_15h07m	C	1087j_13h07m	;
reserver	S	1088j_13h08m	X	1089j_03h08m	;
reserver	F	1089j_20h08m	T	1090j_15h08m	;
reserver	S	1091j_08h08m	Y	1092j_23h08m	;
reserver	R	1093j_04h08m	G	1095j_00h08m	;
reserver	I	1095j_12h08m	Z	1097j_10h08m	;
reserver	Y	1097j_14h08m	A	1098j_21h08m	;
reserver	J	1100j_06h08m	C	1102j_00h08m	;
reserver	M	1102j_05h08m	M	1102j_23h08m	;
reserver	R	1104j_08h08m	B	1106j_05h08m	;
reserver	A	1107j_20h08m	S	1108j_15h08m	;
reserver	F	1110j_14h08m	N	1111j_13h08m	;
reserver	D	1113j_10h08m	P	1113j_23h08m	;
reserver	B	1114j_07h08m	K	1115j_11h08m	;
reserver	E	1115j_18h08m	X	1117j_03h08m	;
reserver	V	1118j_06h08m	C	1119j_11h08m	;
reserver	Y	1121j_09h08m	F	1123j_01h08m	;
reserver	Q	1123j_16h08m	N	1124j_21h08m	;
reserver	U	1125j_11h08m	W	1126j_18h08m	;
reserver	A	1127j_15h08m	N	1128j_08h08m	;
reserver	U	1128j_17h08m	H	1129j_14h08m	;
reserver	B	1131j_05h08m	A	1132j_22h08m	;
reserver	X	1134j_07h08m	N	1135j_00h08m	;
reserver	U	1135j_19h08m	W	1136j_17h08m	;
reserver	R	1137j_05h08m	C	1137j_18h08m	;
reserver	A	1139j_16h08m	H	1141j_11h08m	;
reserver	C	1141j_13h08m	S	1142j_11h08m	;
reserver	Q	1143j_06h08m	E	1145j_00h08m	;
reserver	L	1146j_01h08m	H	1147j_16h08m	;
reserver	P	1148j_06h08m	V	1149j_22h08m	;
reserver	J	1150j_18h08m	B	1151j_15h08m	;
reserver	U	1151j_23h08m	Q	1153j_14h08m	;
reserver	D	1154j_11h08m	H	1155j_17h08m	;
reserver	Q	1157j_11h08m	U	1158j_01h08m	;
reserver	M	1158j_23h08m	H	1160j_11h08m	;
reserver	D	1160j_18h08m	S	1161j_17h08m	;
reserver	P	1163j_01h08m	Q	1164j_22h08m	;
reserver	K	1166j_20h08m	F	1167j_16h08m	;
reserver	F	1169j_08h08m	C	1171j_06h08m	;
reserver	P	1171j_12h08m	U	1172j_14h08m	;
reserver	Z	1172j_16h08m	K	1173j_17h08m	;
reserver	N	1173j_19h08m	N	1175j_02h08m	;
reserver	J	1176j_20h08m	C	1178j_01h08m	;
reserver	S	1178j_17h08m	U	1180j_05h08m	;
reserver	Y	1181j_23h08m	B	1183j_18h08m	;
reserver	L	1185j_14h08m	B	1186j_06h08m	;
reserver	L	1186j_17h08m	A	1187j_19h08m	;
reserver	C	1189j_01h08m	E	1189j_23h08m	;
reserver	W	1190j_15h08m	A	1191j_10h08m	;
reserver	D	1192j_17h08m	P	1194j_09h08m	;
reserver	V	1195j_05h08m	V	1196j_17h08m	;
reserver	R	1196j_22h08m	F	1198j_14h08m	;
reserver	R	1200j_06h08m	Q	1202j_05h08m	;
reserver	K	1203j_13h08m	Q	1205j_09h08m	;
reserver	O	1205j_17h08m	F	1206j_12h08m	;
reserver	A	1207j_05h08m	H	1208j_04h08m	;
reserver	Z	1209j_02h08m	U	1210j_04h08m	;
reserver	C	1210j_23h08m	X	1211j_19h08m	;
reserver	C	1213j_16h08m	H	1214j_14h08m	;
reserver	Q	1214j_17h08m	K	1216j_17h08m	;
reserver	W	1217j_16h08m	A	1218j_10h08m	;
reserver	N	1219j_09h09m	D	1219j_22h09m	;
reserver	I	1220j_05h09m	Q	1221j_20h09m	;
reserver	V	1222j_06h09m	S	1223j_15h09m	;
reserver	N	1224j_17h09m	B	1225j_22h09m	;
reserver	C	1227j_18h09m	C	1229j_13h09m	;
reserver	H	1229j_22h09m	T	1231j_01h09m	;
reserver	T	1231j_04h09m	I	1231j_20h09m	;
reserver	C	1232j_12h09m	W	1234j_11h09m	;
reserver	A	1235j_10h09m	G	1236j_01h09m	;
reserver	Q	1237j_20h09m	P	1239j_12h09m	;
reserver	K	1241j_08h09m	Q	1242j_13h09m	;
reserver	D	1243j_01h09m	Z	1243j_23h09m	;
reserver	O	1244j_14h09m	N	1246j_08h09m	;
reserver	Q	1247j_10h09m	Y	1249j_06h09m	;
reserver	J	1250j_20h09m	O	1252j_03h09m	;
reserver	E	1253j_21h09m	G	1254j_13h09m	;
reserver	N	1256j_05h09m	D	1258j_02h09m	;
reserver	C	1260j_02h09m	A	1261j_01h09m	;
reserver	W	1261j_05h09m	Y	1263j_05h09m	;
reserver	U	1263j_22h09m	W	1264j_14h09m	;
reserver	H	1266j_10h09m	Z	1267j_19h09m	;
reserver	Q	1268j_09h09m	J	1269j_10h09m	;
reserver	H	1269j_11h09m	Q	1270j_03h09m	;
reserver	G	1270j_14h09m	G	1271j_06h09m	;
reserver	X	1271j_17h09m	G	1272j_18h09m	;
reserver	R	1274j_07h09m	G	1276j_05h09m	;
reserver	V	1277j_12h09m	Y	1278j_11h09m	;
reserver	C	1279j_19h09m	C	1281j_13h09m	;
reserver	F	1281j_21h09m	Y	1283j_04h09m	;
reserver	N	1284j_15h09m	F	1285j_14h09m	;
reserver	C	1286j_15h09m	U	1287j_23h09m	;
reserver	R	1289j_19h09m	U	1290j_15h09m	;
reserver	Y	1290j_20h09m	I	1292j_02h09m	;
reserver	H	1292j_17h09m	I	1294j_00h09m	;
reserver	E	1294j_09h09m	D	1295j_10h09m	;
reserver	X	1296j_06h09m	V	1298j_06h09m	;
reserver	Y	1300j_02h09m	Y	1300j_14h09m	;
reserver	I	1301j_14h09m	Q	1303j_10h09m	;
reserver	C	1304j_19h09m	O	1305j_18h09m	;
reserver	I	1307j_08h09m	Z	1308j_06h09m	;
reserver	K	1309j_16h09m	G	1310j_17h09m	;
reserver	Q	1312j_07h09m	U	1313j_05h09m	;
reserver	F	1313j_20h09m	A	1315j_15h09m	;
reserver	X	1316j_11h09m	O	1317j_03h09m	;
reserver	O	1318j_12h09m	J	1320j_07h09m	;
reserver	D	1322j_03h09m	B	1323j_23h09m	;
reserver	O	1324j_09h09m	H	1325j_05h09m	;
reserver	W	1326j_01h09m	A	1327j_20h09m	;
reserver	E	1329j_03h09m	S	1329j_21h09m	;
reserver	R	1331j_05h09m	B	1332j_13h09m	;
reserver	S	1332j_13h09m	N	1333j_02h09m	;
reserver	Z	1334j_13h09m	R	1335j_08h09m	;
reserver	K	1335j_08h09m	K	1336j_21h09m	;
reserver	K	1337j_03h09m	J	1338j_12h09m	;
reserver	P	1338j_23h09m	X	1340j_19h09m	;
reserver	K	1342j_09h09m	W	1344j_04h09m	;
reserver	F	1345j_06h09m	M	1346j_22h09m	;
reserver	T	1348j_22h09m	K	1350j_15h09m	;
reserver	S	1351j_23h09m	B	1352j_21h09m	;
reserver	S	1354j_19h09m	U	1356j_19h09m	;
reserver	I	1358j_13h10m	E	1359j_22h10m	;
reserver	D	1360j_12h10m	O	1361j_20h10m	;
reserver	Y	1362j_03h10m	D	1363j_01h10m	;
reserver	E	1363j_17h10m	B	1365j_12h10m	;
reserver	V	1365j_13h10m	T	1366j_11h10m	;
reserver	A	1368j_03h10m	O	1369j_00h10m	;
reserver	O	1369j_19h10m	F	1370j_22h10m	;
reserver	B	1371j_12h10m	V	1373j_00h10m	;
reserver	X	1373j_16h10m	A	1374j_12h10m	;
reserver	M	1375j_07h10m	O	1375j_23h10m	;
reserver	B	1377j_20h10m	F	1378j_23h10m	;
reserver	S	1380j_12h10m	S	1381j_18h10m	;
reserver	R	1383j_03h10m	I	1384j_15h10m	;
reserver	B	1386j_09h10m	C	1387j_04h10m	;
reserver	F	1387j_05h10m	G	1387j_21h10m	;
reserver	S	1388j_17h10m	Y	1390j_04h10m	;
reserver	U	1390j_05h10m	S	1391j_01h10m	;
reserver	U	1391j_10h10m	Z	1392j_09h10m	;
reserver	B	1393j_20h10m	O	1395j_04h10m	;
reserver	M	1396j_12h10m	R	1397j_02h10m	;
reserver	K	1398j_09h10m	S	1399j_00h10m	;
reserver	L	1399j_17h10m	S	1401j_09h10m	;
reserver	T	1401j_09h10m	J	1401j_22h10m	;
reserver	Q	1403j_05h10m	R	1403j_21h10m	;
reserver	R	1404j_03h10m	Z	1404j_16h10m	;
reserver	G	1405j_14h10m	O	1406j_18h10m	;
reserver	Q	1407j_01h10m	P	1408j_09h10m	;
reserver	F	1408j_13h10m	W	1409j_10h10m	;
reserver	S	1410j_17h10m	J	1412j_09h10m	;
reserver	M	1412j_15h10m	J	1413j_08h10m	;
reserver	X	1414j_12h10m	Q	1415j_00h10m	;
reserver	Y	1415j_19h10m	F	1416j_14h10m	;
reserver	D	1416j_23h10m	T	1418j_02h10m	;
reserver	P	1419j_12h10m	U	1421j_04h10m	;
reserver	N	1421j_12h10m	F	1422j_16h10m	;
reserver	I	1423j_10h10m	K	1425j_05h10m	;
reserver	N	1425j_21h10m	A	1426j_14h10m	;
reserver	V	1427j_03h10m	H	1428j_18h10m	;
reserver	J	1430j_12h10m	U	1431j_16h10m	;
reserver	D	1431j_19h10m	R	1433j_09h10m	;
reserver	M	1434j_13h10m	W	1436j_04h10m	;
reserver	X	1436j_07h10m	F	1438j_07h10m	;
reserver	F	1440j_05h10m	R	1441j_02h10m	;
reserver	F	1442j_10h10m	I	1443j_23h10m	;
reserver	O	1444j_23h10m	C	1446j_09h10m	;
reserver	T	1448j_08h10m	O	1450j_03h10m	;
reserver	N	1451j_08h10m	H	1452j_16h10m	;
reserver	K	1453j_18h10m	S	1455j_09h10m	;
reserver	T	1457j_02h10m	G	1458j_01h10m	;
reserver	P	1458j_20h10m	G	1459j_09h10m	;
reserver	J	1461j_07h10m	F	1463j_01h10m	;
reserver	R	1464j_19h10m	B	1465j_22h10m	;
reserver	F	1467j_12h10m	Z	1468j_07h10m	;
reserver	E	1469j_10h10m	X	1470j_05h10m	;
reserver	W	1470j_15h10m	K	1471j_23h10m	;
reserver	E	1472j_06h10m	G	1473j_06h10m	;
reserver	J	1474j_21h10m	X	1476j_07h10m	;
reserver	K	1477j_17h10m	B	1479j_06h10m	;
reserver	R	1480j_22h10m	D	1482j_18h10m	;
reserver	S	1483j_03h10m	S	1484j_02h10m	;
reserver	D	1484j_03h11m	F	1484j_20h11m	;
reserver	O	1485j_18h11m	P	1486j_15h11m	;
reserver	D	1488j_02h11m	L	1488j_22h11m	;
reserver	C	1490j_13h11m	B	1491j_05h11m	;
reserver	Q	1492j_06h11m	W	1494j_00h11m	;
reserver	Y	1494j_10h11m	A	1495j_19h11m	;
reserver	U	1497j_13h11m	F	1499j_08h11m	;
reserver	T	1499j_11h11m	F	1501j_04h11m	;
reserver	T	1502j_01h11m	G	1503j_22h11m	;
reserver	V	1504j_19h11m	H	1506j_00h11m	;
reserver	E	1507j_20h11m	V	1509j_08h11m	;
reserver	J	1510j_12h11m	I	1511j_22h11m	;
reserver	E	1512j_07h11m	H	1513j_18h11m	;
reserver	L	1515j_16h11m	E	1517j_16h11m	;
reserver	B	1518j_22h11m	X	1520j_22h11m	;
reserver	L	1522j_09h11m	I	1523j_10h11m	;
reserver	L	1524j_12h11m	K	1526j_04h11m	;
reserver	Y	1526j_15h11m	Z	1527j_13h11m	;
reserver	P	1528j_06h11m	I	1529j_23h11m	;
reserver	K	1530j_04h11m	J	1532j_03h11m	;
reserver	B	1533j_10h11m	H	1535j_05h11m	;
reserver	I	1535j_14h11m	P	1536j_03h11m	;
reserver	S	1537j_22h11m	O	1539j_15h11m	;
reserver	J	1541j_08h11m	S	1542j_00h11m	;
reserver	D	1543j_11h11m	F	1544j_13h11m	;
reserver	Q	1546j_06h11m	L	1547j_15h11m	;
reserver	L	1549j_07h11m	Q	1550j_12h11m	;
reserver	H	1550j_22h11m	D	1551j_22h11m	;
reserver	P	1553j_17h11m	I	1555j_07h11m	;
reserver	D	1555j_18h11m	T	1557j_15h11m	;
reserver	V	1559j_03h11m	X	1560j_00h11m	;
reserver	B	1560j_18h11m	V	1562j_15h11m	;
reserver	S	1563j_22h11m	V	1565j_00h11m	;
reserver	K	1566j_03h11m	V	1566j_15h11m	;
reserver	I	1567j_00h11m	C	1568j_05h11m	;
reserver	O	1570j_05h11m	J	1571j_01h11m	;
reserver	H	1571j_14h11m	W	1573j_12h11m	;
reserver	V	1574j_19h11m	J	1576j_19h11m	;
reserver	V	1577j_00h11m	K	1577j_17h11m	;
reserver	U	1577j_21h11m	X	1578j_21h11m	;
reserver	F	1580j_03h11m	N	1580j_15h11m	;
reserver	T	1582j_13h11m	Q	1584j_03h11m	;
reserver	N	1584j_23h11m	O	1586j_09h11m	;
reserver	Y	1587j_08h11m	C	1587j_22h11m	;
reserver	G	1589j_15h11m	S	1591j_06h11m	;
reserver	B	1592j_06h11m	D	1593j_03h11m	;
reserver	V	1593j_17h11m	B	1594j_17h11m	;
reserver	I	1596j_07h11m	L	1597j_22h11m	;
reserver	Y	1599j_22h11m	E	1600j_23h11m	;
reserver	G	1601j_00h11m	I	1601j_23h11m	;
reserver	O	1602j_12h11m	I	1603j_19h11m	;
reserver	M	1605j_12h11m	K	1607j_12h11m	;
reserver	A	1609j_03h11m	Q	1609j_23h11m	;
reserver	N	1611j_04h11m	J	1613j_03h11m	;
reserver	B	1614j_01h11m	T	1615j_09h11m	;
reserver	I	1617j_08h11m	J	1618j_20h11m	;
reserver	D	1619j_21h11m	A	1621j_08h11m	;
reserver	N	1621j_17h11m	W	1623j_12h11m	;
reserver	P	1625j_08h11m	G	1626j_09h11m	;
reserver	A	1627j_09h11m	Y	1628j_01h11m	;
reserver	F	1629j_12h12m	N	1630j_10h12m	;
reserver	F	1631j_19h12m	Z	1633j_08h12m	;
reserver	U	1633j_08h12m	Z	1634j_09h12m	;
reserver	T	1634j_14h12m	G	1635j_09h12m	;
reserver	Y	1635j_17h12m	C	1636j_19h12m	;
reserver	N	1637j_17h12m	V	1639j_16h12m	;
reserver	R	1640j_04h12m	V	1640j_20h12m	;
reserver	O	1642j_02h12m	G	1642j_18h12m	;
reserver	C	1642j_22h12m	L	1643j_10h12m	;
reserver	B	1645j_07h12m	A	1647j_02h12m	;
reserver	M	1648j_15h12m	Q	1649j_11h12m	;
reserver	N	1649j_15h12m	N	1650j_06h12m	;
reserver	K	1651j_06h12m	M	1652j_07h12m	;
reserver	D	1654j_04h12m	O	1655j_10h12m	;
reserver	J	1657j_08h12m	Z	1657j_22h12m	;
reserver	L	1659j_16h12m	G	1660j_21h12m	;
reserver	K	1661j_06h12m	C	1661j_18h12m	;
reserver	I	1662j_23h12m	X	1664j_19h12m	;
reserver	V	1666j_16h12m	Q	1667j_10h12m	;
reserver	F	1668j_10h12m	L	1670j_02h12m	;
reserver	K	1670j_08h12m	E	1671j_17h12m	;
reserver	Z	1672j_09h12m	D	1673j_12h12m	;
reserver	C	1673j_14h12m	D	1675j_06h12m	;
reserver	R	1676j_13h12m	M	1677j_18h12m	;
reserver	R	1679j_08h12m	A	1680j_23h12m	;
reserver	Z	1681j_20h12m	K	1683j_13h12m	;
reserver	Q	1685j_09h12m	N	1686j_18h12m	;
reserver	Q	1688j_00h12m	V	1690j_00h12m	;
reserver	Y	1691j_20h12m	S	1692j_16h12m	;
reserver	P	1694j_14h12m	E	1695j_20h12m	;
reserver	Z	1697j_08h12m	Y	1699j_03h12m	;
reserver	E	1699j_19h12m	P	1700j_19h12m	;
reserver	S	1702j_17h12m	T	1704j_17h12m	;
reserver	G	1706j_04h12m	Z	1707j_18h12m	;
reserver	B	1709j_15h12m	X	1710j_06h12m	;
reserver	X	1711j_15h12m	W	1713j_14h12m	;
reserver	I	1713j_14h12m	F	1715j_02h12m	;
reserver	H	1716j_13h12m	D	1717j_23h12m	;
reserver	G	1718j_21h12m	M	1719j_16h12m	;
reserver	W	1721j_13h12m	C	1722j_18h12m	;
reserver	G	1724j_01h12m	L	1725j_22h12m	;
reserver	K	1726j_01h12m	I	1726j_17h12m	;
reserver	K	1727j_17h12m	T	1728j_09h12m	;
reserver	H	1729j_06h12m	O	1730j_15h12m	;
reserver	G	1731j_05h12m	W	1732j_21h12m	;
reserver	V	1734j_06h12m	J	1735j_01h12m	;
reserver	C	1735j_19h12m	W	1736j_21h12m	;
reserver	N	1738j_11h12m	H	1739j_13h12m	;
reserver	P	1740j_16h12m	E	1741j_18h12m	;
reserver	C	1742j_06h12m	E	1743j_05h12m	;
reserver	J	1745j_01h12m	G	1745j_22h12m	;
reserver	R	1746j_17h12m	W	1747j_21h12m	;
reserver	S	1749j_18h12m	A	1751j_08h12m	;
reserver	F	1753j_00h12m	S	1754j_16h12m	;
reserver	I	1756j_00h12m	A	1756j_21h12m	;
reserver	H	1758j_21h12m	I	1759j_20h12m	;
reserver	D	1761j_19h12m	X	1763j_17h12m	;
reserver	J	1764j_22h12m	K	1765j_22h12m	;
reserver	O	1767j_14h12m	Q	1769j_11h12m	;
reserver	G	1769j_14h12m	N	1770j_06h12m	;
reserver	S	1771j_01h13m	B	1772j_16h13m	;
reserver	U	1772j_22h13m	A	1773j_20h13m	;
reserver	D	1774j_08h13m	P	1776j_07h13m	;
reserver	K	1777j_03h13m	J	1778j_20h13m	;
reserver	V	1779j_15h13m	J	1780j_18h13m	;
reserver	R	1782j_03h13m	Q	1783j_17h13m	;
reserver	W	1785j_06h13m	O	1786j_20h13m	;
reserver	O	1788j_12h13m	I	1789j_17h13m	;
reserver	B	1790j_06h13m	X	1790j_21h13m	;
reserver	C	1791j_17h13m	R	1793j_01h13m	;
reserver	D	1793j_10h13m	H	1794j_21h13m	;
reserver	U	1795j_20h13m	C	1797j_03h13m	;
reserver	W	1798j_22h13m	A	1800j_06h13m	;
reserver	V	1800j_06h13m	W	1801j_09h13m	;
reserver	E	1801j_23h13m	O	1802j_17h13m	;
reserver	U	1803j_09h13m	L	1803j_21h13m	;
reserver	Z	1805j_02h13m	Y	1806j_03h13m	;
reserver	V	1807j_02h13m	W	1808j_11h13m	;
reserver	D	1808j_18h13m	A	1810j_04h13m	;
reserver	K	1810j_06h13m	Z	1811j_00h13m	;
reserver	M	1812j_21h13m	U	1814j_17h13m	;
reserver	V	1816j_10h13m	F	1817j_13h13m	;
reserver	C	1819j_01h13m	X	1819j_18h13m	;
reserver	G	1820j_18h13m	M	1822j_03h13m	;
reserver	D	1822j_22h13m	Q	1824j_11h13m	;
reserver	X	1825j_16h13m	K	1826j_12h13m	;
reserver	X	1827j_23h13m	X	1828j_13h13m	;
reserver	V	1828j_18h13m	L	1830j_09h13m	;
reserver	T	1831j_13h13m	Y	1832j_22h13m	;
reserver	K	1833j_04h13m	D	1834j_20h13m	;
reserver	Z	1836j_20h13m	J	1837j_14h13m	;
reserver	S	1838j_05h13m	F	1839j_10h13m	;
reserver	G	1841j_04h13m	Q	1841j_18h13m	;
reserver	K	1842j_03h13m	C	1843j_19h13m	;
reserver	Z	1843j_21h13m	K	1845j_17h13m	;
reserver	G	1847j_02h13m	V	1848j_21h13m	;
reserver	O	1850j_21h13m	G	1852j_04h13m	;
reserver	T	1853j_08h13m	D	1854j_13h13m	;
reserver	V	1854j_15h13m	Y	1856j_07h13m	;
reserver	I	1857j_20h13m	Y	1859j_00h13m	;
reserver	R	1859j_10h13m	S	1860j_02h13m	;
reserver	O	1860j_04h13m	Q	1861j_13h13m	;
reserver	P	1862j_08h13m	X	1863j_15h13m	;
reserver	Y	1864j_02h13m	G	1864j_20h13m	;
reserver	N	1865j_01h13m	F	1866j_02h13m	;
reserver	P	1866j_13h13m	M	1867j_11h13m	;
reserver	F	1867j_23h13m	R	1869j_02h13m	;
reserver	N	1869j_04h13m	J	1870j_06h13m	;
reserver	J	1870j_20h13m	W	1871j_17h13m	;
reserver	E	1873j_05h13m	H	1873j_22h13m	;
reserver	E	1874j_12h13m	S	1876j_11h13m	;
reserver	R	1876j_21h13m	W	1877j_22h13m	;
reserver	V	1879j_11h13m	Z	1880j_19h13m	;
reserver	K	1882j_12h13m	S	1883j_11h13m	;
reserver	G	1883j_23h13m	C	1884j_11h13m	;
reserver	U	1885j_03h13m	P	1885j_19h13m	;
reserver	G	1887j_13h13m	C	1889j_04h13m	;
reserver	I	1889j_21h13m	C	1891j_05h13m	;
reserver	D	1892j_07h13m	K	1893j_18h13m	;
reserver	B	1893j_21h13m	U	1894j_19h13m	;
reserver	H	1895j_05h14m	V	1896j_19h14m	;
reserver	N	1897j_23h14m	B	1898j_18h14m	;
reserver	Y	1899j_06h14m	E	1900j_10h14m	;
reserver	D	1900j_19h14m	M	1901j_09h14m	;
reserver	S	1902j_03h14m	D	1903j_07h14m	;
reserver	A	1905j_05h14m	X	1907j_01h14m	;
reserver	T	1907j_21h14m	T	1909j_14h14m	;
reserver	D	1911j_05h14m	X	1911j_17h14m	;
reserver	O	1912j_01h14m	X	1912j_23h14m	;
reserver	R	1914j_09h14m	L	1915j_16h14m	;
reserver	J	1916j_09h14m	U	1917j_04h14m	;
reserver	N	1918j_18h14m	I	1920j_09h14m	;
reserver	M	1922j_08h14m	P	1924j_05h14m	;
reserver	R	1924j_15h14m	X	1925j_15h14m	;
reserver	P	1926j_10h14m	H	1927j_17h14m	;
reserver	B	1928j_05h14m	S	1929j_12h14m	;
reserver	R	1930j_08h14m	V	1931j_00h14m	;
reserver	J	1932j_20h14m	Q	1934j_18h14m	;
reserver	N	1935j_19h14m	N	1937j_06h14m	;
reserver	C	1937j_18h14m	L	1938j_21h14m	;
reserver	X	1940j_04h14m	A	1940j_17h14m	;
reserver	C	1942j_00h14m	T	1943j_21h14m	;
reserver	G	1944j_13h14m	M	1945j_04h14m	;
reserver	M	1946j_06h14m	H	1947j_18h14m	;
reserver	M	1948j_12h14m	Q	1949j_03h14m	;
reserver	O	1950j_12h14m	F	1952j_08h14m	;
reserver	X	1953j_13h14m	P	1955j_01h14m	;
reserver	N	1956j_12h14m	K	1957j_09h14m	;
reserver	O	1957j_16h14m	W	1959j_05h14m	;
reserver	J	1959j_08h14m	N	1961j_00h14m	;
reserver	K	1962j_04h14m	N	1964j_01h14m	;
reserver	T	1964j_22h14m	Q	1966j_21h14m	;
reserver	P	1968j_04h14m	G	1969j_00h14m	;
reserver	D	1969j_00h14m	H	1970j_08h14m	;
reserver	O	1971j_11h14m	Y	1973j_06h14m	;
reserver	O	1973j_11h14m	O	1975j_01h14m	;
reserver	X	1976j_07h14m	T	1977j_16h14m	;
reserver	I	1978j_11h14m	U	1979j_13h14m	;
reserver	E	1980j_10h14m	F	1982j_07h14m	;
reserver	A	1983j_06h14m	C	1985j_01h14m	;
reserver	S	1985j_12h14m	A	1986j_22h14m	;
reserver	N	1987j_09h14m	I	1988j_16h14m	;
reserver	H	1989j_13h14m	I	1990j_23h14m	;
reserver	M	1991j_12h14m	U	1992j_03h14m	;
reserver	S	1993j_11h14m	Q	1995j_00h14m	;
reserver	P	1995j_11h14m	A	1996j_00h14m	;
reserver	T	1997j_12h14m	Z	1998j_02h14m	;
reserver	L	1998j_15h14m	Y	1999j_03h14m	;
reserver	C	1999j_13h14m	K	2000j_22h14m	;
reserver	M	2001j_12h14m	D	2003j_10h14m	;
reserver	V	2004j_01h14m	O	2004j_14h14m	;
reserver	Q	2005j_01h14m	V	2005j_13h14m	;
reserver	F	2007j_01h14m	U	2007j_17h14m	;
reserver	A	2009j_03h14m	P	2011j_02h14m	;
reserver	I	2012j_13h14m	Y	2014j_12h14m	;
reserver	P	2014j_22h14m	U	2016j_04h14m	;
reserver	W	2016j_21h14m	O	2018j_04h14m	;
reserver	O	2018j_13h14m	W	2019j_13h14m	;
reserver	V	2021j_11h14m	Q	2021j_23h14m	;
reserver	L	2023j_04h14m	X	2024j_05h14m	;
reserver	W	2024j_23h15m	B	2026j_04h15m	;
reserver	E	2027j_06h15m	K	2028j_07h15m	;
reserver	X	2029j_02h15m	E	2030j_11h15m	;
reserver	E	2032j_11h15m	R	2032j_23h15m	;
reserver	V	2034j_07h15m	Z	2035j_02h15m	;
reserver	T	2036j_18h15m	N	2037j_11h15m	;
reserver	W	2038j_02h15m	P	2038j_21h15m	;
reserver	D	2040j_00h15m	K	2040j_19h15m	;
reserver	A	2042j_14h15m	M	2043j_13h15m	;
reserver	W	2043j_20h15m	P	2045j_04h15m	;
reserver	E	2045j_21h15m	Z	2046j_20h15m	;
reserver	W	2046j_20h15m	V	2048j_02h15m	;
reserver	S	2049j_16h15m	Z	2051j_05h15m	;
reserver	W	2052j_07h15m	F	2053j_18h15m	;
reserver	C	2055j_00h15m	V	2055j_22h15m	;
reserver	A	2055j_23h15m	I	2057j_10h15m	;
reserver	Q	2057j_15h15m	S	2058j_04h15m	;
reserver	P	2058j_04h15m	X	2060j_04h15m	;
reserver	O	2061j_22h15m	Y	2063j_01h15m	;
reserver	A	2063j_16h15m	E	2064j_11h15m	;
reserver	X	2066j_06h15m	G	2068j_05h15m	;
reserver	M	2069j_09h15m	D	2070j_08h15m	;
reserver	Z	2070j_20h15m	E	2072j_10h15m	;
reserver	P	2073j_02h15m	T	2074j_02h15m	;
reserver	E	2075j_00h15m	W	2076j_05h15m	;
reserver	C	2077j_23h15m	S	2079j_08h15m	;
reserver	A	2080j_01h15m	M	2080j_13h15m	;
reserver	Y	2081j_17h15m	O	2082j_11h15m	;
reserver	R	2084j_10h15m	U	2085j_12h15m	;
reserver	Y	2086j_11h15m	Y	2087j_18h15m	;
reserver	J	2088j_17h15m	V	2089j_12h15m	;
reserver	R	2090j_12h15m	C	2092j_05h15m	;
reserver	U	2093j_11h15m	P	2094j_10h15m	;
reserver	C	2094j_12h15m	I	2095j_02h15m	;
reserver	W	2095j_23h15m	B	2097j_12h15m	;
reserver	G	2097j_22h15m	T	2099j_04h15m	;
reserver	H	2100j_05h15m	S	2101j_02h15m	;
reserver	C	2101j_15h15m	Z	2103j_02h15m	;
reserver	Q	2104j_20h15m	C	2106j_16h15m	;
reserver	C	2107j_16h15m	U	2108j_05h15m	;
reserver	J	2109j_21h15m	S	2111j_18h15m	;
reserver	Q	2111j_20h15m	P	2113j_00h15m	;
reserver	Z	2114j_16h15m	C	2116j_00h15m	;
reserver	R	2117j_05h15m	K	2118j_07h15m	;
reserver	Y	2120j_07h15m	J	2121j_22h15m	;
reserver	A	2123j_04h15m	X	2123j_22h15m	;
reserver	F	2125j_18h15m	M	2126j_13h15m	;
reserver	D	2128j_00h15m	G	2129j_22h15m	;
reserver	M	2130j_12h15m	Z	2131j_17h15m	;
reserver	W	2131j_23h15m	Z	2133j_05h15m	;
reserver	S	2133j_22h15m	O	2135j_06h15m	;
reserver	X	2136j_23h15m	P	2138j_09h15m	;
reserver	V	2139j_18h15m	T	2141j_07h15m	;
reserver	E	2142j_10h15m	Q	2143j_15h15m	;
reserver	T	2144j_19h15m	U	2145j_19h15m	;
reserver	F	2146j_06h15m	V	2146j_23h15m	;
reserver	H	2146j_23h15m	K	2148j_01h15m	;
reserver	Z	2149j_13h15m	Q	2150j_01h15m	;
reserver	G	2151j_18h15m	C	2152j_12h15m	;
reserver	A	2153j_09h15m	G	2154j_17h15m	;
reserver	D	2156j_10h16m	I	2157j_23h16m	;
reserver	R	2159j_08h16m	S	2160j_00h16m	;
reserver	P	2160j_23h16m	D	2162j_02h16m	;
reserver	C	2164j_02h16m	P	2165j_20h16m	;
reserver	Y	2165j_22h16m	A	2166j_21h16m	;
reserver	B	2168j_05h16m	H	2169j_20h16m	;
reserver	D	2170j_15h16m	T	2172j_10h16m	;
reserver	Q	2173j_00h16m	J	2174j_17h16m	;
reserver	G	2175j_06h16m	Q	2176j_00h16m	;
reserver	Z	2176j_20h16m	A	2177j_12h16m	;
reserver	L	2179j_01h16m	F	2180j_17h16m	;
reserver	G	2180j_23h16m	C	2182j_00h16m	;
reserver	L	2183j_05h16m	U	2184j_17h16m	;
reserver	G	2186j_03h16m	F	2186j_16h16m	;
reserver	B	2188j_15h16m	E	2189j_20h16m	;
reserver	F	2191j_11h16m	M	2193j_08h16m	;
reserver	Y	2193j_10h16m	S	2193j_22h16m	;
reserver	M	2194j_23h16m	H	2196j_04h16m	;
reserver	P	2196j_20h16m	L	2198j_10h16m	;
reserver	U	2199j_17h16m	Y	2200j_08h16m	;
reserver	P	2202j_04h16m	Z	2203j_11h16m	;
reserver	N	2204j_11h16m	D	2206j_08h16m	;
reserver	M	2208j_04h16m	G	2209j_19h16m	;
reserver	T	2209j_21h16m	U	2211j_15h16m	;
reserver	B	2212j_16h16m	K	2214j_07h16m	;
reserver	Y	2216j_04h16m	I	2217j_16h16m	;
reserver	N	2219j_14h16m	G	2221j_04h16m	;
reserver	A	2221j_12h16m	X	2222j_12h16m	;
reserver	K	2223j_17h16m	Z	2224j_18h16m	;
reserver	Y	2224j_20h16m	K	2226j_13h16m	;
reserver	W	2227j_18h16m	O	2228j_15h16m	;
reserver	U	2228j_22h16m	T	2230j_13h16m	;
reserver	B	2232j_11h16m	J	2234j_09h16m	;
reserver	W	2235j_07h16m	W	2236j_13h16m	;
reserver	Z	2236j_23h16m	H	2237j_14h16m	;
reserver	Q	2238j_22h16m	K	2240j_07h16m	;
reserver	D	2240j_14h16m	G	2242j_08h16m	;
reserver	M	2242j_08h16m	F	2243j_23h16m	;
reserver	K	2244j_14h16m	V	2245j_02h16m	;
reserver	E	2245j_07h16m	V	2246j_08h16m	;
