1 : Creee
2 : Creee
3 : Creee
4 : Creee
5 : Creee
6 : Creee
7 : Creee
8 : Creee
9 : Creee
10 : Creee
11 : Creee
12 : Creee
13 : Creee
14 : Creee
15 : Creee
16 : Creee
17 : Creee
18 : Creee
19 : Creee
20 : Creee
21 : Creee
22 : Creee
23 : Creee
24 : Creee
25 : Creee
26 : Creee
27 : Acceptee
28 : Acceptee
29 : Acceptee
30 : Acceptee
31 : Acceptee
32 : Acceptee
33 : Acceptee
34 : Acceptee
35 : Acceptee
36 : Acceptee
37 : Acceptee
38 : Acceptee
39 : Acceptee
40 : Acceptee
41 : Acceptee
42 : Acceptee
43 : Acceptee
44 : Acceptee
45 : NonDispo
46 : Acceptee
47 : Acceptee
48 : Acceptee
49 : Acceptee
50 : Acceptee
51 : Acceptee
52 : Acceptee
53 : Acceptee
54 : Acceptee
55 : Acceptee
56 : Acceptee
57 : Acceptee
58 : Acceptee
59 : NonDispo
60 : Acceptee
61 : Acceptee
62 : Acceptee
63 : Acceptee
64 : Acceptee
65 : Acceptee
66 : Acceptee
67 : Acceptee
68 : Acceptee
69 : Acceptee
70 : Acceptee
71 : Acceptee
72 : Acceptee
73 : Acceptee
74 : Acceptee
75 : Acceptee
76 : Acceptee
77 : Acceptee
78 : Acceptee
79 : Acceptee
80 : Acceptee
81 : Acceptee
82 : Acceptee
83 : Acceptee
84 : Acceptee
85 : Acceptee
86 : Acceptee
87 : Acceptee
88 : Acceptee
89 : Acceptee
90 : Acceptee
91 : Acceptee
92 : NonDispo
93 : Acceptee
94 : NonDispo
95 : Acceptee
96 : Acceptee
97 : Acceptee
98 : Acceptee
99 : NonDispo
100 : Acceptee
101 : NonDispo
102 : Acceptee
103 : Acceptee
104 : Acceptee
105 : Acceptee
106 : Acceptee
107 : Acceptee
108 : Acceptee
109 : Acceptee
110 : Acceptee
111 : Acceptee
112 : Acceptee
113 : Acceptee
114 : NonDispo
115 : Acceptee
116 : Acceptee
117 : Acceptee
118 : Acceptee
119 : Acceptee
120 : NonDispo
121 : Acceptee
122 : Acceptee
123 : NonDispo
124 : Acceptee
125 : NonDispo
126 : Acceptee
127 : Acceptee
128 : Acceptee
129 : Acceptee
130 : Acceptee
131 : Acceptee
132 : Acceptee
133 : Acceptee
134 : NonDispo
135 : Acceptee
136 : Acceptee
137 : Acceptee
138 : Acceptee
139 : Acceptee
140 : NonDispo
141 : Acceptee
142 : Acceptee
143 : Acceptee
144 : Acceptee
145 : NonDispo
146 : NonDispo
147 : Acceptee
148 : Acceptee
149 : NonDispo
150 : Acceptee
151 : Acceptee
152 : NonDispo
153 : Acceptee
154 : Acceptee
155 : NonDispo
156 : Acceptee
157 : Acceptee
158 : Acceptee
159 : Acceptee
160 : Acceptee
161 : Acceptee
162 : Acceptee
163 : NonDispo
164 : Acceptee
165 : Acceptee
166 : Acceptee
167 : NonDispo
168 : Acceptee
169 : Acceptee
170 : NonDispo
171 : Acceptee
172 : Acceptee
173 : Acceptee
174 : Acceptee
175 : NonDispo
176 : NonDispo
177 : NonDispo
178 : Acceptee
179 : Acceptee
180 : NonDispo
181 : Acceptee
182 : Acceptee
183 : NonDispo
184 : NonDispo
185 : Acceptee
186 : Acceptee
187 : Acceptee
188 : Acceptee
189 : Acceptee
190 : NonDispo
191 : NonDispo
192 : Acceptee
193 : NonDispo
194 : Acceptee
195 : Acceptee
196 : Acceptee
197 : Acceptee
198 : NonDispo
199 : Acceptee
200 : Acceptee
201 : Acceptee
202 : Acceptee
203 : NonDispo
204 : Acceptee
205 : NonDispo
206 : Acceptee
207 : Acceptee
208 : Acceptee
209 : NonDispo
210 : Acceptee
211 : NonDispo
212 : Acceptee
213 : NonDispo
214 : NonDispo
215 : Acceptee
216 : NonDispo
217 : Acceptee
218 : NonDispo
219 : NonDispo
220 : NonDispo
221 : Acceptee
222 : NonDispo
223 : Acceptee
224 : NonDispo
225 : NonDispo
226 : Acceptee
227 : Acceptee
228 : NonDispo
229 : Acceptee
230 : NonDispo
231 : NonDispo
232 : Acceptee
233 : NonDispo
234 : NonDispo
235 : Acceptee
236 : NonDispo
237 : Acceptee
238 : Acceptee
239 : NonDispo
240 : NonDispo
241 : Acceptee
242 : NonDispo
243 : NonDispo
244 : Acceptee
245 : NonDispo
246 : Acceptee
247 : Acceptee
248 : NonDispo
249 : NonDispo
250 : NonDispo
251 : Acceptee
252 : NonDispo
253 : NonDispo
254 : Acceptee
255 : NonDispo
256 : Acceptee
257 : NonDispo
258 : NonDispo
259 : Acceptee
260 : NonDispo
261 : NonDispo
262 : NonDispo
263 : NonDispo
264 : NonDispo
265 : NonDispo
266 : Acceptee
267 : NonDispo
268 : Acceptee
269 : Acceptee
270 : NonDispo
271 : NonDispo
272 : Acceptee
273 : NonDispo
274 : NonDispo
275 : Acceptee
276 : NonDispo
277 : Acceptee
278 : Acceptee
279 : Acceptee
280 : Acceptee
281 : NonDispo
282 : Acceptee
283 : NonDispo
284 : Acceptee
285 : Acceptee
286 : NonDispo
287 : Acceptee
288 : NonDispo
289 : NonDispo
290 : Acceptee
291 : Acceptee
292 : NonDispo
293 : NonDispo
294 : Acceptee
295 : NonDispo
296 : NonDispo
297 : NonDispo
298 : NonDispo
299 : NonDispo
300 : Acceptee
301 : NonDispo
302 : NonDispo
303 : Acceptee
304 : NonDispo
305 : NonDispo
306 : NonDispo
307 : NonDispo
308 : Acceptee
309 : NonDispo
310 : NonDispo
311 : NonDispo
312 : NonDispo
313 : Acceptee
314 : Acceptee
315 : Acceptee
316 : NonDispo
317 : Acceptee
318 : NonDispo
319 : NonDispo
320 : NonDispo
321 : Acceptee
322 : NonDispo
323 : Acceptee
324 : NonDispo
325 : NonDispo
326 : NonDispo
327 : Acceptee
328 : NonDispo
329 : NonDispo
330 : NonDispo
331 : Acceptee
332 : Acceptee
333 : Acceptee
334 : NonDispo
335 : Acceptee
336 : NonDispo
337 : Acceptee
338 : NonDispo
339 : NonDispo
340 : Acceptee
341 : NonDispo
342 : NonDispo
343 : NonDispo
344 : Acceptee
345 : NonDispo
346 : NonDispo
347 : NonDispo
348 : Acceptee
349 : Acceptee
350 : NonDispo
351 : Acceptee
352 : NonDispo
353 : NonDispo
354 : NonDispo
355 : NonDispo
356 : Acceptee
357 : Acceptee
358 : Acceptee
359 : Acceptee
360 : Acceptee
361 : NonDispo
362 : NonDispo
363 : NonDispo
364 : NonDispo
365 : Acceptee
366 : Acceptee
367 : Acceptee
368 : NonDispo
369 : Acceptee
370 : Acceptee
371 : NonDispo
372 : Acceptee
373 : Acceptee
374 : NonDispo
375 : Acceptee
376 : Acceptee
377 : NonDispo
378 : NonDispo
379 : NonDispo
380 : NonDispo
381 : NonDispo
382 : NonDispo
383 : NonDispo
384 : NonDispo
385 : NonDispo
386 : Acceptee
387 : NonDispo
388 : Acceptee
389 : Acceptee
390 : NonDispo
391 : NonDispo
392 : NonDispo
393 : NonDispo
394 : NonDispo
395 : Acceptee
396 : Acceptee
397 : Acceptee
398 : NonDispo
399 : NonDispo
400 : NonDispo
401 : NonDispo
402 : NonDispo
403 : NonDispo
404 : Acceptee
405 : NonDispo
406 : NonDispo
407 : NonDispo
408 : Acceptee
409 : NonDispo
410 : NonDispo
411 : NonDispo
412 : Acceptee
413 : Acceptee
414 : Acceptee
415 : NonDispo
416 : NonDispo
417 : NonDispo
418 : Acceptee
419 : Acceptee
420 : Acceptee
421 : NonDispo
422 : NonDispo
423 : NonDispo
424 : NonDispo
425 : NonDispo
426 : Acceptee
427 : Acceptee
428 : NonDispo
429 : Acceptee
430 : NonDispo
431 : NonDispo
432 : NonDispo
433 : Acceptee
434 : Acceptee
435 : Acceptee
436 : NonDispo
437 : Acceptee
438 : NonDispo
439 : Acceptee
440 : Acceptee
441 : NonDispo
442 : NonDispo
443 : Acceptee
444 : NonDispo
445 : NonDispo
446 : NonDispo
447 : NonDispo
448 : Acceptee
449 : NonDispo
450 : NonDispo
451 : NonDispo
452 : Acceptee
453 : Acceptee
454 : Acceptee
455 : NonDispo
456 : Acceptee
457 : NonDispo
458 : Acceptee
459 : Acceptee
460 : Acceptee
461 : Acceptee
462 : Acceptee
463 : Acceptee
464 : NonDispo
465 : NonDispo
466 : NonDispo
467 : Acceptee
468 : NonDispo
469 : Acceptee
470 : Acceptee
471 : NonDispo
472 : NonDispo
473 : NonDispo
474 : Acceptee
475 : Acceptee
476 : NonDispo
477 : Acceptee
478 : Acceptee
479 : Acceptee
480 : NonDispo
481 : NonDispo
482 : NonDispo
483 : NonDispo
484 : Acceptee
485 : NonDispo
486 : NonDispo
487 : NonDispo
488 : NonDispo
489 : Acceptee
490 : Acceptee
491 : NonDispo
492 : NonDispo
493 : NonDispo
494 : NonDispo
495 : NonDispo
496 : Acceptee
497 : NonDispo
498 : Acceptee
499 : NonDispo
500 : Acceptee
501 : NonDispo
502 : Acceptee
503 : NonDispo
504 : NonDispo
505 : Acceptee
506 : NonDispo
507 : NonDispo
508 : NonDispo
509 : NonDispo
510 : NonDispo
511 : Acceptee
512 : NonDispo
513 : NonDispo
514 : NonDispo
515 : Acceptee
516 : NonDispo
517 : NonDispo
518 : NonDispo
519 : NonDispo
520 : NonDispo
521 : Acceptee
522 : Acceptee
523 : NonDispo
524 : Acceptee
525 : NonDispo
526 : NonDispo
527 : NonDispo
528 : NonDispo
529 : NonDispo
530 : Acceptee
531 : Acceptee
532 : NonDispo
533 : NonDispo
534 : Acceptee
535 : NonDispo
536 : Acceptee
537 : Acceptee
538 : Acceptee
539 : NonDispo
540 : NonDispo
541 : Acceptee
542 : NonDispo
543 : NonDispo
544 : NonDispo
545 : Acceptee
546 : Acceptee
547 : NonDispo
548 : NonDispo
549 : Acceptee
550 : Acceptee
551 : NonDispo
552 : NonDispo
553 : NonDispo
554 : NonDispo
555 : Acceptee
556 : NonDispo
557 : NonDispo
558 : NonDispo
559 : NonDispo
560 : NonDispo
561 : NonDispo
562 : NonDispo
563 : Acceptee
564 : NonDispo
565 : Acceptee
566 : NonDispo
567 : NonDispo
568 : NonDispo
569 : Acceptee
570 : Acceptee
571 : NonDispo
572 : Acceptee
573 : NonDispo
574 : NonDispo
575 : NonDispo
576 : Acceptee
577 : NonDispo
578 : NonDispo
579 : NonDispo
580 : NonDispo
581 : NonDispo
582 : NonDispo
583 : Acceptee
584 : Acceptee
585 : Acceptee
586 : Acceptee
587 : Acceptee
588 : Acceptee
589 : Acceptee
590 : NonDispo
591 : NonDispo
592 : Acceptee
593 : NonDispo
594 : Acceptee
595 : Acceptee
596 : NonDispo
597 : Acceptee
598 : NonDispo
599 : Acceptee
600 : NonDispo
601 : NonDispo
602 : NonDispo
603 : NonDispo
604 : Acceptee
605 : Acceptee
606 : Acceptee
607 : Acceptee
608 : NonDispo
609 : NonDispo
610 : Acceptee
611 : Acceptee
612 : NonDispo
613 : NonDispo
614 : NonDispo
615 : Acceptee
616 : NonDispo
617 : Acceptee
618 : Acceptee
619 : NonDispo
620 : Acceptee
621 : NonDispo
622 : NonDispo
623 : Acceptee
624 : NonDispo
625 : Acceptee
626 : NonDispo
627 : NonDispo
628 : Acceptee
629 : NonDispo
630 : NonDispo
631 : Acceptee
632 : NonDispo
633 : Acceptee
634 : NonDispo
635 : NonDispo
636 : Acceptee
637 : NonDispo
638 : NonDispo
639 : Acceptee
640 : NonDispo
641 : NonDispo
642 : NonDispo
643 : Acceptee
644 : Acceptee
645 : Acceptee
646 : NonDispo
647 : Acceptee
648 : NonDispo
649 : Acceptee
650 : Acceptee
651 : Acceptee
652 : NonDispo
653 : NonDispo
654 : NonDispo
655 : NonDispo
656 : NonDispo
657 : Acceptee
658 : Acceptee
659 : NonDispo
660 : NonDispo
661 : NonDispo
662 : Acceptee
663 : Acceptee
664 : NonDispo
665 : Acceptee
666 : NonDispo
667 : Acceptee
668 : NonDispo
669 : Acceptee
670 : Acceptee
671 : NonDispo
672 : Acceptee
673 : Acceptee
674 : Acceptee
675 : NonDispo
676 : NonDispo
677 : NonDispo
678 : Acceptee
679 : NonDispo
680 : Acceptee
681 : NonDispo
682 : NonDispo
683 : Acceptee
684 : Acceptee
685 : NonDispo
686 : NonDispo
687 : Acceptee
688 : Acceptee
689 : Acceptee
690 : Acceptee
691 : NonDispo
692 : Acceptee
693 : Acceptee
694 : Acceptee
695 : Acceptee
696 : Acceptee
697 : Acceptee
698 : NonDispo
699 : Acceptee
700 : Acceptee
701 : NonDispo
702 : NonDispo
703 : NonDispo
704 : NonDispo
705 : NonDispo
706 : Acceptee
707 : NonDispo
708 : NonDispo
709 : NonDispo
710 : NonDispo
711 : NonDispo
712 : Acceptee
713 : Acceptee
714 : NonDispo
715 : NonDispo
716 : Acceptee
717 : Acceptee
718 : Acceptee
719 : Acceptee
720 : NonDispo
721 : NonDispo
722 : NonDispo
723 : Acceptee
724 : NonDispo
725 : Acceptee
726 : NonDispo
727 : Acceptee
728 : NonDispo
729 : Acceptee
730 : NonDispo
731 : NonDispo
732 : Acceptee
733 : NonDispo
734 : NonDispo
735 : Acceptee
736 : Acceptee
737 : NonDispo
738 : NonDispo
739 : NonDispo
740 : NonDispo
741 : NonDispo
742 : Acceptee
743 : NonDispo
744 : Acceptee
745 : Acceptee
746 : Acceptee
747 : NonDispo
748 : Acceptee
749 : Acceptee
750 : NonDispo
751 : NonDispo
752 : Acceptee
753 : Acceptee
754 : Acceptee
755 : Acceptee
756 : NonDispo
757 : NonDispo
758 : Acceptee
759 : NonDispo
760 : Acceptee
761 : Acceptee
762 : Acceptee
763 : NonDispo
764 : NonDispo
765 : NonDispo
766 : Acceptee
767 : Acceptee
768 : Acceptee
769 : NonDispo
770 : NonDispo
771 : NonDispo
772 : NonDispo
773 : NonDispo
774 : Acceptee
775 : NonDispo
776 : Acceptee
777 : NonDispo
778 : NonDispo
779 : Acceptee
780 : NonDispo
781 : Acceptee
782 : NonDispo
783 : Acceptee
784 : NonDispo
785 : Acceptee
786 : NonDispo
787 : NonDispo
788 : Acceptee
789 : Acceptee
790 : NonDispo
791 : Acceptee
792 : NonDispo
793 : NonDispo
794 : Acceptee
795 : Acceptee
796 : Acceptee
797 : NonDispo
798 : Acceptee
799 : NonDispo
800 : NonDispo
801 : NonDispo
802 : NonDispo
803 : NonDispo
804 : NonDispo
805 : NonDispo
806 : NonDispo
807 : NonDispo
808 : NonDispo
809 : Acceptee
810 : Acceptee
811 : NonDispo
812 : NonDispo
813 : Acceptee
814 : Acceptee
815 : NonDispo
816 : Acceptee
817 : Acceptee
818 : NonDispo
819 : NonDispo
820 : NonDispo
821 : Acceptee
822 : NonDispo
823 : NonDispo
824 : Acceptee
825 : NonDispo
826 : NonDispo
827 : Acceptee
828 : NonDispo
829 : NonDispo
830 : Acceptee
831 : NonDispo
832 : NonDispo
833 : NonDispo
834 : Acceptee
835 : NonDispo
836 : NonDispo
837 : Acceptee
838 : Acceptee
839 : NonDispo
840 : Acceptee
841 : NonDispo
842 : NonDispo
843 : Acceptee
844 : Acceptee
845 : Acceptee
846 : NonDispo
847 : Acceptee
848 : Acceptee
849 : NonDispo
850 : NonDispo
851 : NonDispo
852 : NonDispo
853 : Acceptee
854 : Acceptee
855 : NonDispo
856 : Acceptee
857 : Acceptee
858 : Acceptee
859 : NonDispo
860 : NonDispo
861 : NonDispo
862 : NonDispo
863 : NonDispo
864 : Acceptee
865 : Acceptee
866 : Acceptee
867 : NonDispo
868 : Acceptee
869 : NonDispo
870 : Acceptee
871 : NonDispo
872 : NonDispo
873 : Acceptee
874 : NonDispo
875 : NonDispo
876 : Acceptee
877 : NonDispo
878 : NonDispo
879 : NonDispo
880 : NonDispo
881 : NonDispo
882 : Acceptee
883 : NonDispo
884 : Acceptee
885 : Acceptee
886 : NonDispo
887 : Acceptee
888 : Acceptee
889 : NonDispo
890 : NonDispo
891 : NonDispo
892 : NonDispo
893 : NonDispo
894 : NonDispo
895 : Acceptee
896 : NonDispo
897 : NonDispo
898 : Acceptee
899 : NonDispo
900 : NonDispo
901 : NonDispo
902 : NonDispo
903 : Acceptee
904 : Acceptee
905 : NonDispo
906 : NonDispo
907 : NonDispo
908 : NonDispo
909 : Acceptee
910 : NonDispo
911 : Acceptee
912 : NonDispo
913 : Acceptee
914 : NonDispo
915 : Acceptee
916 : Acceptee
917 : Acceptee
918 : NonDispo
919 : Acceptee
920 : Acceptee
921 : Acceptee
922 : Acceptee
923 : NonDispo
924 : Acceptee
925 : Acceptee
926 : NonDispo
927 : Acceptee
928 : NonDispo
929 : NonDispo
930 : NonDispo
931 : NonDispo
932 : Acceptee
933 : Acceptee
934 : NonDispo
935 : NonDispo
936 : Acceptee
937 : Acceptee
938 : Acceptee
939 : Acceptee
940 : Acceptee
941 : NonDispo
942 : NonDispo
943 : NonDispo
944 : NonDispo
945 : Acceptee
946 : Acceptee
947 : NonDispo
948 : Acceptee
949 : NonDispo
950 : NonDispo
951 : NonDispo
952 : Acceptee
953 : NonDispo
954 : NonDispo
955 : Acceptee
956 : Acceptee
957 : NonDispo
958 : Acceptee
959 : Acceptee
960 : Acceptee
961 : NonDispo
962 : NonDispo
963 : NonDispo
964 : Acceptee
965 : Acceptee
966 : Acceptee
967 : NonDispo
968 : Acceptee
969 : NonDispo
970 : NonDispo
971 : NonDispo
972 : NonDispo
973 : NonDispo
974 : Acceptee
975 : Acceptee
976 : Acceptee
977 : Acceptee
978 : Acceptee
979 : Acceptee
980 : NonDispo
981 : NonDispo
982 : NonDispo
983 : NonDispo
984 : NonDispo
985 : NonDispo
986 : Acceptee
987 : NonDispo
988 : NonDispo
989 : NonDispo
990 : Acceptee
991 : NonDispo
992 : NonDispo
993 : NonDispo
994 : Acceptee
995 : NonDispo
996 : NonDispo
997 : NonDispo
998 : NonDispo
999 : Acceptee
1000 : NonDispo
1001 : Acceptee
1002 : NonDispo
1003 : NonDispo
1004 : Acceptee
1005 : NonDispo
1006 : Acceptee
1007 : Acceptee
1008 : Acceptee
1009 : NonDispo
1010 : Acceptee
1011 : NonDispo
1012 : NonDispo
1013 : Acceptee
1014 : NonDispo
1015 : NonDispo
1016 : NonDispo
1017 : NonDispo
1018 : Acceptee
1019 : NonDispo
1020 : NonDispo
1021 : NonDispo
1022 : NonDispo
1023 : NonDispo
1024 : NonDispo
1025 : NonDispo
1026 : Acceptee
