creer	A	(45.509415,-73.568122)	6	5	;
creer	B	(46.779344,-71.276443)	2	9	;
creer	C	(45.380947,-71.923853)	8	5	;
creer	D	(46.347809,-72.578216)	5	3	;
creer	E	(48.420928,-71.053798)	4	1	;
creer	F	(45.421874,-75.738523)	4	6	;
creer	G	(45.880628,-72.526932)	6	4	;
creer	H	(45.617069,-72.97368)	5	5	;
creer	I	(45.399768,-72.730458)	4	6	;
creer	J	(45.296928,-73.26853)	6	6	;
reserver	E	4j_10h00m	E	19j_05h00m	;
reserver	B	9j_02h30m	B	27j_20h00m	;
reserver	A	4j_08h00m	A	22j_13h00m	;
reserver	D	3j_01h30m	D	7j_17h30m	;
reserver	A	11j_11h30m	A	27j_08h30m	;
reserver	B	3j_03h30m	B	18j_01h00m	;
reserver	C	2j_10h30m	C	3j_18h30m	;
reserver	J	7j_12h30m	J	19j_04h30m	;
reserver	E	13j_01h30m	E	28j_15h30m	;
reserver	B	5j_23h00m	B	6j_23h00m	;
reserver	A	13j_21h30m	A	26j_23h00m	;
reserver	D	2j_16h00m	D	6j_23h00m	;
reserver	I	3j_06h00m	I	20j_16h00m	;
reserver	C	7j_02h30m	C	8j_12h30m	;
reserver	G	10j_11h30m	G	17j_07h30m	;
reserver	D	3j_02h00m	D	18j_06h00m	;
reserver	I	3j_11h00m	I	18j_21h30m	;
reserver	G	1j_02h30m	G	2j_04h00m	;
reserver	B	3j_03h30m	B	15j_13h30m	;
reserver	H	8j_15h00m	H	20j_02h00m	;
reserver	J	1j_03h30m	J	6j_20h00m	;
reserver	I	13j_11h30m	I	29j_21h00m	;
reserver	C	4j_06h00m	C	14j_04h30m	;
reserver	J	11j_17h30m	J	19j_16h00m	;
reserver	G	9j_15h30m	G	25j_11h00m	;
reserver	F	11j_00h00m	F	22j_05h30m	;
reserver	F	12j_23h30m	F	17j_13h00m	;
reserver	B	8j_10h00m	B	26j_03h30m	;
reserver	B	13j_00h00m	B	16j_15h00m	;
reserver	B	13j_23h30m	B	26j_12h30m	;
reserver	B	11j_10h00m	B	18j_04h00m	;
reserver	B	12j_15h30m	B	20j_23h00m	;
reserver	C	12j_11h00m	C	17j_08h30m	;
reserver	I	8j_17h00m	I	19j_12h00m	;
reserver	A	15j_00h30m	A	18j_16h30m	;
reserver	F	12j_19h00m	F	23j_03h30m	;
reserver	C	6j_02h30m	C	20j_07h30m	;
reserver	C	1j_17h30m	C	12j_00h00m	;
reserver	F	4j_06h30m	F	14j_02h00m	;
reserver	D	3j_09h30m	D	17j_11h30m	;
reserver	I	3j_14h30m	I	17j_14h00m	;
reserver	G	5j_03h30m	G	16j_05h00m	;
reserver	C	6j_09h00m	C	15j_09h00m	;
reserver	G	10j_08h30m	G	20j_14h00m	;
reserver	J	11j_23h30m	J	18j_16h30m	;
reserver	H	14j_01h30m	H	28j_22h30m	;
reserver	F	2j_02h00m	F	13j_12h00m	;
reserver	D	11j_22h30m	D	26j_07h00m	;
reserver	J	4j_05h00m	J	12j_01h30m	;
reserver	I	9j_09h00m	I	12j_05h30m	;
reserver	A	11j_10h30m	A	27j_16h30m	;
reserver	F	4j_20h30m	F	11j_12h00m	;
reserver	G	9j_20h30m	G	26j_06h00m	;
reserver	D	9j_18h30m	D	12j_13h00m	;
reserver	I	9j_19h30m	I	25j_21h30m	;
reserver	H	9j_22h00m	H	18j_07h30m	;
reserver	B	10j_23h30m	B	21j_01h30m	;
reserver	D	8j_15h30m	D	26j_16h30m	;
reserver	G	6j_06h30m	G	16j_04h30m	;
reserver	D	16j_05h30m	D	21j_22h30m	;
reserver	E	12j_03h00m	E	18j_05h00m	;
reserver	F	9j_00h30m	F	20j_01h00m	;
reserver	C	5j_15h30m	C	10j_05h30m	;
reserver	B	16j_06h00m	B	35j_01h30m	;
reserver	G	14j_15h00m	G	29j_16h00m	;
reserver	E	15j_02h30m	E	28j_22h00m	;
reserver	J	7j_19h00m	J	10j_17h30m	;
reserver	H	5j_15h00m	H	21j_12h30m	;
reserver	G	8j_08h30m	G	20j_21h00m	;
reserver	G	7j_14h30m	G	9j_04h30m	;
reserver	F	4j_00h30m	F	11j_01h00m	;
reserver	E	6j_02h30m	E	6j_19h30m	;
reserver	H	15j_18h30m	H	24j_06h30m	;
reserver	J	3j_09h00m	J	11j_02h00m	;
reserver	A	6j_21h00m	A	14j_05h30m	;
reserver	J	12j_10h30m	J	22j_03h30m	;
reserver	D	15j_10h00m	D	18j_04h30m	;
reserver	B	7j_22h00m	B	14j_14h00m	;
reserver	A	9j_11h30m	A	11j_16h00m	;
reserver	D	11j_07h00m	D	23j_10h30m	;
reserver	I	14j_09h00m	I	15j_02h30m	;
reserver	C	9j_10h00m	C	18j_06h30m	;
reserver	D	14j_09h30m	D	30j_11h30m	;
reserver	F	4j_20h00m	F	21j_21h00m	;
reserver	C	15j_09h30m	C	33j_18h30m	;
reserver	F	15j_19h30m	F	26j_09h00m	;
reserver	D	9j_12h30m	D	15j_06h30m	;
reserver	G	3j_18h30m	G	16j_22h30m	;
reserver	D	4j_04h00m	D	12j_00h30m	;
reserver	B	9j_02h30m	B	16j_03h00m	;
reserver	J	8j_23h00m	J	23j_02h00m	;
reserver	I	9j_19h00m	I	27j_12h00m	;
reserver	J	12j_09h30m	J	32j_09h30m	;
reserver	I	13j_13h00m	I	34j_06h00m	;
reserver	H	11j_13h30m	H	22j_08h00m	;
reserver	I	4j_23h30m	I	24j_16h30m	;
reserver	F	8j_22h30m	F	19j_11h30m	;
reserver	C	8j_04h00m	C	18j_14h00m	;
reserver	H	6j_11h00m	H	17j_09h00m	;
reserver	B	18j_00h00m	B	37j_00h00m	;
